{
    "analysis": "624430441766ea095e05a989",
    "automatic": true,
    "biomarker": "diffusion_adc_pipeline",
    "template": "/module/report_container.jade",
    "folder": "/analysis",
    "token": "eyJ0eXAiOiJKV1QiLCJhbGciOiJIUzI1NiJ9.eyJzdWIiOiI2MjQ0MzA0NDE3NjZlYTA5NWUwNWE5ODkiLCJpYXQiOjE2NDg2MzU5NzUsImV4cCI6MTY0OTkzMTk3NX0.coW7PjbNuIjaSqxfqLaDNTYNw8bY91UaYTXpro2T0kM",
    "returnURL": "https://primage.quibim.com/api/analysis/624430441766ea095e05a989",
    "date": "30/03/2022 10:26",
    "study": "RM411-RMABDOMEN",
    "Studyfolder": "/study",
    "series": [{
        "name": "ADCMask1",
        "folder": "/study/ADCMask1",
        "roi": [],
        "standard": "adc"
    },
    {
        "name": "KtransMask1",
        "folder": "/study/KtransMask1",
        "roi": [],
        "standard": "ktrans"
    }, {
        "name": "AxT2FRFSERTrFS",
        "folder": "/study/AxT2FRFSERTrFS720161207174818",
        "roi": [{
            "dimensions": [256, 256, 31, 1],
            "plane": [],
            "shapes": [{
                "points": [
                    [108, 150],
                    [105, 151],
                    [106, 151],
                    [107, 151],
                    [108, 151],
                    [103, 152],
                    [104, 152],
                    [105, 152],
                    [106, 152],
                    [107, 152],
                    [108, 152],
                    [102, 153],
                    [103, 153],
                    [104, 153],
                    [105, 153],
                    [106, 153],
                    [107, 153],
                    [108, 153],
                    [101, 154],
                    [102, 154],
                    [103, 154],
                    [104, 154],
                    [105, 154],
                    [106, 154],
                    [107, 154],
                    [108, 154],
                    [100, 155],
                    [101, 155],
                    [102, 155],
                    [103, 155],
                    [104, 155],
                    [105, 155],
                    [106, 155],
                    [107, 155],
                    [108, 155],
                    [100, 156],
                    [101, 156],
                    [102, 156],
                    [103, 156],
                    [104, 156],
                    [105, 156],
                    [106, 156],
                    [107, 156],
                    [108, 156],
                    [99, 157],
                    [100, 157],
                    [101, 157],
                    [102, 157],
                    [103, 157],
                    [104, 157],
                    [105, 157],
                    [106, 157],
                    [107, 157],
                    [98, 158],
                    [99, 158],
                    [100, 158],
                    [101, 158],
                    [102, 158],
                    [103, 158],
                    [104, 158],
                    [105, 158],
                    [106, 158],
                    [107, 158],
                    [98, 159],
                    [99, 159],
                    [100, 159],
                    [101, 159],
                    [102, 159],
                    [103, 159],
                    [104, 159],
                    [105, 159],
                    [106, 159],
                    [107, 159],
                    [97, 160],
                    [98, 160],
                    [99, 160],
                    [100, 160],
                    [101, 160],
                    [102, 160],
                    [103, 160],
                    [104, 160],
                    [105, 160],
                    [106, 160],
                    [97, 161],
                    [98, 161],
                    [99, 161],
                    [100, 161],
                    [101, 161],
                    [102, 161],
                    [103, 161],
                    [104, 161],
                    [105, 161],
                    [106, 161],
                    [97, 162],
                    [98, 162],
                    [99, 162],
                    [100, 162],
                    [101, 162],
                    [102, 162],
                    [103, 162],
                    [104, 162],
                    [105, 162],
                    [97, 163],
                    [98, 163],
                    [99, 163],
                    [100, 163],
                    [101, 163],
                    [102, 163],
                    [103, 163],
                    [104, 163],
                    [105, 163],
                    [97, 164],
                    [98, 164],
                    [99, 164],
                    [100, 164],
                    [101, 164],
                    [102, 164],
                    [103, 164],
                    [104, 164],
                    [97, 165],
                    [98, 165],
                    [99, 165],
                    [100, 165],
                    [101, 165],
                    [102, 165],
                    [103, 165],
                    [99, 166],
                    [100, 166],
                    [101, 166],
                    [102, 166],
                    [103, 166]
                ],
                "_id": "624429cd35c60a001041a8c7",
                "__v": 0,
                "type": "pixels",
                "v": 0,
                "z": 21
            }, {
                "points": [
                    [107, 151],
                    [108, 151],
                    [109, 151],
                    [110, 151],
                    [111, 151],
                    [106, 152],
                    [107, 152],
                    [108, 152],
                    [109, 152],
                    [110, 152],
                    [111, 152],
                    [112, 152],
                    [104, 153],
                    [105, 153],
                    [106, 153],
                    [107, 153],
                    [108, 153],
                    [109, 153],
                    [110, 153],
                    [111, 153],
                    [112, 153],
                    [113, 153],
                    [103, 154],
                    [104, 154],
                    [105, 154],
                    [106, 154],
                    [107, 154],
                    [108, 154],
                    [109, 154],
                    [110, 154],
                    [111, 154],
                    [112, 154],
                    [113, 154],
                    [102, 155],
                    [103, 155],
                    [104, 155],
                    [105, 155],
                    [106, 155],
                    [107, 155],
                    [108, 155],
                    [109, 155],
                    [110, 155],
                    [111, 155],
                    [112, 155],
                    [113, 155],
                    [101, 156],
                    [102, 156],
                    [103, 156],
                    [104, 156],
                    [105, 156],
                    [106, 156],
                    [107, 156],
                    [108, 156],
                    [109, 156],
                    [110, 156],
                    [111, 156],
                    [112, 156],
                    [113, 156],
                    [114, 156],
                    [100, 157],
                    [101, 157],
                    [102, 157],
                    [103, 157],
                    [104, 157],
                    [105, 157],
                    [106, 157],
                    [107, 157],
                    [108, 157],
                    [109, 157],
                    [110, 157],
                    [111, 157],
                    [112, 157],
                    [113, 157],
                    [114, 157],
                    [100, 158],
                    [101, 158],
                    [102, 158],
                    [103, 158],
                    [104, 158],
                    [105, 158],
                    [106, 158],
                    [107, 158],
                    [108, 158],
                    [109, 158],
                    [110, 158],
                    [111, 158],
                    [112, 158],
                    [113, 158],
                    [114, 158],
                    [100, 159],
                    [101, 159],
                    [102, 159],
                    [103, 159],
                    [104, 159],
                    [105, 159],
                    [106, 159],
                    [107, 159],
                    [108, 159],
                    [109, 159],
                    [110, 159],
                    [111, 159],
                    [112, 159],
                    [113, 159],
                    [114, 159],
                    [99, 160],
                    [100, 160],
                    [101, 160],
                    [102, 160],
                    [103, 160],
                    [104, 160],
                    [105, 160],
                    [106, 160],
                    [107, 160],
                    [108, 160],
                    [109, 160],
                    [110, 160],
                    [111, 160],
                    [112, 160],
                    [113, 160],
                    [99, 161],
                    [100, 161],
                    [101, 161],
                    [102, 161],
                    [103, 161],
                    [104, 161],
                    [105, 161],
                    [106, 161],
                    [107, 161],
                    [108, 161],
                    [109, 161],
                    [110, 161],
                    [111, 161],
                    [112, 161],
                    [99, 162],
                    [100, 162],
                    [101, 162],
                    [102, 162],
                    [103, 162],
                    [104, 162],
                    [105, 162],
                    [106, 162],
                    [107, 162],
                    [108, 162],
                    [109, 162],
                    [110, 162],
                    [111, 162],
                    [112, 162],
                    [100, 163],
                    [101, 163],
                    [102, 163],
                    [103, 163],
                    [104, 163],
                    [105, 163],
                    [106, 163],
                    [107, 163],
                    [108, 163],
                    [109, 163],
                    [110, 163],
                    [111, 163],
                    [100, 164],
                    [101, 164],
                    [102, 164],
                    [103, 164],
                    [104, 164],
                    [105, 164],
                    [106, 164],
                    [107, 164],
                    [108, 164],
                    [109, 164],
                    [110, 164],
                    [100, 165],
                    [101, 165],
                    [102, 165],
                    [103, 165],
                    [104, 165],
                    [105, 165],
                    [106, 165],
                    [107, 165],
                    [108, 165],
                    [109, 165],
                    [110, 165],
                    [101, 166],
                    [102, 166],
                    [103, 166],
                    [104, 166],
                    [105, 166],
                    [106, 166],
                    [107, 166],
                    [108, 166],
                    [102, 167],
                    [103, 167],
                    [104, 167],
                    [105, 167],
                    [106, 167]
                ],
                "_id": "624429cd35c60a001041a8c8",
                "__v": 0,
                "type": "pixels",
                "v": 0,
                "z": 22
            }, {
                "points": [
                    [109, 151],
                    [110, 151],
                    [111, 151],
                    [112, 151],
                    [107, 152],
                    [108, 152],
                    [109, 152],
                    [110, 152],
                    [111, 152],
                    [112, 152],
                    [106, 153],
                    [107, 153],
                    [108, 153],
                    [109, 153],
                    [110, 153],
                    [111, 153],
                    [112, 153],
                    [105, 154],
                    [106, 154],
                    [107, 154],
                    [108, 154],
                    [109, 154],
                    [110, 154],
                    [111, 154],
                    [112, 154],
                    [104, 155],
                    [105, 155],
                    [106, 155],
                    [107, 155],
                    [108, 155],
                    [109, 155],
                    [110, 155],
                    [111, 155],
                    [112, 155],
                    [104, 156],
                    [105, 156],
                    [106, 156],
                    [107, 156],
                    [108, 156],
                    [109, 156],
                    [110, 156],
                    [111, 156],
                    [112, 156],
                    [103, 157],
                    [104, 157],
                    [105, 157],
                    [106, 157],
                    [107, 157],
                    [108, 157],
                    [109, 157],
                    [110, 157],
                    [111, 157],
                    [112, 157],
                    [103, 158],
                    [104, 158],
                    [105, 158],
                    [106, 158],
                    [107, 158],
                    [108, 158],
                    [109, 158],
                    [110, 158],
                    [111, 158],
                    [112, 158],
                    [103, 159],
                    [104, 159],
                    [105, 159],
                    [106, 159],
                    [107, 159],
                    [108, 159],
                    [109, 159],
                    [110, 159],
                    [111, 159],
                    [112, 159],
                    [103, 160],
                    [104, 160],
                    [105, 160],
                    [106, 160],
                    [107, 160],
                    [108, 160],
                    [109, 160],
                    [110, 160],
                    [111, 160],
                    [112, 160],
                    [103, 161],
                    [104, 161],
                    [105, 161],
                    [106, 161],
                    [107, 161],
                    [108, 161],
                    [109, 161],
                    [110, 161],
                    [111, 161],
                    [112, 161],
                    [104, 162],
                    [105, 162],
                    [106, 162],
                    [107, 162],
                    [108, 162],
                    [109, 162],
                    [110, 162],
                    [111, 162],
                    [112, 162],
                    [104, 163],
                    [105, 163],
                    [106, 163],
                    [107, 163],
                    [108, 163],
                    [109, 163],
                    [110, 163],
                    [111, 163],
                    [112, 163],
                    [104, 164],
                    [105, 164],
                    [106, 164],
                    [107, 164],
                    [108, 164],
                    [109, 164],
                    [110, 164],
                    [111, 164],
                    [106, 165],
                    [107, 165],
                    [108, 165],
                    [109, 165],
                    [110, 165],
                    [111, 165],
                    [107, 166],
                    [108, 166],
                    [109, 166],
                    [110, 166],
                    [111, 166],
                    [107, 167],
                    [108, 167],
                    [109, 167],
                    [110, 167],
                    [107, 168],
                    [108, 168],
                    [109, 168],
                    [110, 168],
                    [107, 169],
                    [108, 169]
                ],
                "_id": "624429cd35c60a001041a8c9",
                "__v": 0,
                "type": "pixels",
                "v": 0,
                "z": 23
            }],
            "createdAt": "2022-03-30T10:12:40.624Z",
            "_id": "624429cd35c60a001041a8cc",
            "__v": 0,
            "label": "Mask1",
            "meta": {
                "frameInfos": [{
                    "dimIndex": [1],
                    "imagePosPat": [-143.466, -121.439, 34.6407]
                }, {
                    "dimIndex": [1],
                    "imagePosPat": [-143.466, -121.439, 41.6407]
                }, {
                    "dimIndex": [1],
                    "imagePosPat": [-143.466, -121.439, 48.6407]
                }],
                "origin": {
                    "image_position_patient": ["-143.466", "-121.439", "-112.359"]
                }
            }
        }, {
            "dimensions": [256, 256, 31, 1],
            "plane": [],
            "shapes": [{
                "points": [
                    [133, 147],
                    [134, 147],
                    [135, 147],
                    [136, 147],
                    [133, 148],
                    [134, 148],
                    [135, 148],
                    [136, 148],
                    [133, 149],
                    [134, 149],
                    [135, 149],
                    [136, 149],
                    [133, 146],
                    [134, 146],
                    [135, 146],
                    [136, 146],
                    [132, 147],
                    [137, 147],
                    [132, 148],
                    [137, 148],
                    [132, 149],
                    [137, 149],
                    [133, 150],
                    [134, 150],
                    [135, 150],
                    [136, 150]
                ],
                "_id": "624429cd35c60a001041a8ca",
                "__v": 0,
                "type": "pixels",
                "v": 0,
                "z": 24
            }, {
                "points": [
                    [134, 147],
                    [135, 147],
                    [133, 147],
                    [133, 146],
                    [134, 146],
                    [135, 146],
                    [136, 147],
                    [136, 146],
                    [134, 148],
                    [135, 148]
                ],
                "_id": "624429cd35c60a001041a8cb",
                "__v": 0,
                "type": "pixels",
                "v": 0,
                "z": 23
            }],
            "createdAt": "2022-03-30T10:12:40.624Z",
            "_id": "624429cd35c60a001041a8cd",
            "__v": 0,
            "label": "aorta",
            "meta": {
                "origin": {
                    "image_position_patient": ["-143.466", "-121.439", "-112.359"]
                }
            }
        }],
        "standard": "t2w"
    }],
    "patient": {
        "identifier": "01_Neuroblastoma_45",
        "name": "B29FF3BE",
        "birthdate": "undefined",
        "age": "035M",
        "sex": "M",
        "createdAt": "2020-11-19T01:37:15.649Z"
    },
    "user": "carlosbaeza",
    "thrower": "anajimenez"
}