n,1,-22.546755,-0.161652,90.17868
n,2,-21.999369,-0.816286,86.099983
n,3,-23.011339,3.396639,87.640266
n,4,-26.201797,-0.132995,91.157196
n,5,-23.525126,-3.079915,89.692863
n,6,-24.886969,3.100695,83.144173
n,7,-25.933594,5.128457,85.009155
n,8,-22.894506,1.431831,84.660797
n,9,-28.226549,4.577532,82.671753
n,10,-29.903591,6.369316,85.480637
n,11,-33.137016,4.058822,83.250267
n,12,-33.573849,5.693151,86.197357
n,13,-35.495945,2.516003,83.685387
n,14,-36.207809,1.760713,86.530464
n,15,-36.144264,-1.263762,85.841278
n,16,-36.314358,-1.543784,89.631378
n,17,-36.1059,-0.887652,82.722633
n,18,-35.194111,-3.813143,86.325325
n,19,-35.28997,-4.817576,90.356667
n,20,-32.381584,-4.894106,87.033813
n,21,-31.168156,-5.597797,89.863518
n,22,-28.780331,-5.178689,88.068138
n,23,-27.329491,-4.259549,91.560669
n,24,-25.900969,-4.63521,87.688385
n,25,-23.426701,-4.124815,86.24955
n,26,-26.877811,1.32864,80.555443
n,27,-30.781485,2.688711,80.929756
n,28,-35.552956,-3.004877,84.10907
n,29,-33.433586,-4.055357,83.305084
n,30,-26.748499,-4.860761,85.398354
n,31,-26.415787,-4.404018,82.142143
n,32,-22.947849,-2.761628,82.990906
n,33,-30.242842,-4.783598,84.837776
n,34,-29.873583,-4.137561,82.074844
n,35,-34.717613,1.353344,80.922874
n,36,-29.824837,-1.022756,80.901283
n,37,-33.45335,-2.364079,80.42086
n,38,-23.851206,0.567016,81.507515
n,39,-25.496826,-1.794786,80.683998
n,40,-25.101671,3.706071,90.527534
n,41,-24.848633,5.890964,88.490005
n,42,-27.564734,7.657551,87.973114
n,43,-31.805412,7.631554,90.064507
n,44,-35.428982,4.962451,89.346321
n,45,-36.760647,1.484971,91.293633
n,46,-36.56049,-3.044874,92.601677
n,47,-34.155216,-6.941436,93.183365
n,48,-35.835472,-4.863461,94.271805
n,49,-30.203709,-5.875753,94.145119
n,50,-27.809097,0.152182,93.930214
n,51,-29.126701,-3.006253,95.33783
n,52,-28.569086,3.800529,92.806602
n,53,-36.134651,-1.122877,95.173019
n,54,-27.932611,6.282207,90.798256
n,55,-30.599491,0.779446,95.445503
n,56,-33.073803,-3.464479,95.555275
n,57,-33.851173,0.578856,95.362137
n,58,-31.603975,5.645778,95.662468
n,59,-33.713547,3.355937,95.517998
n,60,-36.417622,3.036603,94.955238
n,61,-36.577232,4.450794,92.333412
n,62,-35.05954,6.723095,93.479515
n,63,-31.027267,7.493905,93.096664
n,64,-32.3265228,2.68968797,88.8379669
n,65,-32.4583244,1.44419134,85.8489227
n,66,-29.4732723,0.296564162,87.8523483
n,67,-32.8052826,-0.454657078,86.8769913
n,68,-25.9465904,0.838875473,86.6169205
n,69,-28.081728,-0.361998916,85.5815277
n,70,-24.8028584,-1.68370986,85.026001
n,71,-30.0704613,1.5058614,84.5390549
n,72,-26.7876453,-1.07934403,83.1290359
n,73,-27.2287579,3.15735054,88.2633438
n,74,-31.4644547,-1.91440284,85.7571793
n,75,-31.9522915,-3.32449174,91.6442642
n,76,-30.8255043,0.21869427,90.4662628
n,77,-32.5651398,0.531234801,92.955925
