en,1,253,254,196,255
en,2,254,256,255,253
en,3,26,257,34,42
en,4,256,254,197,253
en,5,258,256,254,197
en,6,259,260,261,262
en,7,259,261,260,185
en,8,188,262,193,260
en,9,259,188,185,260
en,10,263,264,265,266
en,11,206,263,254,267
en,12,268,267,206,258
en,13,197,263,254,206
en,14,265,269,254,270
en,15,270,269,254,267
en,16,271,205,208,263
en,17,211,271,205,208
en,18,82,131,133,272
en,19,177,273,111,274
en,20,267,270,263,254
en,21,250,271,203,207
en,22,236,275,239,276
en,23,277,201,278,279
en,24,229,276,234,280
en,25,276,281,280,229
en,26,282,280,234,276
en,27,276,282,239,234
en,28,276,282,277,275
en,29,283,284,77,127
en,30,283,285,286,287
en,31,283,285,288,289
en,32,283,124,287,126
en,33,283,285,290,288
en,34,283,291,290,124
en,35,292,11,12,4
en,36,283,286,127,287
en,37,285,289,284,293
en,38,294,285,295,296
en,39,164,218,297,298
en,40,285,287,299,286
en,41,300,172,301,171
en,42,302,303,51,50
en,43,302,50,39,49
en,44,302,49,304,303
en,45,300,301,178,171
en,46,38,39,49,305
en,47,302,305,39,45
en,48,263,265,270,306
en,49,270,307,265,269
en,50,233,267,308,270
en,51,301,309,298,300
en,52,294,310,311,312
en,53,267,269,258,281
en,54,313,36,305,45
en,55,270,314,269,308
en,56,270,308,233,315
en,57,308,267,269,270
en,58,316,317,311,318
en,59,316,319,318,294
en,60,316,320,319,294
en,61,319,316,44,46
en,62,316,319,42,46
en,63,316,319,320,257
en,64,316,42,319,257
en,65,321,233,308,315
en,66,315,220,217,321
en,67,322,323,161,324
en,68,325,322,326,327
en,69,322,328,327,325
en,70,322,310,329,326
en,71,310,330,331,322
en,72,322,332,331,324
en,73,277,282,200,275
en,74,277,275,200,214
en,75,277,275,214,213
en,76,276,279,278,333
en,77,277,278,201,282
en,78,277,334,190,279
en,79,319,335,58,291
en,80,176,309,298,301
en,81,277,279,190,201
en,82,309,176,230,336
en,83,309,337,178,336
en,84,309,337,336,250
en,85,298,309,176,230
en,86,171,301,178,176
en,87,238,242,338,309
en,88,309,306,339,340
en,89,341,77,342,74
en,90,341,304,335,343
en,91,284,283,341,289
en,92,283,285,289,284
en,93,283,285,287,290
en,94,274,344,345,346
en,95,274,347,111,109
en,96,274,347,348,346
en,97,274,103,344,348
en,98,274,347,109,348
en,99,349,305,29,350
en,100,349,351,350,352
en,101,349,353,351,352
en,102,349,11,352,17
en,103,349,21,16,352
en,104,349,20,17,27
en,105,349,21,352,350
en,106,354,355,329,356
en,107,356,357,355,329
en,108,255,358,195,123
en,109,356,351,320,359
en,110,356,351,355,320
en,111,356,351,359,360
en,112,356,361,362,354
en,113,208,267,243,271
en,114,267,252,275,212
en,115,208,252,245,267
en,116,314,363,364,315
en,117,255,264,195,358
en,118,363,297,365,324
en,119,297,315,219,215
en,120,297,154,364,215
en,121,297,339,363,298
en,122,160,164,218,297
en,123,297,298,365,164
en,124,121,358,123,194
en,125,154,364,324,297
en,126,366,313,367,368
en,127,369,22,30,95
en,128,366,313,370,371
en,129,366,313,368,370
en,130,366,368,372,295
en,131,341,289,319,304
en,132,319,305,257,37
en,133,319,47,304,37
en,134,316,42,257,40
en,135,319,42,28,257
en,136,373,374,375,330
en,137,373,374,376,377
en,138,373,314,377,376
en,139,373,148,378,364
en,140,379,380,15,9
en,141,351,381,359,382
en,142,351,383,384,350
en,143,349,351,353,350
en,144,351,383,355,384
en,145,278,182,282,240
en,146,276,277,282,278
en,147,276,239,282,275
en,148,276,268,277,333
en,149,385,282,240,278
en,150,260,259,188,262
en,151,385,280,234,282
en,152,276,278,282,280
en,153,276,279,277,278
en,154,276,333,278,280
en,155,282,249,246,200
en,156,283,285,386,286
en,157,283,291,288,290
en,158,283,341,291,126
en,159,127,128,125,286
en,160,196,255,124,125
en,161,287,299,387,388
en,162,389,390,165,391
en,163,390,389,221,280
en,164,280,389,221,229
en,165,221,280,223,390
en,166,263,270,271,306
en,167,271,338,243,247
en,168,270,338,271,306
en,169,271,208,251,243
en,170,373,374,330,376
en,171,373,391,374,377
en,172,377,378,373,391
en,173,374,330,372,346
en,174,392,272,82,133
en,175,392,82,272,83
en,176,55,343,47,304
en,177,392,393,133,134
en,178,392,134,394,393
en,179,262,255,290,358
en,180,87,395,85,392
en,181,392,395,394,87
en,182,261,396,397,112
en,183,262,117,259,120
en,184,340,397,180,261
en,185,246,282,200,182
en,186,259,261,117,262
en,187,398,354,399,90
en,188,400,12,85,84
en,189,354,135,88,361
en,190,359,400,361,360
en,191,7,380,6,398
en,192,356,399,354,355
en,193,398,3,361,79
en,194,398,361,8,79
en,195,92,94,401,394
en,196,394,401,402,403
en,197,92,401,395,394
en,198,394,92,87,89
en,199,394,395,89,87
en,200,394,395,92,89
en,201,304,303,49,55
en,202,304,404,303,343
en,203,341,319,289,288
en,204,304,296,405,371
en,205,304,289,371,404
en,206,237,385,282,240
en,207,302,304,49,305
en,208,274,348,344,346
en,209,274,344,103,345
en,210,344,402,368,406
en,211,344,345,401,100
en,212,344,103,345,100
en,213,344,313,368,367
en,214,66,303,404,343
en,215,343,55,64,303
en,216,342,343,55,64
en,217,142,140,393,145
en,218,303,62,404,51
en,219,303,57,64,50
en,220,304,404,343,289
en,221,304,303,55,343
en,222,393,149,402,407
en,223,373,331,330,332
en,224,408,142,393,145
en,225,408,332,329,409
en,226,373,408,148,332
en,227,408,393,362,359
en,228,408,393,359,407
en,229,356,380,398,399
en,230,356,380,360,361
en,231,325,354,355,329
en,232,383,410,380,399
en,233,383,379,350,21
en,234,351,383,350,352
en,235,383,379,16,9
en,236,383,380,379,9
en,237,383,379,410,384
en,238,267,281,236,308
en,239,271,306,338,266
en,240,271,247,250,338
en,241,309,340,337,411
en,242,309,306,340,411
en,243,270,339,306,265
en,244,339,265,340,306
en,245,363,339,265,340
en,246,306,411,266,265
en,247,396,412,388,290
en,248,396,412,290,262
en,249,396,326,397,317
en,250,397,52,112,396
en,251,396,317,52,413
en,252,385,390,225,224
en,253,385,177,273,240
en,254,385,177,390,273
en,255,278,273,240,385
en,256,385,225,232,237
en,257,335,68,291,73
en,258,394,87,92,93
en,259,55,56,47,342
en,260,76,291,335,341
en,261,341,335,76,74
en,262,335,56,71,342
en,263,335,71,56,61
en,264,406,100,30,101
en,265,264,194,204,205
en,266,358,264,195,194
en,267,264,262,255,265
en,268,264,254,255,196
en,269,264,255,195,196
en,270,396,117,262,413
en,271,412,254,265,269
en,272,261,262,396,117
en,273,261,397,412,307
en,274,261,265,262,260
en,275,412,262,255,290
en,276,261,397,307,340
en,277,275,249,248,239
en,278,344,348,103,106
en,279,322,328,329,332
en,280,408,142,145,148
en,281,323,105,326,327
en,282,144,325,99,150
en,283,325,99,150,327
en,284,327,414,325,99
en,285,329,325,322,326
en,286,415,24,33,410
en,287,327,323,416,150
en,288,416,327,105,323
en,289,362,135,328,354
en,290,354,417,362,135
en,291,135,417,361,354
en,292,354,144,328,325
en,293,354,399,97,355
en,294,354,144,325,97
en,295,276,280,281,333
en,296,281,308,269,387
en,297,270,235,243,338
en,298,276,281,267,268
en,299,308,236,229,281
en,300,254,267,269,258
en,301,276,267,236,275
en,302,292,352,4,351
en,303,178,309,340,337
en,304,337,411,340,260
en,305,337,181,340,178
en,306,418,119,189,118
en,307,411,337,193,260
en,308,337,193,260,187
en,309,337,184,187,181
en,310,337,336,183,179
en,311,405,305,257,319
en,312,342,47,343,335
en,313,304,296,371,289
en,314,419,294,285,295
en,315,296,295,294,405
en,316,313,305,371,404
en,317,366,346,368,367
en,318,293,420,372,366
en,319,366,295,370,368
en,320,366,295,371,370
en,321,396,412,326,419
en,322,5,360,361,81
en,323,376,307,412,331
en,324,345,151,403,152
en,325,307,416,363,340
en,326,412,307,269,265
en,327,363,265,270,307
en,328,313,107,101,45
en,329,263,271,266,306
en,330,263,196,264,205
en,331,263,271,270,267
en,332,263,271,205,266
en,333,373,377,364,378
en,334,376,374,387,308
en,335,389,216,378,162
en,336,391,378,389,377
en,337,389,391,165,162
en,338,321,377,364,314
en,339,321,389,229,222
en,340,321,389,222,216
en,341,308,374,333,391
en,342,379,21,15,25
en,343,345,403,98,152
en,344,151,403,149,345
en,345,345,163,159,152
en,346,392,272,400,83
en,347,274,166,168,421
en,348,335,60,58,68
en,349,291,58,67,68
en,350,248,267,252,275
en,351,309,178,301,176
en,352,352,4,9,10
en,353,331,307,412,323
en,354,401,100,98,96
en,355,337,336,250,183
en,356,250,309,203,338
en,357,203,309,411,338
en,358,323,324,307,416
en,359,363,298,300,365
en,360,346,375,368,344
en,361,14,6,13,380
en,362,313,370,406,368
en,363,313,305,422,405
en,364,380,13,2,7
en,365,299,293,420,372
en,366,313,36,406,422
en,367,370,368,312,407
en,368,370,368,295,312
en,369,379,33,410,384
en,370,379,384,350,257
en,371,379,15,410,19
en,372,379,350,21,28
en,373,343,47,304,335
en,374,341,291,319,288
en,375,342,56,65,55
en,376,342,343,64,66
en,377,341,342,77,343
en,378,343,77,70,342
en,379,408,362,409,329
en,380,393,149,146,394
en,381,394,395,393,402
en,382,393,400,272,359
en,383,392,393,400,272
en,384,261,265,412,262
en,385,261,412,265,307
en,386,396,326,412,397
en,387,401,92,96,98
en,388,259,261,185,117
en,389,261,180,260,185
en,390,334,333,420,423
en,391,412,388,290,255
en,392,358,255,290,123
en,393,410,380,13,15
en,394,114,186,115,424
en,395,379,26,19,33
en,396,385,237,244,231
en,397,383,379,380,410
en,398,383,355,410,399
en,399,410,14,399,24
en,400,410,13,380,14
en,401,31,415,24,33
en,402,395,401,96,369
en,403,316,257,384,40
en,404,294,288,318,388
en,405,294,295,419,310
en,406,294,405,295,312
en,407,280,333,273,425
en,408,280,333,391,308
en,409,276,267,275,268
en,410,277,334,333,268
en,411,292,353,18,352
en,412,278,273,333,279
en,413,345,103,98,100
en,414,282,275,239,249
en,415,281,236,229,276
en,416,385,223,390,224
en,417,280,278,282,385
en,418,385,234,280,223
en,419,424,114,109,115
en,420,385,390,280,273
en,421,383,379,384,350
en,422,380,351,3,4
en,423,351,360,292,382
en,424,349,21,350,29
en,425,352,292,4,11
en,426,383,16,352,9
en,427,351,3,360,380
en,428,26,257,33,379
en,429,417,362,131,272
en,430,3,398,361,380
en,431,356,399,355,383
en,432,136,135,328,362
en,433,417,361,362,272
en,434,362,354,328,329
en,435,354,356,329,362
en,436,354,328,329,325
en,437,361,135,88,130
en,438,426,369,95,22
en,439,396,419,318,388
en,440,307,397,416,340
en,441,397,105,317,326
en,442,397,317,105,108
en,443,397,416,180,175
en,444,108,52,112,397
en,445,378,157,364,148
en,446,378,155,162,216
en,447,321,389,378,377
en,448,423,189,418,334
en,449,348,109,103,106
en,450,334,268,198,258
en,451,277,334,279,333
en,452,277,334,209,199
en,453,334,198,268,209
en,454,360,84,5,12
en,455,277,209,334,268
en,456,334,423,189,190
en,457,406,101,344,100
en,458,332,329,322,330
en,459,330,407,357,312
en,460,362,409,148,408
en,461,392,393,395,400
en,462,362,272,137,131
en,463,362,272,142,137
en,464,362,138,328,136
en,465,139,138,409,362
en,466,338,247,242,238
en,467,264,193,262,260
en,468,271,251,211,210
en,469,309,339,235,298
en,470,233,270,235,243
en,471,271,251,247,243
en,472,270,235,339,233
en,473,338,243,247,238
en,474,24,355,97,399
en,475,422,30,23,36
en,476,399,97,24,14
en,477,383,352,21,350
en,478,383,410,355,384
en,479,399,380,6,14
en,480,319,294,320,405
en,481,291,288,290,413
en,482,319,413,291,58
en,483,285,287,388,299
en,484,413,316,44,319
en,485,316,311,415,384
en,486,285,388,287,290
en,487,351,320,359,381
en,488,404,63,113,51
en,489,285,288,289,296
en,490,285,388,290,288
en,491,362,356,329,359
en,492,272,400,83,81
en,493,131,132,137,362
en,494,133,137,140,393
en,495,400,272,361,81
en,496,145,408,375,393
en,497,314,332,373,364
en,498,332,324,364,314
en,499,322,326,327,323
en,500,155,373,391,375
en,501,368,372,295,330
en,502,154,148,147,332
en,503,331,314,332,373
en,504,100,30,96,401
en,505,281,268,333,258
en,506,268,198,258,206
en,507,263,208,267,206
en,508,412,262,265,255
en,509,261,396,112,117
en,510,317,415,414,41
en,511,317,41,414,105
en,512,316,317,415,311
en,513,396,317,397,52
en,514,407,368,406,370
en,515,344,375,368,402
en,516,101,344,100,106
en,517,370,312,381,407
en,518,345,401,402,344
en,519,374,375,330,346
en,520,366,368,346,372
en,521,330,312,368,407
en,522,402,345,149,403
en,523,407,149,402,375
en,524,408,375,407,330
en,525,375,345,344,346
en,526,374,420,333,425
en,527,375,158,421,391
en,528,367,386,418,119
en,529,345,375,158,421
en,530,274,159,345,163
en,531,345,401,100,98
en,532,182,114,273,186
en,533,370,369,422,406
en,534,313,36,101,406
en,535,402,407,368,406
en,536,406,369,402,407
en,537,379,34,257,28
en,538,410,384,415,355
en,539,316,40,384,415
en,540,384,257,33,40
en,541,379,28,257,350
en,542,257,33,379,384
en,543,351,384,320,350
en,544,394,393,149,402
en,545,354,325,355,97
en,546,395,401,369,402
en,547,392,133,393,272
en,548,394,146,403,149
en,549,394,393,140,146
en,550,394,403,143,94
en,551,168,421,390,274
en,552,345,346,375,421
en,553,375,402,345,149
en,554,344,313,406,368
en,555,373,375,408,330
en,556,393,402,395,407
en,557,307,314,363,324
en,558,264,266,411,265
en,559,411,265,340,260
en,560,306,338,266,411
en,561,264,260,262,265
en,562,263,267,208,271
en,563,306,411,265,340
en,564,270,307,269,314
en,565,414,355,32,415
en,566,327,414,326,325
en,567,414,415,32,41
en,568,380,6,398,399
en,569,398,8,361,88
en,570,383,380,9,352
en,571,414,355,311,325
en,572,410,399,14,380
en,573,284,70,119,63
en,574,356,359,361,360
en,575,351,355,320,384
en,576,414,97,325,99
en,577,354,399,90,97
en,578,356,399,398,354
en,579,352,10,9,16
en,580,355,32,415,24
en,581,328,147,138,409
en,582,408,393,142,362
en,583,139,409,148,362
en,584,138,409,362,328
en,585,332,161,150,147
en,586,330,368,346,375
en,587,332,329,409,328
en,588,409,332,328,147
en,589,332,154,364,324
en,590,356,351,360,380
en,591,332,154,324,147
en,592,349,352,11,18
en,593,18,292,12,353
en,594,292,12,360,5
en,595,9,380,4,352
en,596,382,353,91,12
en,597,18,352,11,292
en,598,341,284,343,77
en,599,351,352,4,380
en,600,307,340,363,265
en,601,107,110,113,367
en,602,281,308,387,333
en,603,281,308,267,269
en,604,270,271,338,243
en,605,313,45,113,107
en,606,254,270,263,265
en,607,270,243,267,271
en,608,270,314,308,315
en,609,267,281,258,268
en,610,135,354,144,328
en,611,327,150,325,328
en,612,359,361,362,356
en,613,414,311,355,415
en,614,356,398,361,354
en,615,329,311,325,326
en,616,317,414,311,326
en,617,325,144,328,150
en,618,280,391,273,390
en,619,321,308,377,314
en,620,229,281,280,308
en,621,374,387,308,333
en,622,334,256,333,258
en,623,333,387,256,420
en,624,276,267,281,236
en,625,374,391,425,333
en,626,333,423,279,425
en,627,250,338,203,271
en,628,337,181,187,260
en,629,264,262,358,255
en,630,336,178,179,337
en,631,260,180,340,181
en,632,263,205,264,266
en,633,264,254,265,255
en,634,328,138,141,136
en,635,161,147,332,324
en,636,150,161,153,147
en,637,408,148,332,409
en,638,408,329,359,362
en,639,398,88,354,90
en,640,408,362,142,148
en,641,398,6,7,8
en,642,408,357,407,359
en,643,322,328,325,329
en,644,322,330,331,332
en,645,417,131,362,132
en,646,344,401,406,100
en,647,410,24,399,355
en,648,94,401,394,403
en,649,403,94,401,98
en,650,375,345,158,149
en,651,151,158,159,345
en,652,403,94,152,143
en,653,394,87,86,392
en,654,403,151,149,146
en,655,283,77,126,127
en,656,300,298,301,164
en,657,321,308,236,229
en,658,298,230,226,238
en,659,363,298,339,300
en,660,226,218,173,298
en,661,298,339,235,227
en,662,331,412,326,323
en,663,262,259,188,120
en,664,334,279,423,190
en,665,250,337,203,309
en,666,161,300,167,164
en,667,412,388,255,387
en,668,261,396,412,397
en,669,261,265,260,340
en,670,263,264,196,254
en,671,125,287,126,127
en,672,326,105,414,327
en,673,326,419,331,310
en,674,310,311,329,326
en,675,393,142,362,272
en,676,327,105,414,102
en,677,382,91,85,12
en,678,322,161,150,332
en,679,322,323,327,150
en,680,322,331,323,324
en,681,343,404,66,70
en,682,343,284,70,77
en,683,73,76,291,335
en,684,342,56,71,65
en,685,343,289,404,284
en,686,62,66,303,404
en,687,341,289,304,343
en,688,413,316,317,44
en,689,304,305,371,405
en,690,313,45,305,404
en,691,37,304,319,305
en,692,316,311,384,320
en,693,283,291,341,288
en,694,283,285,284,386
en,695,283,77,341,126
en,696,316,311,294,318
en,697,291,290,124,123
en,698,284,404,371,289
en,699,427,284,404,371
en,700,389,229,280,308
en,701,374,377,308,376
en,702,373,331,314,376
en,703,307,324,323,331
en,704,324,307,416,363
en,705,363,300,416,365
en,706,297,364,324,363
en,707,376,387,412,269
en,708,376,419,310,331
en,709,110,113,367,116
en,710,302,45,51,404
en,711,349,35,27,305
en,712,304,371,305,404
en,713,302,303,404,51
en,714,319,42,43,28
en,715,295,299,419,372
en,716,299,285,293,295
en,717,295,372,419,310
en,718,366,295,372,293
en,719,295,285,293,296
en,720,366,371,295,293
en,721,311,325,326,414
en,722,408,330,329,332
en,723,414,355,97,32
en,724,424,116,118,115
en,725,294,311,310,318
en,726,359,320,356,357
en,727,316,320,294,311
en,728,316,320,384,257
en,729,311,312,357,320
en,730,326,311,318,310
en,731,418,386,420,286
en,732,127,386,418,286
en,733,256,198,197,258
en,734,122,386,418,127
en,735,273,182,240,177
en,736,424,423,420,425
en,737,283,287,124,290
en,738,300,340,174,178
en,739,363,340,300,339
en,740,307,416,397,323
en,741,363,416,324,365
en,742,79,361,80,81
en,743,298,300,365,164
en,744,298,301,164,173
en,745,272,361,81,80
en,746,297,218,228,339
en,747,309,176,336,178
en,748,236,233,267,308
en,749,363,364,315,297
en,750,337,202,183,250
en,751,285,419,295,299
en,752,419,376,387,412
en,753,412,265,254,255
en,754,339,315,233,228
en,755,335,76,71,73
en,756,351,353,382,292
en,757,300,416,167,174
en,758,407,393,149,375
en,759,351,381,382,353
en,760,410,19,14,24
en,761,370,405,312,295
en,762,294,405,312,320
en,763,121,291,67,72
en,764,419,387,299,388
en,765,412,397,326,323
en,766,285,288,294,388
en,767,285,388,419,299
en,768,359,407,381,357
en,769,370,295,371,405
en,770,400,83,85,392
en,771,393,362,359,272
en,772,402,407,375,368
en,773,330,346,368,372
en,774,347,424,420,425
en,775,274,109,103,348
en,776,273,111,274,347
en,777,347,424,109,348
en,778,347,424,425,273
en,779,273,421,425,347
en,780,274,421,347,346
en,781,397,175,108,105
en,782,424,190,423,279
en,783,118,190,423,424
en,784,347,424,111,109
en,785,424,348,115,109
en,786,291,67,72,68
en,787,366,386,293,420
en,788,366,293,386,427
en,789,283,127,126,287
en,790,293,427,284,386
en,791,367,313,107,106
en,792,295,330,312,368
en,793,330,372,295,310
en,794,294,312,295,310
en,795,312,320,381,357
en,796,351,320,381,353
en,797,407,382,426,395
en,798,359,407,400,382
en,799,356,351,380,383
en,800,382,426,395,85
en,801,382,91,426,85
en,802,382,426,91,353
en,803,380,15,9,13
en,804,398,399,6,90
en,805,417,129,132,136
en,806,291,124,76,73
en,807,322,331,326,323
en,808,362,328,409,329
en,809,342,77,70,75
en,810,417,136,135,130
en,811,81,5,79,361
en,812,400,360,81,361
en,813,338,203,271,266
en,814,105,397,416,323
en,815,272,361,359,400
en,816,330,329,310,357
en,817,314,331,307,376
en,818,318,413,316,317
en,819,416,340,397,180
en,820,396,318,419,326
en,821,412,388,387,419
en,822,46,42,43,319
en,823,257,305,405,350
en,824,297,363,339,315
en,825,366,371,293,427
en,826,406,422,36,30
en,827,424,367,115,348
en,828,274,232,170,177
en,829,367,348,110,115
en,830,367,348,106,110
en,831,313,367,113,427
en,832,367,427,116,113
en,833,320,353,350,422
en,834,303,62,51,50
en,835,305,257,37,350
en,836,422,350,320,405
en,837,296,371,289,293
en,838,311,357,312,310
en,839,320,356,357,355
en,840,256,299,387,287
en,841,418,420,256,286
en,842,386,420,286,299
en,843,366,420,372,346
en,844,77,283,341,284
en,845,294,318,310,419
en,846,418,420,386,367
en,847,285,284,386,293
en,848,287,256,255,387
en,849,320,422,381,353
en,850,349,422,305,350
en,851,316,415,317,41
en,852,319,296,304,289
en,853,379,410,33,19
en,854,316,317,44,41
en,855,384,320,350,257
en,856,305,350,37,29
en,857,359,320,357,381
en,858,312,320,405,381
en,859,347,420,424,346
en,860,114,186,424,273
en,861,424,273,111,114
en,862,281,280,308,333
en,863,333,279,273,425
en,864,421,347,273,274
en,865,232,385,177,390
en,866,341,335,74,342
en,867,420,299,387,256
en,868,273,182,278,240
en,869,332,324,314,331
en,870,332,154,148,364
en,871,373,408,375,145
en,872,374,421,391,375
en,873,317,414,415,311
en,874,70,122,77,284
en,875,323,161,324,416
en,876,412,387,255,254
en,877,193,194,264,262
en,878,376,372,419,387
en,879,401,98,94,92
en,880,369,401,96,30
en,881,369,401,30,406
en,882,407,382,395,400
en,883,351,360,382,359
en,884,383,379,21,16
en,885,33,415,410,384
en,886,352,4,10,11
en,887,366,346,367,420
en,888,407,369,395,426
en,889,381,422,369,353
en,890,370,381,405,422
en,891,344,313,101,406
en,892,264,193,266,204
en,893,313,344,106,367
en,894,344,367,368,346
en,895,293,299,420,386
en,896,374,375,346,421
en,897,407,375,368,330
en,898,391,377,308,374
en,899,419,299,387,372
en,900,330,310,376,372
en,901,374,387,333,420
en,902,288,388,413,318
en,903,288,388,290,413
en,904,291,262,67,413
en,905,413,117,262,67
en,906,388,413,318,396
en,907,319,318,288,413
en,908,44,316,41,40
en,909,175,105,397,416
en,910,317,52,413,44
en,911,356,357,329,359
en,912,382,407,381,359
en,913,398,380,3,1
en,914,316,41,40,415
en,915,297,363,365,298
en,916,299,286,256,420
en,917,299,372,420,387
en,918,321,308,314,315
en,919,317,326,105,414
en,920,287,255,388,387
en,921,276,268,333,281
en,922,376,419,372,310
en,923,381,426,353,369
en,924,359,382,400,360
en,925,351,320,353,350
en,926,382,400,85,395
en,927,262,413,290,396
en,928,290,358,121,262
en,929,413,290,291,262
en,930,186,278,182,282
en,931,412,269,387,254
en,932,267,208,243,245
en,933,254,206,258,197
en,934,289,293,371,284
en,935,319,291,413,288
en,936,253,286,287,125
en,937,63,284,70,404
en,938,283,127,386,284
en,939,285,388,294,419
en,940,293,284,427,371
en,941,412,331,419,376
en,942,396,412,419,388
en,943,419,331,412,326
en,944,335,73,71,69
en,945,294,419,388,318
en,946,218,298,339,297
en,947,417,362,136,132
en,948,396,326,317,318
en,949,410,24,355,415
en,950,102,416,327,105
en,951,354,417,361,362
en,952,326,318,419,310
en,953,424,418,118,119
en,954,424,367,346,420
en,955,424,423,425,279
en,956,341,77,74,126
en,957,279,186,424,190
en,958,424,423,418,420
en,959,327,102,414,99
en,960,123,358,121,290
en,961,300,365,161,416
en,962,416,340,180,174
en,963,307,314,376,269
en,964,245,248,267,252
en,965,423,420,334,418
en,966,347,111,424,273
en,967,282,249,239,244
en,968,334,198,192,256
en,969,423,189,118,418
en,970,347,424,348,346
en,971,122,77,284,127
en,972,276,277,268,275
en,973,418,127,192,122
en,974,286,127,192,418
en,975,305,422,35,36
en,976,125,256,128,198
en,977,413,44,52,53
en,978,391,165,162,158
en,979,424,367,116,115
en,980,101,344,106,313
en,981,367,110,116,115
en,982,309,306,338,339
en,983,345,98,104,152
en,984,269,308,314,376
en,985,374,391,421,425
en,986,286,256,418,192
en,987,333,420,423,425
en,988,334,333,256,420
en,989,284,63,427,404
en,990,366,386,367,427
en,991,424,118,418,423
en,992,345,403,401,98
en,993,274,111,103,109
en,994,313,371,427,404
en,995,305,35,27,38
en,996,284,386,119,122
en,997,70,404,66,63
en,998,341,319,291,335
en,999,124,255,123,290
en,1000,396,318,317,413
en,1001,285,386,286,299
en,1002,302,304,305,404
en,1003,414,99,102,32
en,1004,296,295,405,371
en,1005,287,286,256,299
en,1006,290,124,255,287
en,1007,341,319,335,304
en,1008,373,364,332,148
en,1009,284,119,386,427
en,1010,283,386,127,286
en,1011,319,294,296,288
en,1012,284,427,63,119
en,1013,67,413,58,291
en,1014,313,45,404,113
en,1015,427,113,404,63
en,1016,284,386,122,127
en,1017,424,367,348,346
en,1018,404,284,70,343
en,1019,389,377,308,391
en,1020,217,157,215,315
en,1021,297,315,339,228
en,1022,374,420,372,387
en,1023,297,228,218,219
en,1024,60,48,61,335
en,1025,339,315,363,270
en,1026,270,233,339,315
en,1027,277,201,214,200
en,1028,321,389,377,308
en,1029,281,258,333,387
en,1030,324,416,161,365
en,1031,324,154,365,153
en,1032,148,147,332,409
en,1033,378,157,148,155
en,1034,386,119,122,418
en,1035,297,365,160,164
en,1036,387,256,255,254
en,1037,261,180,185,117
en,1038,261,340,307,265
en,1039,378,162,155,391
en,1040,377,308,376,314
en,1041,324,314,331,307
en,1042,43,319,47,46
en,1043,281,269,258,387
en,1044,297,153,365,154
en,1045,261,396,262,412
en,1046,323,161,416,150
en,1047,416,167,102,161
en,1048,297,364,315,215
en,1049,324,365,161,153
en,1050,309,238,235,338
en,1051,324,161,322,332
en,1052,153,156,297,160
en,1053,294,311,320,312
en,1054,370,405,381,312
en,1055,373,377,314,364
en,1056,320,422,405,381
en,1057,402,369,395,407
en,1058,426,95,369,395
en,1059,96,369,95,395
en,1060,91,426,85,95
en,1061,283,288,341,289
en,1062,351,292,360,3
en,1063,313,370,405,422
en,1064,370,381,422,369
en,1065,335,56,54,61
en,1066,415,33,31,40
en,1067,335,56,47,54
en,1068,316,40,44,46
en,1069,47,304,37,49
en,1070,344,367,346,348
en,1071,350,305,405,422
en,1072,344,348,106,367
en,1073,274,166,421,159
en,1074,348,109,106,110
en,1075,392,395,85,400
en,1076,394,146,143,403
en,1077,408,359,329,357
en,1078,406,402,369,401
en,1079,321,220,217,222
en,1080,275,209,268,212
en,1081,276,277,279,333
en,1082,424,425,273,279
en,1083,282,275,249,200
en,1084,333,387,258,256
en,1085,421,390,273,391
en,1086,391,421,425,273
en,1087,277,334,199,190
en,1088,389,308,280,391
en,1089,394,143,93,94
en,1090,334,268,258,333
en,1091,322,310,326,331
en,1092,274,103,111,170
en,1093,374,387,372,376
en,1094,253,196,197,125
en,1095,334,256,258,198
en,1096,263,254,196,197
en,1097,111,182,273,177
en,1098,106,313,107,101
en,1099,305,304,319,405
en,1100,409,147,139,148
en,1101,330,329,322,310
en,1102,414,105,41,102
en,1103,328,150,141,147
en,1104,317,318,326,311
en,1105,397,323,105,326
en,1106,380,398,361,356
en,1107,135,417,362,136
en,1108,355,329,357,311
en,1109,327,102,99,150
en,1110,355,311,357,320
en,1111,426,22,91,353
en,1112,313,305,36,422
en,1113,382,12,400,360
en,1114,426,85,95,395
en,1115,330,331,376,310
en,1116,291,124,126,76
en,1117,133,134,82,392
en,1118,382,12,85,400
en,1119,400,360,12,84
en,1120,400,81,360,84
en,1121,408,329,330,357
en,1122,270,235,338,339
en,1123,414,99,32,97
en,1124,270,267,243,233
en,1125,286,128,256,192
en,1126,268,212,209,206
en,1127,269,254,258,387
en,1128,287,290,388,255
en,1129,289,284,343,341
en,1130,256,258,254,387
en,1131,283,126,291,124
en,1132,404,66,63,62
en,1133,20,23,349,18
en,1134,292,382,360,12
en,1135,426,369,22,353
en,1136,369,422,22,353
en,1137,422,18,23,22
en,1138,353,292,12,382
en,1139,389,222,221,229
en,1140,217,216,157,321
en,1141,229,280,223,221
en,1142,274,170,163,104
en,1143,367,119,424,116
en,1144,265,264,260,411
en,1145,285,293,296,289
en,1146,418,189,122,192
en,1147,325,99,97,144
en,1148,70,342,66,343
en,1149,360,5,84,81
en,1150,305,35,39,36
en,1151,319,320,257,405
en,1152,12,353,91,18
en,1153,420,386,367,366
en,1154,319,53,413,58
en,1155,349,23,27,35
en,1156,353,350,422,349
en,1157,353,18,349,422
en,1158,396,52,112,117
en,1159,121,262,194,120
en,1160,309,242,338,250
en,1161,309,298,235,238
en,1162,238,242,309,230
en,1163,390,165,168,224
en,1164,385,231,224,225
en,1165,277,282,201,200
en,1166,328,141,135,136
en,1167,285,288,296,294
en,1168,291,123,121,290
en,1169,335,48,54,47
en,1170,411,264,260,193
en,1171,274,345,159,421
en,1172,389,221,216,162
en,1173,321,389,216,378
en,1174,374,347,421,346
en,1175,287,253,125,255
en,1176,125,286,287,127
en,1177,267,268,206,212
en,1178,373,408,145,148
en,1179,334,189,418,192
en,1180,192,334,189,199
en,1181,423,190,118,189
en,1182,319,58,335,46
en,1183,261,112,180,117
en,1184,52,317,397,108
en,1185,75,342,66,70
en,1186,414,102,41,32
en,1187,414,97,355,325
en,1188,64,66,65,342
en,1189,279,186,278,273
en,1190,375,158,391,155
en,1191,367,116,427,119
en,1192,370,369,407,381
en,1193,389,165,221,162
en,1194,394,140,134,93
en,1195,394,140,393,134
en,1196,146,393,140,145
en,1197,146,143,140,394
en,1198,149,345,158,151
en,1199,402,345,344,375
en,1200,393,400,359,407
en,1201,117,259,120,188
en,1202,286,256,128,125
en,1203,413,67,59,117
en,1204,427,119,116,63
en,1205,412,323,307,397
en,1206,291,72,123,124
en,1207,413,52,117,59
en,1208,379,15,21,16
en,1209,14,90,399,97
en,1210,351,380,383,352
en,1211,344,402,406,401
en,1212,6,88,398,90
en,1213,6,14,90,399
en,1214,65,342,74,71
en,1215,71,342,74,335
en,1216,319,294,405,296
en,1217,319,296,289,288
en,1218,413,53,59,58
en,1219,291,73,68,72
en,1220,350,21,28,37
en,1221,352,353,18,349
en,1222,384,355,320,311
en,1223,26,25,34,379
en,1224,29,21,16,349
en,1225,352,349,17,16
en,1226,341,76,291,126
en,1227,379,25,28,21
en,1228,270,307,314,363
en,1229,267,212,275,268
en,1230,213,252,275,248
en,1231,271,251,210,247
en,1232,321,308,233,236
en,1233,231,385,234,244
en,1234,385,223,280,390
en,1235,385,234,223,231
en,1236,186,273,182,278
en,1237,385,390,232,225
en,1238,263,196,208,197
en,1239,186,424,273,279
en,1240,321,220,236,233
en,1241,219,220,217,315
en,1242,315,157,215,364
en,1243,285,386,299,293
en,1244,297,156,219,218
en,1245,217,315,215,219
en,1246,385,223,224,231
en,1247,385,231,225,237
en,1248,225,232,169,390
en,1249,361,5,79,3
en,1250,218,173,298,164
en,1251,171,173,301,176
en,1252,300,171,178,174
en,1253,164,301,172,173
en,1254,309,337,203,411
en,1255,364,321,315,157
en,1256,271,210,207,250
en,1257,193,184,337,202
en,1258,187,193,184,337
en,1259,336,179,176,183
en,1260,202,183,250,191
en,1261,197,254,196,253
en,1262,195,124,196,255
en,1263,338,309,411,306
en,1264,176,336,178,179
en,1265,260,185,181,187
en,1266,411,337,203,193
en,1267,250,336,309,242
en,1268,336,176,241,183
en,1269,309,238,230,298
en,1270,298,235,238,226
en,1271,337,184,183,202
en,1272,424,116,119,118
en,1273,398,7,380,1
en,1274,340,174,178,180
en,1275,300,164,301,172
en,1276,300,167,172,171
en,1277,339,218,228,227
en,1278,337,181,178,179
en,1279,274,390,168,169
en,1280,44,319,53,413
en,1281,163,274,168,169
en,1282,147,332,328,150
en,1283,134,82,392,86
en,1284,162,391,378,389
en,1285,364,157,154,148
en,1286,267,233,236,245
en,1287,392,82,83,86
en,1288,321,229,220,222
en,1289,389,222,216,221
en,1290,150,332,328,322
en,1291,84,400,83,85
en,1292,395,95,96,89
en,1293,393,408,375,407
en,1294,375,145,149,155
en,1295,356,351,383,355
en,1296,8,361,130,78
en,1297,78,361,130,80
en,1298,417,130,80,129
en,1299,313,367,107,113
en,1300,354,144,90,135
en,1301,292,5,360,3
en,1302,195,124,255,123
en,1303,253,256,287,286
en,1304,72,123,121,291
en,1305,421,166,168,165
en,1306,418,367,119,424
en,1307,276,236,229,239
en,1308,367,106,107,110
en,1309,313,370,422,406
en,1310,270,306,339,338
en,1311,362,359,272,361
en,1312,78,1,8,79
en,1313,417,361,272,80
en,1314,416,105,102,167
en,1315,397,175,112,108
en,1316,261,397,180,112
en,1317,403,151,143,152
en,1318,395,95,89,85
en,1319,407,312,381,357
en,1320,93,87,86,394
en,1321,330,357,310,312
en,1322,375,158,155,149
en,1323,143,140,394,93
en,1324,417,361,80,130
en,1325,382,353,381,426
en,1326,426,95,91,22
en,1327,89,87,395,85
en,1328,56,47,342,335
en,1329,400,81,84,83
en,1330,303,64,62,50
en,1331,295,299,372,293
en,1332,302,50,51,39
en,1333,303,57,50,49
en,1334,335,69,71,61
en,1335,335,46,60,48
en,1336,54,48,43,47
en,1337,319,53,58,46
en,1338,272,81,82,80
en,1339,342,75,65,74
en,1340,335,68,73,69
en,1341,396,117,413,52
en,1342,46,319,53,44
en,1343,413,52,59,53
en,1344,366,313,371,427
en,1345,121,262,67,291
en,1346,317,41,108,44
en,1347,396,388,413,290
en,1348,316,319,413,318
en,1349,55,342,47,343
en,1350,335,60,68,69
en,1351,406,369,422,30
en,1352,40,26,257,33
en,1353,393,133,134,140
en,1354,384,33,415,40
en,1355,305,29,37,38
en,1356,38,305,29,27
en,1357,27,305,29,349
en,1358,305,38,39,35
en,1359,32,24,355,97
en,1360,8,6,88,398
en,1361,354,90,88,135
en,1362,398,8,1,79
en,1363,322,323,150,161
en,1364,408,357,330,407
en,1365,349,18,11,20
en,1366,46,43,48,47
en,1367,379,15,19,25
en,1368,335,61,60,69
en,1369,352,16,17,10
en,1370,394,402,401,395
en,1371,275,267,236,248
en,1372,251,252,245,208
en,1373,267,206,208,212
en,1374,271,266,207,205
en,1375,192,334,256,418
en,1376,263,208,196,205
en,1377,339,363,265,270
en,1378,300,178,309,340
en,1379,245,208,243,251
en,1380,271,251,208,211
en,1381,267,212,208,252
en,1382,390,225,224,168
en,1383,248,275,239,236
en,1384,275,248,249,214
en,1385,277,199,213,214
en,1386,275,214,249,200
en,1387,266,193,411,203
en,1388,242,309,230,336
en,1389,241,242,230,336
en,1390,338,243,238,235
en,1391,337,181,260,340
en,1392,338,247,250,242
en,1393,210,271,247,250
en,1394,309,339,298,300
en,1395,278,201,186,279
en,1396,282,240,246,237
en,1397,131,133,272,137
en,1398,282,237,244,385
en,1399,321,389,308,229
en,1400,275,213,248,214
en,1401,129,131,417,132
en,1402,334,198,209,199
en,1403,239,229,276,234
en,1404,282,249,244,246
en,1405,86,394,134,93
en,1406,244,385,234,282
en,1407,390,224,223,221
en,1408,282,200,182,186
en,1409,272,80,82,131
en,1410,269,308,376,387
en,1411,374,347,346,420
en,1412,405,350,320,257
en,1413,426,382,407,381
en,1414,163,274,166,168
en,1415,266,204,203,207
en,1416,297,315,228,219
en,1417,263,265,306,266
en,1418,321,314,364,315
en,1419,374,421,347,425
en,1420,315,233,228,220
en,1421,267,245,243,233
en,1422,296,371,293,295
en,1423,267,245,236,248
en,1424,385,177,240,232
en,1425,232,170,169,274
en,1426,373,155,148,145
en,1427,292,12,11,18
en,1428,335,46,58,60
en,1429,415,41,31,32
en,1430,385,237,232,240
en,1431,274,170,111,177
en,1432,280,333,425,391
en,1433,124,287,126,125
en,1434,417,129,136,130
en,1435,298,218,227,226
en,1436,300,178,301,309
en,1437,3,360,361,5
en,1438,297,219,156,215
en,1439,319,318,294,288
en,1440,226,173,230,298
en,1441,176,173,301,298
en,1442,158,159,345,421
en,1443,321,217,216,222
en,1444,157,321,315,217
en,1445,420,334,418,256
en,1446,374,420,346,372
en,1447,373,378,148,155
en,1448,390,165,224,221
en,1449,229,221,223,222
en,1450,367,386,119,427
en,1451,268,198,206,209
en,1452,391,162,155,158
en,1453,393,272,137,142
en,1454,216,157,321,378
en,1455,186,282,201,278
en,1456,280,223,234,229
en,1457,404,45,51,113
en,1458,271,210,211,207
en,1459,227,298,339,218
en,1460,300,340,416,174
en,1461,263,264,254,265
en,1462,172,164,167,300
en,1463,309,339,338,235
en,1464,416,300,167,161
en,1465,416,175,167,174
en,1466,2,1,380,7
en,1467,416,167,175,105
en,1468,298,226,227,235
en,1469,274,104,345,103
en,1470,313,305,405,371
en,1471,172,301,171,173
en,1472,321,233,315,220
en,1473,277,214,201,199
en,1474,274,166,159,163
en,1475,164,365,161,300
en,1476,389,390,221,165
en,1477,282,182,246,240
en,1478,258,198,197,206
en,1479,374,425,347,420
en,1480,398,1,8,7
en,1481,279,186,190,201
en,1482,278,333,273,280
en,1483,389,391,280,390
en,1484,292,5,3,4
en,1485,275,209,212,213
en,1486,403,151,146,143
en,1487,410,24,33,19
en,1488,189,199,334,190
en,1489,278,280,273,385
en,1490,202,183,191,184
en,1491,411,338,266,203
en,1492,193,337,203,202
en,1493,297,154,215,156
en,1494,327,102,150,416
en,1495,392,394,395,393
en,1496,266,204,207,205
en,1497,193,266,411,264
en,1498,2,9,380,4
en,1499,173,230,298,176
en,1500,319,304,296,405
en,1501,264,204,194,193
en,1502,271,203,207,266
en,1503,6,13,380,7
en,1504,417,80,272,131
en,1505,398,3,79,1
en,1506,25,34,379,28
en,1507,260,193,188,187
en,1508,380,2,4,3
en,1509,277,275,209,268
en,1510,364,215,154,157
en,1511,277,213,199,209
en,1512,267,206,258,254
en,1513,415,32,31,24
en,1514,194,120,262,193
en,1515,358,123,194,195
en,1516,380,9,2,13
en,1517,361,79,78,8
en,1518,3,2,1,380
en,1519,169,390,168,225
en,1520,309,300,340,339
en,1521,183,191,241,250
en,1522,277,275,213,209
en,1523,303,62,64,66
en,1524,363,314,364,324
en,1525,192,127,286,128
en,1526,125,198,197,256
en,1527,253,287,256,255
en,1528,256,253,125,286
en,1529,282,246,244,237
en,1530,348,109,110,115
en,1531,256,192,128,198
en,1532,370,369,406,407
en,1533,137,140,393,142
en,1534,125,255,124,287
en,1535,266,193,203,204
en,1536,255,253,125,196
en,1537,212,213,252,275
en,1538,418,189,119,122
en,1539,263,197,208,206
en,1540,336,241,250,183
en,1541,297,160,156,218
en,1542,120,117,67,262
en,1543,262,290,291,121
en,1544,130,78,80,129
en,1545,375,391,374,373
en,1546,132,137,362,142
en,1547,373,408,332,330
en,1548,120,262,193,188
en,1549,349,422,23,35
en,1550,141,328,147,138
en,1551,260,185,187,188
en,1552,339,235,228,233
en,1553,353,18,22,91
en,1554,337,183,184,179
en,1555,46,48,43,42
en,1556,337,184,181,179
en,1557,313,45,101,36
en,1558,194,262,358,264
en,1559,259,185,188,117
en,1560,358,121,262,194
en,1561,421,165,391,158
en,1562,190,186,424,118
en,1563,96,92,401,395
en,1564,280,273,391,425
en,1565,199,198,192,334
en,1566,26,379,34,257
en,1567,349,11,17,20
en,1568,337,250,203,202
en,1569,273,274,390,421
en,1570,111,182,114,273
en,1571,424,109,114,111
en,1572,186,115,424,118
en,1573,366,313,427,367
en,1574,165,421,390,168
en,1575,390,232,169,274
en,1576,260,180,181,185
en,1577,261,340,260,180
en,1578,197,256,253,125
en,1579,23,349,18,422
en,1580,22,422,30,23
en,1581,291,73,72,124
en,1582,317,41,105,108
en,1583,422,36,23,35
en,1584,397,112,175,180
en,1585,412,307,376,269
en,1586,339,235,227,228
en,1587,300,167,171,174
en,1588,410,19,15,13
en,1589,349,305,422,35
en,1590,349,23,20,27
en,1591,27,16,349,29
en,1592,17,27,16,349
en,1593,336,250,241,242
en,1594,264,204,266,205
en,1595,271,207,211,205
en,1596,30,369,95,96
en,1597,80,129,131,417
en,1598,310,330,312,295
en,1599,410,13,14,19
en,1600,282,234,244,239
en,1601,383,21,352,16
en,1602,4,351,3,292
en,1603,315,363,270,314
en,1604,404,62,63,51
en,1605,416,175,174,180
en,1606,363,416,300,340
en,1607,43,42,34,28
en,1608,160,153,365,297
en,1609,365,161,160,164
en,1610,317,108,52,44
en,1611,67,262,121,120
en,1612,319,335,47,46
en,1613,177,390,274,232
en,1614,274,104,103,170
en,1615,424,418,367,420
en,1616,80,79,78,361
en,1617,22,353,422,18
en,1618,350,29,21,37
en,1619,334,423,279,333
en,1620,321,236,220,229
en,1621,378,155,373,391
en,1622,284,70,122,119
en,1623,45,305,404,302
en,1624,393,272,133,137
en,1625,274,163,345,104
en,1626,257,319,37,28
en,1627,421,159,166,158
en,1628,274,170,169,163
en,1629,403,94,98,152
en,1630,277,199,201,190
en,1631,374,372,330,376
en,1632,158,166,421,165
en,1633,379,410,15,380
en,1634,59,67,413,58
en,1635,392,83,87,86
en,1636,321,364,377,378
en,1637,335,48,47,46
en,1638,361,380,360,3
en,1639,264,205,196,195
en,1640,201,282,186,200
en,1641,292,12,5,4
en,1642,379,25,19,26
en,1643,415,31,41,40
en,1644,356,380,399,383
en,1645,375,393,149,145
en,1646,379,16,9,15
en,1647,352,10,17,11
en,1648,257,42,26,40
en,1649,132,138,362,136
en,1650,303,343,66,64
en,1651,345,104,98,103
en,1652,304,37,49,305
en,1653,345,104,163,152
en,1654,373,375,155,145
en,1655,154,156,297,153
en,1656,257,34,42,28
en,1657,28,319,37,47
en,1658,365,161,153,160
en,1659,150,153,141,147
en,1660,341,343,335,342
en,1661,264,205,195,194
en,1662,328,141,150,144
en,1663,357,310,311,329
en,1664,28,319,47,43
en,1665,324,154,153,147
en,1666,336,230,241,176
en,1667,324,297,365,154
en,1668,153,147,154,156
en,1669,316,42,40,46
en,1670,416,102,150,161
en,1671,322,327,328,150
en,1672,409,147,138,139
en,1673,373,330,331,376
en,1674,355,311,325,329
en,1675,304,47,55,49
en,1676,392,85,87,83
en,1677,369,22,422,30
en,1678,305,45,36,39
en,1679,394,93,92,94
en,1680,403,345,401,402
en,1681,303,57,55,64
en,1682,303,57,49,55
en,1683,30,406,401,100
en,1684,384,415,355,311
en,1685,390,165,391,421
en,1686,344,103,100,106
en,1687,302,39,51,45
en,1688,177,274,390,273
en,1689,302,49,303,50
en,1690,342,75,74,77
en,1691,378,155,216,157
en,1692,319,304,47,335
en,1693,302,304,404,303
en,1694,406,36,101,30
en,1695,345,152,159,151
en,1696,342,65,64,55
en,1697,335,291,68,58
en,1698,313,405,370,371
en,1699,274,346,345,421
en,1700,407,381,369,426
en,1701,305,38,37,49
en,1702,394,402,149,403
en,1703,341,74,76,126
en,1704,313,427,113,404
en,1705,395,96,92,89
en,1706,39,49,305,302
en,1707,427,63,116,113
en,1708,148,362,142,139
en,1709,361,88,354,398
en,1710,66,65,342,75
en,1711,328,144,135,141
en,1712,321,378,157,364
en,1713,257,37,350,28
en,1714,351,352,353,292
en,1715,161,147,324,153
en,1716,335,71,76,74
en,1717,392,394,134,86
en,1718,340,178,181,180
en,1719,145,149,146,393
en,1720,8,130,361,88
en,1721,139,132,138,362
en,1722,272,82,81,83
en,1723,315,219,220,228
en,1724,132,142,362,139
en,1725,354,144,97,90
en,1726,130,417,361,135
en,1727,48,61,335,54
en,1728,393,400,407,395
