0.3984491109848022
0.30203602313995365
0.7765030026435848
0.23035435080528255
0.1972678127613935
0.7175475716590878
0.6915090084075928
0.6099146068096161
0.6739588975906373
0.5286601066589358
0.4138058006763459
0.2822144329547882
0.3375860929489136
0.34991067051887514
0.37629934549331656
0.6668323993682859
0.6646265864372249
0.31679925322532654
0.8202088236808776
0.4902196645736695
0.3129644691944121
0.11543843895196912
0.38660509288311007
0.2157493233680725
0.23472864776849747
0.1949271058494395
0.11890179365873335
0.12236514836549758
0.3154791593551636
0.49438429474830636
0.8313718318939212
0.5282523393630985
0.7804011225700378
0.7252769649028779
0.46893052458763124
0.33148913085460663
0.7384070456027985
0.7601081788539885
0.7188422560691832
0.45168429613113403
0.4293028831481933
0.4714959979057314
0.6166365385055546
0.6734159231185914
0.4439495801925659
0.770143449306488
0.5332297195087778
0.5230438947677611
0.3768828630447387
0.3764452248811721
0.44113296270370483
0.43980976939201344
0.3053132891654968
0.46748135089874276
0.3529411584138871
0.3902889341115951
0.34424059987068184
0.7648976445198059
0.9137409031391144
0.7001716136932372
0.8826537251472477
0.841367244720459
0.7229925096035006
0.8666594624519348
0.38615753948688514
0.5587847471237182
0.3938004553318023
0.3395204693078995
0.2896873950958252
0.34238122701644896
0.27391586899757375
0.35868801176548004
0.17761170864105222
0.17360617220401764
0.11717011630535124
0.3677738904953003
0.29007044434547424
0.3206637442111969
0.7615525543689727
0.44704346060752864
0.3590644598007202
0.3213716208934786
0.3350405156612398
0.23412630856037142
0.4024583101272583
0.4496984034776688
0.2978504240512847
0.44169628620147705
0.3749341905117034
0.6653618574142453
0.6925918340682979
0.7029205203056333
0.6401515007019043
0.27561123371124263
0.5465693950653079
0.3767369836568832
0.2625919997692109
0.3850386559963228
0.7322828590869903
0.4709426164627075
0.4441586107015609
0.5537110805511474
0.567686915397644
0.6610281825065611
0.5701875925064086
0.24919786453247067
0.18421701490879056
0.6819449543952942
0.23934906721115112
0.2337247490882874
0.2889212965965271
0.361285451054573
0.6990887880325316
0.36530529260635386
0.6807735800743104
0.6137829422950745
0.6379961967468262
0.5718547105789185
0.7539952635765075
0.777616751194
0.6117742657661438
0.7845260500907898
0.6077956974506377
0.756497240066528
0.6958403110504148
0.5133345127105713
0.34201374053955075
0.6226368606090548
0.5136902809143062
0.571437931060791
0.8480527997016907
0.8848265051841739
0.8570999979972842
0.8166220128536222
0.8749523520469666
0.2569303810596466
0.34479914307594306
0.4351011097431181
0.535263955593109
0.5347687125205992
0.2709731161594391
0.4406036853790283
0.48914345502853407
0.3459162294864655
0.45088993906974795
0.21859964728355408
0.08624973148107529
0.19960851967334747
0.40707829323681916
0.7012544393539428
0.3173272907733917
0.253916436433792
0.31627121567726135
0.2948905408382417
0.23836997151374817
0.5051416754722595
0.8145492076873779
0.5900621771812435
0.15793206542730326
0.5094646215438843
0.4431045949459076
0.5764015436172486
0.4867962926626207
0.3941237151622772
0.506994366645813
0.572504258155823
0.5057592391967773
0.5188279151916504
0.7360888123512268
0.28853824734687805
0.3722439438104629
0.46851647496223453
0.2603182256221772
0.25961140096187607
0.3453576862812043
0.7272780299186703
0.13557243049144743
0.18862216025590892
0.7181949138641355
0.33576782345771805
0.3372224390506745
0.7212791681289676
0.8400301337242126
0.5431268215179443
0.3658538699150086
0.7818500101566315
0.3080545842647552
0.38337812423706064
0.4361665189266204
0.3234974503517152
0.4789336144924164
0.26761335134506226
0.45926317301663483
0.456360399723053
0.3754708886146545
0.33309915065765394
0.37116379141807543
0.43563381433486925
0.39959690570831297
0.40592850609259157
0.7235636234283449
0.6250847280025483
0.9086154997348785
0.7134080648422243
0.7443411111831664
0.34759185910224916
0.7142811059951784
0.2791828006505966
0.2589045763015747
0.26192632913589486
0.2629248350858689
0.226585254073143
0.3316752016544342
0.5241034030914307
0.6460330724716186
0.6220248937606812
0.14956218302249907
0.40154330730438237
0.5738033533096315
0.7308529078960417
0.7023372650146484
0.23131708055734632
0.309651380777359
0.16690567880868912
0.26496705412864685
0.32094645500183105
0.218192458152771
0.17600949406623836
0.37296404540538786
0.4038505554199219
0.23312240988016134
0.4008570551872254
0.5674594044685364
0.4117615520954132
0.5113995671272279
0.5045241117477417
0.485148361325264
0.33283619880676285
0.503288984298706
0.339761883020401
0.3580605983734131
0.41004037857055664
0.4895021915435792
0.4672743260860444
0.4602993130683899
0.4425412714481354
0.7337705790996552
0.7508224606513973
0.7064200520515441
0.8353612184524537
0.9384442269802094
0.7586638033390043
0.7258480787277222
0.7854180634021759
0.5583780407905578
0.7040870308876036
0.6429278492927549
0.3777522802352906
0.5804354727268218
0.59745854139328
0.47547270357608795
0.4569409543817691
0.40477871894836426
0.3274274468421936
0.5262976288795471
0.6638913154602051
0.5928358137607572
0.469498562812805
0.5523943662643431
0.8913448452949526
0.36874873936176306
0.8110404014587402
0.5567512154579161
0.6350237510421058
0.6619825601577758
0.5140460491180416
0.10851172953844065
0.1744072794914245
0.2975041985511779
0.21141393929719915
0.405238633806055
0.25984700918197645
0.2730560600757599
0.2661011815071106
0.30925218164920804
0.40569854866374605
0.34881050288677223
0.36816383004188546
0.3842878580093384
0.4213283658027649
0.43954513072967516
0.28117331862449646
0.23227981030941008
0.23902270197868347
0.25349198281764973
0.196682636033405
0.5407499670982361
0.28377610445022583
0.26534509658813477
0.3037872910499573
0.2551897972822189
0.39003919363021844
0.37860997915267947
0.43643287122249597
0.47799043059349067
0.1067800521850586
0.4428229331970215
0.5006330758333206
0.49850834906101227
0.18746672719717025
0.7353160679340363
0.565639317035675
0.8523202657699589
0.7160271883010865
0.6888154983520509
0.5807333707809448
0.4696790695190428
0.6127786040306091
0.5706043720245361
0.6778451442718509
0.6600738048553465
0.40958109498023987
0.4093514531850815
0.4159428417682647
0.4107293039560318
0.3965419918298721
0.4529119402170182
0.2497408270835876
0.5571579217910765
0.5497609376907349
0.57924388051033
0.5486970901489259
0.5402189791202545
0.2243626773357391
0.6004501223564147
0.4681024253368378
0.6008240699768066
0.5360068202018737
0.4162396103143691
0.49326705634593965
0.30765538513660423
0.6516979038715363
0.40812081694602975
0.38928997218608846
0.36796886026859293
0.3203810334205628
0.5223876953124997
0.6232488274574282
0.7836340367794037
0.32952607870101935
0.43093568086624134
0.4223375916481018
0.41653637886047357
0.3890402317047119
0.15069613754749298
0.25306752920150744
0.3336250543594361
0.3978752136230468
0.4717726886272432
0.24000179767608643
0.4651750326156615
0.38246839046478287
0.5129475235939026
0.6200042605400087
0.49957071244716644
0.45752150904048555
0.2942967027425766
0.40981073677539825
0.5302911758422852
0.6417679786682129
0.5306989431381226
0.6947574853897092
0.6634141266345978
0.8694237589836122
0.5634117126464844
0.5428638458251953
0.45992638170719147
0.3490305364131928
0.2642561763525009
0.2860837118192153
0.26008261740207683
0.2371093526482582
0.2422338247299194
0.6095614552497863
0.5117865562438966
0.6454120278358458
0.43811018168926236
0.7572194278240201
0.6263086616992951
0.3436820566654206
0.6441699385643004
0.719165927171707
0.5334950956431301
0.5433897972106934
0.6039671301841737
0.3279847800731659
0.49151489436626444
0.31706327199935913
0.30416879057884216
0.48347238600254067
0.3955295592546462
0.3715238422155379
0.7524088621139524
0.9047714471817017
0.6299709677696228
0.53110671043396
0.5151133537292478
0.3247729480266571
0.22971253097057343
0.2319589003920555
0.41414880156517037
0.5504192948341368
0.3175913095474243
0.12901494204998012
0.24098089337348938
0.6624597489833831
0.3778952300548554
0.40177205801010135
0.4463744103908538
0.5777006387710572
0.5197957754135132
0.42012055516242985
0.3501307040452957
0.7301379323005674
0.44499473273754114
0.45431477129459397
0.40408259630203247
0.6879176616668703
0.4050086763772095
0.45955345034599304
0.28325554728507996
0.45489923655986797
0.39988385438919066
0.301631510257721
0.2953944146633149
0.2639233410358429
0.4838913798332215
0.3364951312541963
0.8323691785335543
0.4433862566947937
0.5827059507369992
0.6527581214904785
0.4778017938137055
0.808408796787262
0.6147872805595398
0.6238607943058015
0.462163969874382
0.20600363314151768
0.21314383745193477
0.15183009207248688
0.32307228446006786
0.21656370162963867
0.15671167075633996
0.43359237909317017
0.194341929121451
0.24501352310180663
0.2605538338422776
0.24648305177688598
0.16037285476922986
0.2961502254009247
0.2426971077919006
0.35140350461006165
0.287016131661155
0.431889808177948
0.3695286184549332
0.2668572664260864
0.6152894496917725
0.5833943426609036
0.4800501972436904
0.5121735453605653
0.5757519960403443
0.4586826183579184
0.4328603595495224
0.20003098845481868
0.43773378729820245
0.23524084538221354
0.5102385997772219
0.37942843437194806
0.362516674399376
0.5840827345848081
0.9098968505859375
0.8777166485786438
0.5801375746726989
0.9284062385559082
0.532433591105721
0.6683029413223265
0.24032816290855408
0.29327099919319144
0.8978631854057313
0.8119176030158997
0.26159349381923686
0.3606508821249007
0.40017080307006836
0.1404905468225479
0.36160273551940914
0.17921392321586607
0.5444416999816895
0.5365020632743835
0.3874922782182694
0.43261635303497314
0.3787529289722443
0.45343807339668274
0.42908281385898583
0.36503100395202637
0.26458901166915894
0.14389241039752956
0.5614116191864014
0.5798396766185759
0.7959785894914108
0.4859863489866257
0.48806724548339864
0.6070893943309782
0.8555067539215091
0.3243477821350098
0.23555226325988765
0.1868167847394943
0.2922452956438063
0.25594328343868256
0.2121058985590934
0.47232607007026683
0.21175991892814627
0.31600719690322876
0.260789442062378
0.180015030503273
0.23586368113756176
0.39527645111083975
0.4174266844987869
0.299235326051712
0.36667673587799077
0.35938174426555614
0.35431282520294194
0.7294229567050932
0.41921877264976515
0.3990230083465576
0.27760046124458304
0.30027400255203246
0.803604163906791
0.376153466105461
0.6283272027969364
0.6813592672348023
0.7461490273475646
0.6485172510147095
0.37996098995208727
0.26126065850257874
0.22508305609226226
0.3297462642192841
0.197852989489382
0.3545871585607529
0.22220154106616968
0.3647516340017319
0.5313720865683118
0.29292909801006306
0.27696752548217773
0.31005057990550994
0.23869633674621582
0.23067526072263714
0.47441479563713074
0.46366121768951396
0.46789540052413947
0.4390158534049986
0.6244727611541749
0.6796022057533266
0.43483475744724254
0.4112264811992645
0.2547653436660766
0.33257324695587176
0.32009832262992866
0.3895397126674651
0.43735739290714254
0.44687619805335993
0.2683694362640381
0.3807598233222961
0.26723530888557434
0.326312780380249
0.28720261562954297
0.2277579829096794
0.23432708829641344
0.32996644973754885
0.45238580703735365
0.23452786803245546
0.3815586566925049
0.21418177634477614
0.3414625108242034
0.36391352415084843
0.388819095492363
0.22932162135839462
0.3034057915210724
0.37008363902568797
0.5644117593765259
0.3664024472236634
0.4819060891866684
0.47723588347435
0.4376083225011825
0.4316512763500213
0.4518596738576891
0.4063884209502826
0.4284226059913634
0.48770850896835327
0.40684833580797364
0.43045861721038803
0.23648651689290998
0.23804360628128052
0.2995815515518188
0.5693540334701537
0.22292191982269283
0.46441812515258774
0.5997022271156309
0.458102063699202
0.31195859313011154
0.35376415848732
0.288155198097229
0.32714878022670746
0.31145565509796125
0.37818112969398504
0.31840205788612386
0.49260999560356145
0.2759503066539764
0.5579713344573973
0.38459110260009766
0.258246511220932
0.22004040479660025
0.20129839479923245
0.23617509901523587
0.3088529825210571
0.41712991595268245
0.49483340382575997
0.32908570766448986
0.5861479103565215
0.677259457111359
0.3014292538166047
0.57510244846344
0.5412809550762177
0.4691375494003296
0.4338363856077194
0.41256415843963623
0.4220852851867676
0.29715797305107117
0.22814889252185822
0.35660989582538594
0.25725941359996796
0.45460700392723097
0.16499125212430954
0.2593757927417757
0.2794992685317993
0.45273656249046335
0.28169387578964233
0.2699316442012787
0.356849843263626
0.4022295594215393
0.3558900535106657
0.4383611112833023
0.3921841561794279
0.3254767805337906
0.4077145338058473
0.25264307558536514
0.4873175591230393
0.3072561860084533
0.4447857022285461
0.48305339217185983
0.6023056626319887
0.551736009120941
0.4460398852825165
0.7557750523090359
0.39053867459297176
0.2258034348487854
0.4194442182779313
0.48431037366390234
0.6790165185928347
0.5340258479118347
0.4979771673679352
0.29640216231346134
0.37832407951354985
0.4655534863471984
0.3503507375717163
0.2575884461402893
0.3260341137647629
0.37359244525432567
0.3619200199842453
0.34024471044540405
0.3674996018409729
0.4387512147426603
0.37702874243259427
0.5847711265087125
0.47476743161678314
0.6605509936809538
0.4359001666307448
0.7809579968452454
0.8935176253318788
0.6697734832763671
0.4454127937555313
0.8721880555152894
0.47653061151504517
0.7798442482948302
0.5946849048137663
0.40546859123490053
0.7688319981098175
0.7740778028964996
0.6766737699508667
0.6028594851493837
0.2981966495513915
0.2735767960548401
0.4297430217266083
0.3836813688278199
0.4198951095342637
0.42886274456977835
0.647275161743164
0.31246153116226183
0.43022008538246137
0.2556142508983612
0.37520253956317895
0.6281445622444153
0.6784308314323428
0.4632827639579773
0.8066543936729431
0.5563445091247559
0.6294230461120607
0.5380950272083282
0.6834284782409672
0.7407252788543701
0.7529376626014708
0.3492505699396134
0.2017208635807037
0.1916551038622856
0.2936129003763198
0.6385350227355957
0.1891276508569717
0.5550277948379516
0.6102677583694458
0.21279785782098765
0.5629116892814636
0.3301866352558136
0.24065452814102173
0.12573619782924647
0.19266608506441116
0.7727663516998291
0.472049379348755
0.6447909832000731
0.4033864736557007
0.44562182426452634
0.44810968935489665
0.4374828577041625
0.451287117600441
0.47874497771263125
0.4865356594324114
0.40431463718414307
0.7151541471481324
0.3579351156949997
0.33794974684715273
0.6936746597290036
0.14275845587253566
0.618657171726227
0.4379847168922424
0.45519146919250497
0.48986092805862436
0.47912225127220154
0.3718838930130004
0.368358799815178
0.23099617063999173
0.33055877685546875
0.38186190128326436
0.4372319281101227
0.4061584635214371
0.8467156887054443
0.49057840108871464
0.5248348116874695
0.8214044272899627
0.6285098433494571
0.19902334294535898
0.5624116659164429
0.318684768676758
0.26102505028247835
0.2513697147369385
0.27823339700698846
0.49903953075408936
0.30102474093437204
0.6705087542533874
0.3975882649421691
0.6011980175971985
0.5810312688350677
0.39930995702743527
0.5543694376945495
0.455775934457779
0.3578096330165863
0.5591914534568786
0.34969063699245456
0.8092859983444214
0.6356553489511663
0.7075865626335144
0.35831156373023987
0.6275325953960419
0.25857554376125336
0.32575544714927673
0.3915376365184784
0.5158248901367186
0.19375675239346252
0.3008224844932557
0.3060762882232666
0.2481119394302368
0.3771746218204498
0.3341509580612183
0.3518246114253998
0.38481487929821034
0.5460374712944034
0.30845378339290613
0.5294756412506105
0.6369185447692871
0.3907884150743484
0.3030242919921875
0.29083654284477234
0.5337604717774824
0.4475452482700348
0.37044368982315046
0.4153493046760559
0.45009558200836186
0.3149762213230133
0.17841281592845915
0.41564607322216024
0.9150222539901733
0.47287945151329047
0.7787304997444151
0.5233719944953918
0.7759461283683773
0.6412291526794434
0.6312341635877433
0.7534664630889891
0.4485068678855897
0.3827716350555421
0.8136720061302185
0.3307448476552963
0.25791747868061066
0.4282025367021559
0.3600163131952284
0.42082375288009644
0.4088921695947647
0.7880941033363342
0.4104996621608734
0.8261868417263031
0.2562723159790039
0.18291712999343868
0.2788663327693939
0.21106795966625214
0.3881556868553162
0.49573162198066717
0.4683094501495362
0.7178712427616116
0.38837682306766513
0.6318657614968037
0.30685698688030233
0.352456271648407
0.6017518401145937
0.6290577650070193
0.9060527980327606
0.5449736237525944
0.7622747421264648
0.5321682149713687
0.8226000308990478
0.18963314145803448
0.27527216076850886
0.4144918024539948
0.6580592095851898
0.7185185849666593
0.27728399336338033
0.5882130861282349
0.5316374627026641
0.8680416107177736
0.48221540451049805
0.25221862196922284
0.6034133076667787
0.42183297872543335
0.5362544417381286
0.2591401845216753
0.33336210250854503
0.46403967142105085
0.21245187819004052
0.4026903510093689
0.3776093304157258
0.6112720966339111
0.4109589457511902
0.4205714464187622
0.3925074160099028
0.37659110426902764
0.27662845253944396
0.2904534935951233
0.5654118061065674
0.47512006759643555
0.4323723465204239
0.49282901585102085
0.3311169892549515
0.4073082506656647
0.4086625277996063
0.3024405360221863
0.4458308547735214
0.2720145881175995
0.28777214884757996
0.5228798449039458
0.279815736413002
0.2161565124988556
0.3006202280521393
0.4235392928123473
0.3178553283214569
0.27791692912578575
0.9417902231216431
0.8790987968444824
0.8634729743003846
0.8869992852211002
0.9000359654426575
0.99995356798172
0.7497648596763611
0.4493012249469758
0.9536293506622316
0.19013863205909726
0.25028378963470455
0.47406215965747833
0.6173100829124454
0.6000761747360228
0.2688901722431183
0.34837043583393107
0.45373030602931996
0.502757802605629
0.47022058963775626
0.2349294275045395
0.4647965788841246
0.3804935455322265
0.2855242599140515
0.36933364868164065
0.30455029010772705
0.853913509845734
0.7889861166477203
0.83735591173172
0.5212475657463074
0.2919033944606779
0.721850281953812
0.2207607835531234
0.750293660163879
0.9484822154045105
0.34256497025489807
0.3697235882282257
0.431174212694168
0.726563054323196
0.6750448465347291
0.48128745853900906
0.7116619825363162
0.5165364265441894
0.4465416729450225
0.8101631999015808
0.7169002294540405
0.49528251290321357
0.802079049023715
0.3064577877521515
0.34182999730110164
0.40454667806625366
0.6435488939285277
0.2193200260400771
0.38859795928001406
0.5202797055244446
0.3400032967329025
0.520763635635376
0.36722531318664553
0.2864566797559912
0.7914032448421826
0.410270020365715
0.4091218113899231
0.3857099860906602
0.49239097535610205
0.30223827958106997
0.6852241516113284
0.1273755699396133
0.05545425042510033
0.20528015792369847
0.3897894531488418
0.16977731883525848
0.13229368627071378
0.048610810190439224
0.07940629124641418
0.5329643433744256
0.113706761598587
0.9690707564353944
0.6288751244544986
0.3532154917716981
0.22853980213403702
0.30122699737548836
0.45402253866195696
0.40062830448150644
0.32770611345767975
0.4230945110321045
0.09309317171573639
0.4462071478366851
0.25179416835308055
0.48692660927772535
0.6297883272171021
0.3189674794673921
0.3852624326944353
0.4617910385131836
0.5731538057327272
0.705836796760559
0.2858972278508274
0.33855481445789337
0.7287079811096189
0.7035037755966185
0.9183682501316071
0.46104517579078674
0.6390738487243652
0.24594008922576904
0.6690382122993468
0.2956463515758515
0.62924040555954
0.7329978346824646
0.47582533955574036
0.4504927605390549
0.3410950243473052
0.9250602424144745
0.38398461341857915
0.8602864861488344
0.31095271706581096
0.38705000579357157
0.28571074388243944
0.3641928941011429
0.47004008293151844
0.35756968557834623
0.6870198249816897
0.6374573707580566
0.29888910055160517
0.7770598769187924
0.4676883757114411
0.5232079446315765
0.4776131570339204
0.24177054166793818
0.3516140580177307
0.24408695697784422
0.416833147406578
0.5218955457210537
0.3689437091350556
0.559598159790039
0.19317157566547394
0.6712440252304077
0.2543408900499343
0.6906111717224122
0.4693180561065672
0.5982064366340634
0.363075414299965
0.42798246741294843
0.748860901594162
0.20214333236217497
0.6423068046569824
0.7201369404792786
0.3788958787918091
0.35732973814010616
0.7579416155815122
0.45203505158424395
0.41483480334281925
0.38548620939254774
0.849389910697937
0.39444697499275205
0.34219748377799986
0.5350163340568541
0.34164625406265253
0.2958982884883881
0.3464747726917267
0.35348982512950905
0.349470603466034
0.8190132200717924
0.38682886958122253
0.4477125108242035
0.4036185145378113
0.4082562446594239
0.5274368047714237
0.5082294940948486
0.8343638718128206
0.8075315952301025
0.28627019578760327
0.5423378944396973
0.23292163014411926
0.4436679184436798
0.22364229857921597
0.29156149327754954
0.36557958126068124
0.15915246009826656
0.3346768617630005
0.5244691073894501
0.19114961326122282
0.2912195920944214
0.6132807731628418
0.19843816621737048
0.18616684228181837
0.5786480844020842
0.567004382610321
0.2508267521858215
0.3481504023075104
0.3284251511096956
0.24130725860595703
0.37573923766613004
0.5342734694480894
0.29463860392570496
0.3412787675857543
0.11197508424520489
0.40744367837905904
0.9022087454795837
0.21697089076042175
0.7241347372531892
0.3589389771223068
0.23967543244361877
0.3644722640514374
0.36363415420055395
0.6728729486465456
0.48744787573814397
0.42258989810943604
0.49129587411880493
0.20383320748806
0.2925871968269347
0.20256580114364622
0.3830748796463014
0.5436527729034424
0.3509823977947235
0.3309309184551239
0.2848172187805176
0.566321849822998
0.19064412266016004
0.3409112811088561
0.3950233429670333
0.37466584146022786
0.1339330583810806
0.4884259819984438
0.2067271083593369
0.5168921947479248
0.06229769065976143
0.21493494510650635
0.20045345723628993
0.6306025656786829
0.7107889413833621
0.1688201054930687
0.6092083036899566
0.36695102453231815
0.46985957622528063
0.39679509997367857
0.37969471216201767
0.4066183783791281
0.36335478425025947
0.4185424357652666
0.4392804920673369
0.6122764348983765
0.4143203020095826
0.4382356464862823
0.2762893795967102
0.5252005159854889
0.8154264092445374
0.04518909007310867
0.21534213423728943
0.4400744080543517
0.4130992293357849
0.5770510911941529
0.6056285977363587
0.42665276527404783
0.5600048661231994
0.8763345003128052
0.5298834085464479
0.539687991142273
0.4909371376037598
0.9111782014369965
0.7781736254692075
0.2261943444609642
0.44033904671669
0.2704523801803589
0.739179790019989
0.7081698179244995
0.24756897687911986
0.4566506770524109
0.8586932420730593
0.7990288192575629
0.5319028388370164
0.514401817321777
0.3581860810518265
0.5868363022804259
0.5270290374755859
0.3522457182407379
0.4262079834938049
0.2694109082221985
0.3018337666988373
0.27425494194030753
0.07256285101175308
0.10335833206772804
0.24455024003982542
0.7545240640640258
0.698005962371826
0.830374485254288
0.3810261011123657
0.29665409922599795
0.21383579671382902
0.518343985080719
0.6331289573149246
0.4606722444295883
0.32864533662796036
0.3318612724542618
0.6193307161331179
0.18356707245111462
0.14842822849750517
0.1881166696548462
0.2868296476927671
0.4299815535545347
0.23003344088792796
0.2081740587949753
0.786310076713562
0.16159324944019315
0.9317522346973419
0.2873890995979309
0.49618073105812077
0.8005539341406389
0.994806432723999
0.5956094503402709
0.22893071174621582
0.40200080871582033
0.2749330878257751
0.3570897907018661
0.2806527614593506
0.4378592520952224
0.42034600079059603
0.7593859910964964
0.9742178916931153
0.880480945110321
0.7376343011856079
0.7944534746083347
0.46141810715198517
0.30493178963661194
0.7099159002304081
0.7279930055141446
0.5639117360115051
0.5481651663780214
0.7470529854297637
0.4875781923532486
0.27854986488819117
0.2074505835771561
0.47836770415306096
0.3139703452587127
0.32659144699573517
0.5106255888938905
0.44141462445259094
0.6723299741744997
0.8127948045730591
0.5530527234077453
0.6343921531330454
0.4085271000862122
0.633760555223985
0.7247058510780335
0.5965339958667755
0.9451362192630768
0.6861219882965091
0.6142851114273071
0.5370330512523651
0.845378577709198
0.45781178636984377
0.589137631654739
0.4295229524374008
0.41202908754348755
0.456068167090416
0.3056947886943817
0.654878556728363
0.3561300009489058
0.29992777705192564
0.41500630378723147
0.21034448444843293
0.07598457112908363
0.3268701136112213
0.579541778564453
0.4215806722640991
0.3239226162433625
0.675587821006775
0.3217967867851259
0.17073453217744827
0.15549127608537666
0.38771341443061835
0.497078949213028
0.20341073870658874
0.21778526902198792
0.516180658340454
0.4345684051513672
0.45723123171112734
0.3910381555557251
0.6466541171073913
0.43432439863681793
0.6107699275016785
0.9124595522880554
0.5439157485961914
0.3622373044490814
0.2377321884036064
0.5744529008865358
0.6362869468602267
0.47974088191986075
0.3344139099121094
0.43848657608032227
0.5154691219329832
0.33540416955947894
0.3743974924087523
0.37803817987442023
0.18551689982414243
0.3288655221462251
0.2939548015594482
0.47260276079177865
0.47688324749469757
0.48705692589283
0.28533777594566345
0.32519811391830444
0.42107605934143066
0.6675676703453062
0.2725353240966797
0.8273824453353882
0.5989543318748471
0.2801322042942047
0.1678628921508789
0.2088975340127945
0.4333483725786209
0.4864053428173065
0.3387962281703949
0.4809781432151794
0.4187678813934328
0.35486149191856386
0.6324973594058642
0.6269206285476685
0.44225960969924927
0.35513582527637483
0.20455668270587926
0.3303727060556412
0.19216059446334838
0.4248736381530761
0.2635905057191849
0.47121930718421956
0.35565010607242564
0.33927905559539795
0.3987360596656799
0.5173761248588562
0.3934771955013274
0.4887847185134889
0.5689372539520262
0.5039065480232239
0.6061824202537537
0.35856252908706665
0.6050747752189637
0.5609115958213806
0.8333665251731874
0.3879345506429673
0.44721072316169735
0.5125605344772339
0.9896592974662781
0.8708059072494508
0.9845121622085572
0.6801878929138185
0.824991238117218
0.7368615567684174
0.8363585650920868
0.9587764859199526
0.6286924839019778
0.5011642575263977
0.4136343002319336
0.7224213957786563
0.09651489183306694
0.5556861519813537
0.9217142462730408
0.8618797302246095
0.7827420234680176
0.6843263149261478
0.17264895886182785
0.414663302898407
0.3738607943058012
0.4705816030502319
0.37080374062061294
0.13721180260181426
0.5225517451763151
0.6559387743473053
0.6206778049468995
0.3981621623039245
0.5016954392194748
0.314473283290863
0.26799139380455017
0.7198132693767547
0.4659319400787353
0.48066882789134974
0.08967145159840584
0.6159629940986637
0.482634398341179
0.3957826673984527
0.7608303666114806
0.7172239005565639
0.5649117827415466
0.7872020900249481
0.13065431416034695
0.15305048674345006
0.17520838677883144
0.195512282577428
0.3431235134601594
0.23332318961620335
0.14502636492252347
0.5110125780105592
0.5259319245815277
0.1960974593054165
0.3181193470954895
0.444576671719551
0.5217314958572388
0.2657231390476227
0.2842966616153717
0.2632576704025269
0.3390376418828964
0.11024340689182277
0.48666597604751605
0.1768106013536453
0.14162450134754176
0.1848669573664665
0.2316379904747009
0.2622591644525529
0.6595966160297392
0.4794315665960311
0.4031544327735901
0.21737807989120483
0.3554101586341858
0.5098516106605532
0.2951424777507783
0.5237376987934113
0.32820496559143086
0.6969231367111204
0.5076119303703308
0.6045209527015687
0.4369655758142471
0.4966298401355744
0.5813291668891907
0.7513512611389157
0.43141274452209466
0.8051292787898671
0.7052535414695739
0.37332409620285034
0.4522104293107988
0.6569989919662476
0.3407275378704071
0.5789459824562071
0.767520546913147
0.4353674620389937
0.4663103938102722
0.5326989672400733
0.6615053713321685
0.42576320171356197
0.41772345304489134
0.9073341488838196
0.9793650269508363
0.4525611847639085
0.4583923410285602
0.39704820811748504
0.5375640392303467
0.6179836273193362
0.20962100923061372
0.33231029510498067
0.4785563409328461
0.7070033073425293
0.4589728956872766
0.4196696639060975
0.14616031944751737
0.5875246942043304
0.2273670732975006
0.6074425458908079
0.42531841993331904
0.33130306005477905
0.2745940148830413
0.5001018941402435
0.6478962063789367
0.37732050120830535
0.4975280582904816
0.4180202215909958
0.455483701825142
0.37916215658187846
0.37260399460792537
0.5783501863479614
0.38022726774215687
0.5658668279647827
0.3134674072265624
0.5710211515426635
0.4286426752805709
0.4803595125675201
0.24702601432800292
0.44436764121055594
0.44890404641628273
0.5909867227077481
0.39628888368606563
0.14729427397251127
0.44086832404136655
0.49173391461372384
0.49393518567085276
0.47742452025413523
0.4704010963439941
0.43669922351837154
0.15427088141441336
0.41899332702159897
0.4467089354991912
0.21452775597572327
0.5290678739547732
0.13885117471218109
0.3505612909793854
0.2664792239665985
0.8891720652580264
0.3222219526767732
0.25660134851932526
0.40839167237281804
0.45308731794357304
0.5278445720672611
0.41336676478385925
0.7662090957164764
0.5022266209125519
0.40039955377578745
0.5345210909843443
0.42398407459259024
0.4734328329563141
0.7753892540931702
0.5681036949157713
0.5178600549697876
0.16281364411115645
0.7452450692653655
0.18081613779067993
0.29854287505149835
0.2827349901199341
0.6761307954788208
0.709042859077454
0.585459518432617
0.46668884754180906
0.5357591986656188
0.7345433235168457
0.4075791060924532
0.052032530307769775
0.1240968257188797
0.4781790673732758
0.5672318935394287
0.05887597054243088
0.16403403878211975
0.354038491845131
0.23352396935224537
0.18226718753576274
0.29690603613853456
0.04176736995577812
0.34703331589698794
0.16594846546649933
0.5222236454486844
0.3368587851524354
0.41283169388771057
0.2431603908538818
0.06571941077709198
0.4847293674945832
0.06914113089442253
0.9639236211776735
0.8650662183761597
0.7975037043744868
0.49217195510864264
0.35077184438705444
0.33613147735595716
0.2714938521385193
0.6629369378089904
0.46253690123558044
0.3863813161849976
0.6396126747131348
0.4707621097564697
0.3774663805961609
0.2134898170828819
0.6825306415557861
0.39477023482322693
0.35881349444389343
0.7046702861785887
0.7399525344371796
0.7550528645515442
0.5355115771293639
0.4244288563728332
0.3928306758403777
0.5471013188362124
0.09993661195039749
0.741629236936569
0.599328279495239
0.18161724507808685
0.5604115724563599
0.7898781299591064
0.5937603592872618
0.42284220457077026
0.6067362427711487
0.6085020005702971
0.7207080543041233
0.6495774686336517
0.5510776519775389
0.24547680616378784
0.4532626956701279
0.3760075867176056
0.7518800616264341
0.6088551521301269
0.4340803921222687
0.5660943388938904
0.37846702933311466
0.5476332426071169
0.3812923789024353
0.5420749187469482
0.5619116425514221
0.5697708129882811
0.7434371531009673
0.6591194272041321
0.08282801136374474
0.4687234997749329
0.5386260151863098
0.37412914335727676
0.46706730127334595
0.33831340074539185
0.49195293486118324
0.12063347101211547
0.5088470578193665
0.4029223918914795
0.5391570031642914
0.33204734325408936
0.4151778042316437
0.4079853892326356
0.7714549005031586
0.6660971283912656
0.5492290139198304
0.9034900963306427
0.8386930227279663
0.7194895982742309
0.8293771386146549
0.39186089634895305
0.3691386789083481
0.4731561422348023
0.4013145565986634
0.8178176164627073
0.39315393567085255
0.4010858058929444
0.5227157950401304
0.20298826992511748
0.47617797553539276
0.2008759260177612
0.3596990287303923
0.9350982308387756
0.4815967738628387
0.5193118453025818
0.42709754705429076
0.28930434584617615
0.28664316372437915
0.5685204744338987
0.522059595584869
0.8956904053688051
0.35266682505607605
0.5426008701324463
0.6256966948509217
0.44197794795036316
0.5455055475234989
0.3821651458740236
0.44737798571586607
0.650637686252594
0.49348607659339905
0.366128158569336
0.22148116230964654
0.5418119430541992
0.49304803609848025
0.7635861933231354
0.48556735515594485
0.5667768716812134
0.3404861241579056
0.8237956345081329
0.3685537695884705
0.35843704640865326
0.8283797919750218
0.8427043557167053
0.873570203781128
0.5441787242889404
0.4122966229915619
0.5665493607521057
0.5919112682342527
0.31574317812919617
0.243623673915863
0.7792873740196227
0.5147575855255124
0.23260072022676467
0.6213513493537903
0.7125350236892702
0.7929283597252587
0.35203516483306885
0.31653523445129395
0.3872711420059205
0.3104497790336609
0.2374207705259323
0.7425331950187681
0.3627960443496705
0.3973013162612915
0.5255662202835083
0.3511929512023926
0.31925019025802626
0.6406903266906738
0.6745018720626832
0.34859046936035165
0.36096816658973685
0.5575646281242369
0.17169174551963806
0.43310436606407166
0.7479569435119628
0.5820175588130947
0.32264711856842054
0.6296056866645814
0.731567883491516
0.5985803842544553
0.39128789603710173
0.40784996151924147
0.5978324890136715
0.6897133350372315
0.5063768029212952
0.3338880062103272
0.3198156118392945
0.8507270216941833
0.3293058931827546
0.42776239812374095
0.4306971490383147
0.4275423288345337
0.6717869997024538
0.3195329010486604
0.3026427924633026
0.4183169901371002
0.4737095236778259
0.36033359766006456
0.6538183391094208
0.8440414667129517
0.39603577554225916
0.4452037632465362
0.41397730112075815
0.2269761636853218
0.5266633331775665
0.24865490198135373
0.46290983259677887
0.41149401664733887
0.38593376278877267
0.6081488490104674
0.35636994838714586
0.2339255288243294
0.48718724250793466
0.43212834000587463
0.23679793477058408
