{
	"total_time":736,
	"loop_size":336,
	"initial_time":0,
	"binsrate": 0.01,
	"nGPUs": 1,	
	"name_module_1":"oxygen_transport",
	"model_1": 1, 
	"varP":"oxygen",
	"name_relation_1":"particularization",
	"name_module_2":"cellular",
	"model_2": 2,
	"name_relation_2":"RelationC1toA1",
	"name_module_3":"ABM",
	"model_3": 3,
	"name_relation_3":"homogenization",
	"name_module_4":"structural",
	"model_4": 4,
	"name_relation_4":"remeshing",
	"calibration_file":"../calibration_file.json"
}
