1 0.5615190992123774
2 0.582647940649218
3 0.8
4 0.40572090717764026
5 0.5769683435384559
6 0.6504729245879808
7 0.7955979402461624
8 0.46945543584950056
9 0.596631745955732
10 0.7652467168016622
11 0.5535265790136207
12 0.4572729909603582
13 0.8
14 0.4988459528709561
15 0.2
16 0.8
17 0.2
18 0.787655485251665
19 0.2939254705692894
20 0.5423766108683039
21 0.2881329001704127
22 0.4020717452485686
23 0.45382744587522866
24 0.530067122835474
25 0.30999412640527135
26 0.7785215643002633
27 0.5742229813742875
28 0.45398509180461
29 0.8
30 0.2986424697221509
31 0.48635146551755487
32 0.37634117697630565
33 0.8
34 0.8
35 0.5493356077990199
36 0.8
37 0.2
38 0.3542128648401812
39 0.7595281685954933
40 0.5499449525915161
41 0.8
42 0.8
43 0.25561794828037965
44 0.718126281673366
45 0.2
46 0.3411719298871736
47 0.30326795079246793
48 0.37763548207674724
49 0.477579621219254
50 0.5148156254817261
51 0.2036187035823318
52 0.2
53 0.2
54 0.2559422938898883
55 0.8
56 0.6729903038726602
57 0.8
58 0.8
59 0.2
60 0.2
61 0.8
62 0.2
63 0.657938670886191
64 0.751382852047135
65 0.5767432183441235
66 0.540804769006653
67 0.2
68 0.8
69 0.2
70 0.740133172826943
71 0.4879192667696584
72 0.8
73 0.3723076926465509
74 0.2593036375007988
75 0.7231624255419135
76 0.749063012454743
77 0.8
78 0.6824560755252398
79 0.753755800455897
80 0.5468205537051174
81 0.2
82 0.8
83 0.3773728606863143
84 0.2
85 0.4371982491028425
86 0.4191953528123019
87 0.5093379582222037
88 0.47948932761327234
89 0.419796991398412
90 0.38058964816347607
91 0.5109778240000235
92 0.8
93 0.32482736539520973
94 0.7806056536545292
95 0.682673416148297
96 0.4371370489052742
97 0.5261290225847997
98 0.8
99 0.8
100 0.2
101 0.8
102 0.39293506017697477
103 0.6417451375523372
104 0.8
105 0.8
106 0.7473490297549095
107 0.6742881196190376
108 0.7167808941757269
109 0.2
110 0.5633736064816227
111 0.2
112 0.5156264763591266
113 0.7808810339580778
114 0.281853354159147
115 0.3482846224221695
116 0.2063109464695828
117 0.2
118 0.8
119 0.8
120 0.41227316364268063
121 0.21034416419379792
122 0.8
123 0.24544683747759993
124 0.3873350746868405
125 0.6622250111699515
126 0.32728514254674
127 0.8
128 0.7196191656812548
129 0.6974494307783426
130 0.5894080000113356
131 0.6304105771513007
132 0.8
133 0.5196306390060338
134 0.526767762597017
135 0.2
136 0.7818349228525554
137 0.8
138 0.4543664317628851
139 0.693226240017812
140 0.8
141 0.2
142 0.6633953940920796
143 0.46327637254584203
144 0.527779650117899
145 0.3979469421505538
146 0.2
147 0.8
148 0.41609624065912687
149 0.4368039227172744
150 0.7327827414421961
151 0.8
152 0.8
153 0.8
154 0.6234338987809932
155 0.6619676703125794
156 0.321775497925433
157 0.5276016912930309
158 0.6215065573890861
159 0.4725955351656078
160 0.30254548799593406
161 0.2
162 0.3960582719007917
163 0.5642268365547125
164 0.2
165 0.46078065355318215
166 0.2
167 0.8
168 0.46673897417638954
169 0.8
170 0.28716170939525215
171 0.8
172 0.4604014339192748
173 0.30004967357211954
174 0.2
175 0.8
176 0.7295921804505492
177 0.20895962151421615
178 0.8
179 0.8
180 0.8
181 0.35789708861447184
182 0.8
183 0.4509161333439695
184 0.599859179857955
185 0.30207981495092995
186 0.8
187 0.8
188 0.8
189 0.5420166632005241
190 0.504828522654311
191 0.8
192 0.8
193 0.492251952830355
194 0.3518492722790427
195 0.38593649936136065
196 0.8
197 0.5544609603276903
198 0.8
199 0.5061451784746465
200 0.7804784341243407
201 0.6061978684768464
202 0.655338105725031
203 0.4271384888696833
204 0.8
205 0.40294997184925296
206 0.8
207 0.5978935072866312
208 0.2711049262491809
209 0.8
210 0.8
211 0.8
212 0.23200270581170357
213 0.2
214 0.2819015228622096
215 0.5871454290325816
216 0.32231009240135655
217 0.26788947470957863
218 0.49787902316137855
219 0.6657301494991288
220 0.8
221 0.2730494601742906
222 0.2
223 0.2
224 0.7632764341461371
225 0.2
226 0.8
227 0.2
228 0.4973570970234848
229 0.5245376750756434
230 0.8
231 0.8
232 0.45381008430443737
233 0.6555946282577384
234 0.6163536363930838
235 0.6809332308079319
236 0.2
237 0.2
238 0.7673565468531166
239 0.8
240 0.28103538807081263
241 0.47970905691675614
242 0.2
243 0.3200738647773428
244 0.792651916857409
245 0.2318176122816416
246 0.37829995812892114
247 0.2
248 0.48783490055216455
249 0.20611453038946997
250 0.2
251 0.8
252 0.8
253 0.6777568120419991
254 0.688049756223485
255 0.8
256 0.3914714993226275
257 0.2
258 0.5766304812257785
259 0.8
260 0.33932894861134144
261 0.8
262 0.5676774256152269
263 0.6644539681611806
264 0.2
265 0.2
266 0.8
267 0.8
268 0.5540523347835529
269 0.2
270 0.8
271 0.2
272 0.5627866125519045
273 0.6523841306847058
274 0.2
275 0.6050527980933545
276 0.4868487418774328
277 0.6427089782178526
278 0.2877538100687701
279 0.8
280 0.4636941513482602
281 0.26805243012116653
282 0.5352571053110425
283 0.2
284 0.3009682826395622
285 0.7527264685214283
286 0.7635437237552423
287 0.2
288 0.2714299622373003
289 0.8
290 0.8
291 0.5139530180496256
292 0.2022899815140345
293 0.4399641320057034
294 0.3482277852391159
295 0.5764702348018728
296 0.25859742315936735
297 0.46763604671811
298 0.8
299 0.48119010478911595
300 0.8
301 0.8
302 0.2
303 0.2
304 0.7003856678734017
305 0.4802071380504874
306 0.5031283426005445
307 0.33160638023027245
308 0.42171194375144727
309 0.2
310 0.5774721507396777
311 0.8
312 0.5890022052176187
313 0.8
314 0.8
315 0.6489528084033873
316 0.8
317 0.25670095926504466
318 0.5338158026776495
319 0.30757691809103255
320 0.6090153597342419
321 0.7054098780301581
322 0.6826137246371736
323 0.8
324 0.2
325 0.2317367999017636
326 0.42600083107691444
327 0.2
328 0.8
329 0.2
330 0.2
331 0.2
332 0.4328908818637921
333 0.3193015343879987
334 0.527724556877448
335 0.6926644536952373
336 0.8
337 0.6939607514520795
338 0.2
339 0.8
340 0.6878519595421428
341 0.7113553353486866
342 0.2
343 0.8
344 0.46869922802565744
345 0.3340428867251689
346 0.24997200977961748
347 0.2
348 0.5995396952550699
349 0.2
350 0.367823331613923
351 0.5467489558440631
352 0.26499574350118826
353 0.2
354 0.26594860079101784
355 0.2
356 0.6947247538306949
357 0.5915178630538811
358 0.4989334383337483
359 0.8
360 0.8
361 0.2
362 0.8
363 0.2
364 0.28193266062524
365 0.8
366 0.5126039325302172
367 0.8
368 0.6488643980577272
369 0.8
370 0.2990179833570221
371 0.4929768745278072
372 0.6410404880326267
373 0.27820958181951255
374 0.8
375 0.8
376 0.7591112606505777
377 0.4656988929050221
378 0.3619072915825353
379 0.36672771313417946
380 0.611747923042461
381 0.3873424944645335
382 0.2
383 0.5467148445685055
384 0.407777411180654
385 0.2
386 0.7104117680727443
387 0.8
388 0.41641771043013504
389 0.4790278432939096
390 0.24819433749651726
391 0.4376311316794696
392 0.2
393 0.646114983442416
394 0.7959489257620129
395 0.5470003756395132
396 0.755680052722977
397 0.5030884461801429
398 0.7384631114615581
399 0.2
400 0.4088587650599195
401 0.5231203868335009
402 0.2
403 0.3926852933783885
404 0.4917491537448254
405 0.49228187873410717
406 0.3727014835117118
407 0.2663395605165505
408 0.44469454357510463
409 0.2
410 0.2
411 0.48231040651828794
412 0.8
413 0.29603206089802786
414 0.5161215459429608
415 0.3561108977512427
416 0.2
417 0.5404798377274151
418 0.506368720002355
419 0.5430131241600745
420 0.8
421 0.5579010104009106
422 0.3518479007948354
423 0.3254518345188602
424 0.501702721500494
425 0.2
426 0.5716116181372616
427 0.27041090137963686
428 0.2
429 0.5748701079646096
430 0.5582388030772623
431 0.2
432 0.7549715799716465
433 0.7362933433766526
434 0.29470768701725847
435 0.8
436 0.4545936447329726
437 0.4126860292396495
438 0.2
439 0.2
440 0.2
441 0.653643252701497
442 0.6680315382880524
443 0.7658497164449414
444 0.24777131029363358
445 0.24715894991416776
446 0.5184960412191743
447 0.2
448 0.8
449 0.4875393065403937
450 0.7394481858448525
451 0.2
452 0.8
453 0.2
454 0.327160546633541
455 0.8
456 0.26004743489888704
457 0.3928508456040804
458 0.2
459 0.8
460 0.5682137924435847
461 0.736687448970124
462 0.4477787035771247
463 0.2
464 0.7930317313735769
465 0.4949284151492456
466 0.8
467 0.741454680611322
468 0.7273411876522515
469 0.8
470 0.8
471 0.5744240984819521
472 0.8
473 0.2
474 0.7502704912661227
475 0.4957965359003285
476 0.2
477 0.3159221361686353
478 0.44167597523244756
479 0.5133975083555378
480 0.8
481 0.8
482 0.45703652825297264
483 0.3409633242346648
484 0.8
485 0.546996904859338
486 0.6306139378325065
487 0.2
488 0.38448825882570015
489 0.2
490 0.5339650720828466
491 0.5346519747960081
492 0.6972793348335246
493 0.8
494 0.6686871899007125
495 0.6874850389354101
496 0.665448807708892
497 0.42440824465216603
498 0.23911051525034682
499 0.7867014038954039
500 0.5246667432100179
501 0.5672090342043212
502 0.6034673811864624
503 0.44366904229295406
504 0.5503200803578525
505 0.20306926576383671
506 0.7321092518302592
507 0.2
508 0.6255916941512607
509 0.3983835876083422
510 0.6696200191358112
511 0.8
512 0.5970841764000491
513 0.8
514 0.5591281518451859
515 0.2
516 0.430650596536781
517 0.2
518 0.2538926983277047
519 0.25121921334706376
520 0.8
521 0.47541349487476675
522 0.2
523 0.2
524 0.8
525 0.2
526 0.6227733027412405
527 0.2
528 0.43554363914013183
529 0.43883944497065097
530 0.2
531 0.8
532 0.5358708012478716
533 0.22777304555435868
534 0.41037865095405185
535 0.40098349663490174
536 0.7209772282891989
537 0.2
538 0.4442915590594247
539 0.7610904631513691
540 0.8
541 0.6962935653224498
542 0.6132687660401897
543 0.2
544 0.21821970358126797
545 0.6851769261738988
546 0.3660145138511316
547 0.8
548 0.5799508684877496
549 0.2
550 0.4099136523313367
551 0.4085100601189703
552 0.2
553 0.8
554 0.8
555 0.2
556 0.22094503580633068
557 0.2
558 0.6960967874264039
559 0.2912782383994936
560 0.2
561 0.5243671920466907
562 0.41943412410605463
563 0.2
564 0.467010953710592
565 0.2
566 0.6949550869818515
567 0.26865808636150945
568 0.38842066506395306
569 0.6551901778117075
570 0.2
571 0.5561155301949827
572 0.3984957096004738
573 0.5334981400634604
574 0.630640218726907
575 0.2
576 0.6835388668632032
577 0.43633922411596654
578 0.266087347953367
579 0.5276258885882571
580 0.8
581 0.8
582 0.42408670369155493
583 0.2
584 0.7325463781544038
585 0.2
586 0.306192955712011
587 0.2
588 0.7679355563660448
589 0.49551805331567106
590 0.5300208750853742
591 0.4113472914118762
592 0.5761250625889407
593 0.29440698042227165
594 0.4777592363691096
595 0.6590301552350537
596 0.7601379908578549
597 0.359094476485913
598 0.49149511780553173
599 0.4431494172195652
600 0.44291405391352123
601 0.3689175273258596
602 0.2
603 0.5554265934024551
604 0.8
605 0.6752901998073151
606 0.502699368794086
607 0.35864042881933333
608 0.22863846106655794
609 0.4923457200741454
610 0.8
611 0.2106880146997256
612 0.2
613 0.6587415590322065
614 0.3346971689829611
615 0.26990479638665027
616 0.8
617 0.2
618 0.5819166012161827
619 0.4472574183069788
620 0.5227917817812908
621 0.48444101452649574
622 0.7728159520206672
623 0.6175896415613256
624 0.6283806033759588
625 0.6029301040116828
626 0.292669076915528
627 0.5077425481412831
628 0.37515973607114594
629 0.8
630 0.2
631 0.6967026205310729
632 0.4205115238878281
633 0.8
634 0.4191164464306062
635 0.2
636 0.6203161320161727
637 0.4067914450367655
638 0.6733959758047484
639 0.22616452450126912
640 0.8
641 0.7151693508472797
642 0.5510896708340203
643 0.23479333517038842
644 0.2
645 0.5852870723086989
646 0.2
647 0.5632152301733871
648 0.5067303156540887
649 0.2
650 0.2
651 0.5683384360080519
652 0.4269545150452163
653 0.5435023035494294
654 0.8
655 0.8
656 0.32476695865789973
657 0.8
658 0.6788078483426824
659 0.47820235779563897
660 0.49979796510373126
661 0.24847777657108316
662 0.2
663 0.7927550465368813
664 0.2
665 0.3735105503989953
666 0.2
667 0.30210980148071187
668 0.3110691199126758
669 0.40010378579503775
670 0.5748013699034678
671 0.30396663195034457
672 0.6248173445441568
673 0.2
674 0.65406537406505
675 0.47772666331485786
676 0.48512864131303074
677 0.8
678 0.5338370365738684
679 0.8
680 0.5338471887744785
681 0.2
682 0.24273510081852184
683 0.3837142158429198
684 0.8
685 0.4643324681030127
686 0.5712379382032615
687 0.8
688 0.390768205763903
689 0.42234026895453797
690 0.6594899761066377
691 0.728149019341881
692 0.47497498776528385
693 0.2
694 0.29139912015979663
695 0.5961077648850954
696 0.7103198188717514
697 0.7452726139271579
698 0.6041939602436546
699 0.6489138630890156
700 0.8
701 0.21872177512686297
702 0.2
703 0.3659891106217579
704 0.39248140904264495
705 0.45127560804152295
706 0.2790925286161715
707 0.2
708 0.2
709 0.5656716407192599
710 0.3516680958814703
711 0.37893568828902124
712 0.5273479622131093
713 0.4240086949447023
714 0.4999072101678318
715 0.2
716 0.5780489261504321
717 0.345189741452681
718 0.2
719 0.2888046109723975
720 0.5949507576676138
721 0.771556239672454
722 0.8
723 0.2
724 0.8
725 0.2
726 0.8
727 0.8
728 0.2
729 0.8
730 0.8
731 0.2
732 0.8
733 0.8
734 0.21912081171661124
735 0.7386954533229323
736 0.8
737 0.5952916424421291
738 0.21733575323782162
739 0.39463896602426857
740 0.5328907212857699
741 0.6091834024152207
742 0.6065860256864126
743 0.2799315670161375
744 0.30561616673749425
745 0.2072280238900967
746 0.2
747 0.7922459376689093
748 0.28224076795999553
749 0.2
750 0.7495251424552135
751 0.2
752 0.8
753 0.2
754 0.8
755 0.5944283827897852
756 0.8
757 0.48575762720993926
758 0.46504328755038093
759 0.6485807248429
760 0.596212128621619
761 0.5416261394312564
762 0.32408762964863147
763 0.25119487791184864
764 0.45231629159848435
765 0.7447694821520934
766 0.6243001504151312
767 0.2
768 0.8
769 0.5680168744823613
770 0.2
771 0.6444615369963848
772 0.45475977725089245
773 0.2164762796771857
774 0.6753757121139533
775 0.37991129508127564
776 0.2
777 0.8
778 0.29201698168645357
779 0.8
780 0.43800133643923966
781 0.44841694778413144
782 0.27997185836210875
783 0.3894166103719901
784 0.5188172117736095
785 0.5735045723784133
786 0.3642637932317024
787 0.8
788 0.358109243532991
789 0.5080784850608344
790 0.2
791 0.4402787210808409
792 0.250989127182747
793 0.5429613991980234
794 0.2
795 0.48310207653130416
796 0.43335025695365637
797 0.2
798 0.41446855960276996
799 0.548496881320448
800 0.8
801 0.2623070927470293
802 0.2
803 0.6930118469878362
804 0.7271614382512203
805 0.25297583523249445
806 0.6041248383261725
807 0.29494535113857323
808 0.8
809 0.647614843039077
810 0.4770020630499094
811 0.33264217990947686
812 0.8
813 0.8
814 0.5187048156515325
815 0.8
816 0.3642450066500094
817 0.38169097402381447
818 0.8
819 0.7588017385339763
820 0.8
821 0.5621919778712399
822 0.3222857568447137
823 0.7343641305563255
824 0.48455270305146303
825 0.8
826 0.2
827 0.8
828 0.8
829 0.2
830 0.38585362243474
831 0.3778167535386079
832 0.5359728656343439
833 0.240404174011202
834 0.23331247826502505
835 0.2
836 0.5830477515084037
837 0.44863162945709173
838 0.3791268280947313
839 0.5633497387389341
840 0.6683485820437834
841 0.6867161187517941
842 0.30942870621762497
843 0.5198144827160276
844 0.40268300273056584
845 0.20032809867465723
846 0.4965306503651014
847 0.6974366138796577
848 0.5440799596158757
849 0.5014711459589316
850 0.28866494845167434
851 0.7940059819714798
852 0.700506126411146
853 0.7685225679324508
854 0.8
855 0.7287932301320983
856 0.25735008724535924
857 0.6607502804948653
858 0.3216323008548626
859 0.8
860 0.3285974961204481
861 0.7462790413750899
862 0.8
863 0.6743392581287684
864 0.2
865 0.3019175446761091
866 0.4739912421438413
867 0.5045632763228476
868 0.48907456912733976
869 0.3458743818236916
870 0.8
871 0.8
872 0.24459190956909876
873 0.6320778938627127
874 0.8
875 0.8
876 0.5536404839443012
877 0.2786515990724855
878 0.30858279762392327
879 0.2
880 0.44013939112213524
881 0.4571082797972777
882 0.2
883 0.5112227614060706
884 0.8
885 0.4777455656890885
886 0.8
887 0.5274225436040388
888 0.7059588646713028
889 0.2
890 0.8
891 0.23027347203246878
892 0.6891188904148245
893 0.6161775155798314
894 0.8
895 0.40376898667312816
896 0.6760159960171144
897 0.2
898 0.2
899 0.5175964142408337
900 0.2
901 0.8
902 0.23951518777196829
903 0.2
904 0.44511654850685056
905 0.49891249274813965
906 0.3697212716543051
907 0.8
908 0.8
909 0.2
910 0.8
911 0.5513445062464672
912 0.5009935706668072
913 0.2
914 0.22545950587955493
915 0.20073587539961552
916 0.6491732259842742
917 0.48135035421577027
918 0.2
919 0.47941932050777425
920 0.5359310384720841
921 0.5013351137832636
922 0.6977503157644268
923 0.45969205708831545
924 0.2
925 0.7354758641852922
926 0.6627899524162415
927 0.2
928 0.446774189894271
929 0.33648556521799616
930 0.24662971288165142
931 0.8
932 0.3527019291461626
933 0.2
934 0.2
935 0.6555484271783798
936 0.8
937 0.8
938 0.5572848479708263
939 0.5156220948448458
940 0.8
941 0.5656493399219518
942 0.38200760362480013
943 0.32644600771125765
944 0.6313213790661151
945 0.2
946 0.5171366048136209
947 0.2
948 0.7076588380706335
949 0.6135651937695998
950 0.2944542176435494
951 0.23537111716454012
952 0.25528783852493997
953 0.2
954 0.8
955 0.5885903551172846
956 0.4238555482999723
957 0.4212795018355294
958 0.5590023700153682
959 0.3542042740309001
960 0.26408063578092966
961 0.3504772904092592
962 0.8
963 0.7923500276287365
964 0.48374947773472526
965 0.23391820158825077
966 0.30097084287429354
967 0.6556999256482613
968 0.7198707508190605
969 0.7244806269927816
970 0.2
971 0.2
972 0.8
973 0.4024385080038386
974 0.23279880887576354
975 0.2
976 0.2
977 0.5994064700957998
978 0.8
979 0.33321843048901684
980 0.2
981 0.33903255942963795
982 0.7646519674781467
983 0.2869925142792282
984 0.6359673802070905
985 0.37667865321243543
986 0.6518556072882298
987 0.5589383816425083
988 0.2
989 0.5336429419173215
990 0.8
991 0.2
992 0.4534120372485907
993 0.2
994 0.2
995 0.8
996 0.2
997 0.6889470384986344
998 0.42021352202280493
999 0.2
1000 0.5141119505307845
1001 0.2
1002 0.7507729720836388
1003 0.444339139825184
1004 0.5898343968377575
1005 0.2
1006 0.47041205418444837
1007 0.2
1008 0.7641642137675925
1009 0.2
1010 0.5652071617491156
1011 0.4291591165495232
1012 0.8
1013 0.8
1014 0.8
1015 0.44950427562511985
1016 0.8
1017 0.5984783521806682
1018 0.8
1019 0.8
1020 0.3934903856079649
1021 0.2
1022 0.4343479355658479
1023 0.4204292221933596
1024 0.2
1025 0.6861220963559003
1026 0.30213821982623146
1027 0.33677886485939884
1028 0.8
1029 0.30207265841931696
1030 0.5047628112375709
1031 0.4121348942041413
1032 0.8
1033 0.26191334688514967
1034 0.5580129523940375
1035 0.30454065896810445
1036 0.3127765819279743
1037 0.6277658646194868
1038 0.26877166914421186
1039 0.32958482435608955
1040 0.33628135192642694
1041 0.8
1042 0.24236618052004372
1043 0.414707678471
1044 0.2
1045 0.25786831836799523
1046 0.7966337136023559
1047 0.5462026168446783
1048 0.2
1049 0.5433524546377189
1050 0.2
1051 0.8
1052 0.4392386354587303
1053 0.7884170974783583
1054 0.5744859802259753
1055 0.6348091745756195
1056 0.319676760097642
1057 0.42616459434173604
1058 0.8
1059 0.5269216444089886
1060 0.3748905888695547
1061 0.3030540334274743
1062 0.34893727723894874
1063 0.7467941673406224
1064 0.6535025479203012
1065 0.5277220411320432
1066 0.2
1067 0.2
1068 0.5739565109003508
1069 0.7932937165173015
1070 0.8
1071 0.6018857741580977
1072 0.3630846215259758
1073 0.2
1074 0.20986257250890944
1075 0.21693537092549647
1076 0.6257981412227823
1077 0.8
1078 0.47701116484035033
1079 0.2
1080 0.8
1081 0.6080432164418965
1082 0.8
1083 0.2
1084 0.8
1085 0.3770878863481911
1086 0.5156032788825003
1087 0.2
1088 0.6456844968004201
1089 0.7097107996233248
1090 0.4849610343389306
1091 0.2
1092 0.27775100241496153
1093 0.21653611157696562
1094 0.6674168186254297
1095 0.8
1096 0.2
1097 0.8
1098 0.5870439379360975
1099 0.46536804731620807
1100 0.3632949013153871
1101 0.8
1102 0.8
1103 0.21070845775164465
1104 0.5370679675416112
1105 0.5735667472518635
1106 0.2
1107 0.504739424555443
1108 0.3376228264638972
1109 0.2
1110 0.2
1111 0.26650726091504257
1112 0.3163224600910805
1113 0.2
1114 0.2
1115 0.2
1116 0.8
1117 0.5118806456093339
1118 0.7190262312071866
1119 0.5501218433271041
1120 0.7181288662053877
1121 0.8
1122 0.5455007389913848
1123 0.2
1124 0.5344370590278937
1125 0.22740716823055884
1126 0.2
1127 0.8
1128 0.5464267213388155
1129 0.6031249362586788
1130 0.4314305834961215
1131 0.4967507223532083
1132 0.8
1133 0.6218707425051169
1134 0.2
1135 0.4410655260959234
1136 0.45888198993244456
1137 0.741620550607697
1138 0.2
1139 0.38280477978686556
1140 0.8
1141 0.28384503909067793
1142 0.8
1143 0.2
1144 0.6789070545146585
1145 0.7310943744427663
1146 0.2
1147 0.8
1148 0.4589458176342266
1149 0.8
1150 0.8
1151 0.41830749504596176
1152 0.8
1153 0.8
1154 0.8
1155 0.6641249036247295
1156 0.5890212252122004
1157 0.49731034558491255
1158 0.2
1159 0.5097737632934302
1160 0.8
1161 0.7501766342421253
1162 0.26307493257498826
1163 0.6227979281731844
1164 0.4094696004652655
1165 0.2
1166 0.8
1167 0.20320198260795208
1168 0.6173742607688961
1169 0.7074383872885961
1170 0.8
1171 0.2
1172 0.3468046370620484
1173 0.2431816454604837
1174 0.2
1175 0.7320583482844611
1176 0.2226648202698614
1177 0.2966433039357338
1178 0.5709446059742334
1179 0.23065643026411237
1180 0.3384956716424027
1181 0.8
1182 0.4556613304800488
1183 0.4088967440876676
1184 0.2755803697171909
1185 0.2
1186 0.4552545596743083
1187 0.6739863010241265
1188 0.2
1189 0.2
1190 0.6459701479010618
1191 0.3204345071033568
1192 0.30930705651010304
1193 0.7103393057193838
1194 0.3275021094749679
1195 0.2
1196 0.8
1197 0.8
1198 0.5625260866144516
1199 0.2
1200 0.8
1201 0.3432287140665159
1202 0.7024486493322123
1203 0.8
1204 0.2
1205 0.6503361403334755
1206 0.3582129555690007
1207 0.6455602375909183
1208 0.332515099053881
1209 0.5686594651104249
1210 0.480206420039908
1211 0.8
1212 0.5581403613755158
1213 0.6447852289541863
1214 0.6158435753833612
1215 0.8
1216 0.43607617975746876
1217 0.47835449667136254
1218 0.7722874606544743
1219 0.2
1220 0.41316258640565284
1221 0.43870097259018587
1222 0.2
1223 0.6686954986312837
1224 0.6909058330317657
1225 0.6839481159458848
1226 0.46658239263444234
1227 0.7009183423634373
1228 0.5938941394695845
1229 0.37455786106943556
1230 0.3225107800506464
1231 0.8
1232 0.28432342772602714
1233 0.2
1234 0.4550072014472271
1235 0.2530851348365165
1236 0.29708740790844207
1237 0.33773714323633386
1238 0.38681663057846377
1239 0.5731283388376773
1240 0.4666843292355113
1241 0.2828908451590473
1242 0.7206681322907798
1243 0.2
1244 0.3712469002328723
1245 0.6838067502600773
1246 0.5541465821327463
1247 0.3540687980111864
1248 0.2
1249 0.8
1250 0.23965478884300706
1251 0.3439805857417025
1252 0.5600434681142723
1253 0.6679604696312408
1254 0.22902700624973582
1255 0.7679757005137102
1256 0.755405748223001
1257 0.4314270672371168
1258 0.7094927423731611
1259 0.2235504327889934
1260 0.25187144688862473
1261 0.8
1262 0.8
1263 0.3889630219629324
1264 0.38067823787592797
1265 0.7512413321558556
1266 0.4253662701114068
1267 0.41030658393898245
1268 0.3500066489010525
1269 0.2
1270 0.2
1271 0.666481957564764
1272 0.598550255132592
1273 0.2
1274 0.686754853237592
1275 0.5106922143597646
1276 0.6648250471181317
1277 0.2
1278 0.609162611060814
1279 0.29328019536267524
1280 0.8
1281 0.5514980820732135
1282 0.6760921635352505
1283 0.8
1284 0.36214654457054796
1285 0.2
1286 0.7296169325632845
1287 0.8
1288 0.8
1289 0.253483677185379
1290 0.7494204575382498
1291 0.2
1292 0.65311914409077
1293 0.2
1294 0.5979525476321176
1295 0.8
1296 0.47873438461088247
1297 0.7395313153271359
1298 0.8
1299 0.643892796531921
1300 0.21643016778037988
1301 0.22007591398860304
1302 0.4190135196553454
1303 0.7640196202675942
1304 0.3780120155980796
1305 0.49923424502011843
1306 0.6680853761428793
1307 0.5267298068747945
1308 0.2
1309 0.5098144490974285
1310 0.6030518453067396
1311 0.8
1312 0.8
1313 0.8
1314 0.8
1315 0.46874976229142096
1316 0.3668765580289298
1317 0.45527706308411475
1318 0.5925110467148329
1319 0.7977078387893415
1320 0.5835471520756085
1321 0.697442177874425
1322 0.48687604781775745
1323 0.2
1324 0.744028937301593
1325 0.8
1326 0.2
1327 0.4012102891167942
1328 0.2987238710066725
1329 0.3683638732505386
1330 0.41779957754840213
1331 0.5683205565782463
1332 0.5429229923527076
1333 0.6105610872147706
1334 0.8
1335 0.2
1336 0.7237463930785233
1337 0.5813094191091517
1338 0.6263616436449697
1339 0.44647647812584823
1340 0.4460025728804647
1341 0.5243939037919684
1342 0.3168451913616416
1343 0.4261145873485357
1344 0.400591053688591
1345 0.2
1346 0.8
1347 0.2
1348 0.8
1349 0.4158365409403474
1350 0.6961420388474684
1351 0.20735645577248718
1352 0.6266806577486331
1353 0.42474098851171554
1354 0.45414682539248763
1355 0.8
1356 0.4157220996014491
1357 0.8
1358 0.2
1359 0.7101542741847908
1360 0.2
1361 0.8
1362 0.5510522290143041
1363 0.3872844326367261
1364 0.2666966947353602
1365 0.2636913051310116
1366 0.8
1367 0.6501352534071366
1368 0.2
1369 0.6824739237498902
1370 0.2
1371 0.2
1372 0.2
1373 0.2
1374 0.22071265209528768
1375 0.6704767696449447
1376 0.669282812382465
1377 0.6518817396490049
1378 0.7895128734633645
1379 0.6900252366513974
1380 0.25509064954907956
1381 0.2
1382 0.4049465278852777
1383 0.2
1384 0.6434757762619663
1385 0.2963895530673778
1386 0.35200158720383495
1387 0.3112032284637051
1388 0.42572387758738184
1389 0.5755210558596765
1390 0.3417816413682021
1391 0.2
1392 0.7213912892284555
1393 0.5377374959071762
1394 0.6728614059831478
1395 0.69976899502713
1396 0.8
1397 0.2
1398 0.439908410117258
1399 0.31503148206578724
1400 0.31065044768407646
1401 0.8
1402 0.7966761924750665
1403 0.2
1404 0.48438939910060824
1405 0.6238877336531733
1406 0.8
1407 0.8
1408 0.8
1409 0.8
1410 0.3028333990976151
1411 0.6707055042578252
1412 0.5050853496114369
1413 0.6938453681231235
1414 0.44602283760620376
1415 0.2
1416 0.2
1417 0.6682935388665396
1418 0.6005956274936328
1419 0.6850505685488198
1420 0.2
1421 0.6717258737154012
1422 0.3873186598073246
1423 0.23896514331457358
1424 0.8
1425 0.355451667819241
1426 0.8
1427 0.5310546187558888
1428 0.8
1429 0.7620602896681969
1430 0.5811193420839531
1431 0.2
1432 0.41143316094111637
1433 0.5703957350270678
1434 0.5745054599386125
1435 0.2504362007173695
1436 0.4520241570199061
1437 0.8
1438 0.49606366183169437
1439 0.5527778504857511
1440 0.47944868264971197
1441 0.2
1442 0.8
1443 0.2
1444 0.21498578893894155
1445 0.2
1446 0.6819861289388265
1447 0.2
1448 0.5870495124265068
1449 0.5497941210664161
1450 0.5463520868902138
1451 0.313271857602996
1452 0.7330017008432511
1453 0.6531567649076369
1454 0.7535974265298224
1455 0.8
1456 0.7123013619172951
1457 0.445476504952348
1458 0.7862009070027024
1459 0.37646073865718227
1460 0.46110124708227673
1461 0.7480499207033946
1462 0.35729595794784935
1463 0.8
1464 0.43542731033476306
1465 0.7510121319149824
1466 0.2
1467 0.36746382188274207
1468 0.5147134730744869
1469 0.2
1470 0.35900934345862284
1471 0.8
1472 0.738875124739208
1473 0.672974028824492
1474 0.8
1475 0.5438726906003339
1476 0.31339275496646457
1477 0.8
1478 0.4281410207246915
1479 0.5244882141652754
1480 0.27258441304677167
1481 0.2238082413564904
1482 0.8
1483 0.2
1484 0.2
1485 0.2
1486 0.38523980003401137
1487 0.2
1488 0.2
1489 0.6652612298465358
1490 0.8
1491 0.41841999086535353
1492 0.4773012353078922
1493 0.2
1494 0.26842672616430435
1495 0.7353689138296859
1496 0.41986047961541023
1497 0.2
1498 0.2
1499 0.4041375365892277
1500 0.4727428493064881
1501 0.5722381315171549
1502 0.5295303567146444
1503 0.2
1504 0.6020708766340894
1505 0.584109300874476
1506 0.6226994638578472
1507 0.8
1508 0.2
1509 0.2
1510 0.41530310845189017
1511 0.31054289622752146
1512 0.7929713215745353
1513 0.32545638767109514
1514 0.8
1515 0.2
1516 0.8
1517 0.2
1518 0.7722712067112768
1519 0.2
1520 0.2
1521 0.8
1522 0.5192121664449927
1523 0.2
1524 0.2136463497221402
1525 0.5620080384168887
1526 0.4472703156185023
1527 0.6049897835572018
1528 0.7190613897200273
1529 0.5748495311608471
1530 0.5745436216975839
1531 0.5389763702280426
1532 0.44639752094923196
1533 0.2
1534 0.7584268105525149
1535 0.7261884600617214
1536 0.2749747172183425
1537 0.5929302735454051
1538 0.7349009931536223
1539 0.2
1540 0.5478041239206061
1541 0.8
1542 0.8
1543 0.2686445444005138
1544 0.33775853020150703
1545 0.2
1546 0.45424896349595983
1547 0.2756955014421051
1548 0.7072605573781567
1549 0.23947233619925762
1550 0.44948551937190495
1551 0.2
1552 0.7459886064151788
1553 0.8
1554 0.4189528668800133
1555 0.2
1556 0.8
1557 0.8
1558 0.7176414483810816
1559 0.6303804183981534
1560 0.8
1561 0.43106502888135434
1562 0.7670635184369736
1563 0.6638954539268277
1564 0.48848693746752425
1565 0.42545091728989165
1566 0.7844506840686238
1567 0.35739480176858274
1568 0.2
1569 0.7800884618706208
1570 0.4221703212751767
1571 0.2
1572 0.43463414446547116
1573 0.7482787668309567
1574 0.5703433033805483
1575 0.29642876026511555
1576 0.7539398021572621
1577 0.2
1578 0.2
1579 0.5162876130581748
1580 0.8
1581 0.5183888039091451
1582 0.5215100301158406
1583 0.4979768633825913
1584 0.6671671093016207
1585 0.7716576451409907
1586 0.8
1587 0.4427903949543174
1588 0.8
1589 0.6952347194388374
1590 0.536209197814647
1591 0.8
1592 0.8
1593 0.8
1594 0.8
1595 0.8
1596 0.34037394586316616
1597 0.2
1598 0.6602864966451166
1599 0.2
1600 0.2
1601 0.5225491788969717
1602 0.6856322431309918
1603 0.671716245317893
1604 0.2
1605 0.6402463801539503
1606 0.8
1607 0.8
1608 0.7513310635564773
1609 0.5786080094046894
1610 0.6944580491715985
1611 0.2526129258045996
1612 0.4918797371915444
1613 0.7128697973966857
1614 0.8
1615 0.6792396396453092
1616 0.785418511198051
1617 0.2
1618 0.26818079184913424
1619 0.2
1620 0.5890007502672486
1621 0.34619415738064563
1622 0.6514003809884955
1623 0.6386786621870582
1624 0.7562644581201146
1625 0.5164904299163494
1626 0.3088741405066616
1627 0.5442754784488424
1628 0.6473018377016078
1629 0.7466027751342694
1630 0.6187265834742064
1631 0.5729963278971556
1632 0.26082989727445693
1633 0.36064717235591315
1634 0.495196596597207
1635 0.2
1636 0.2572615923250169
1637 0.2
1638 0.2
1639 0.8
1640 0.5827388087976546
1641 0.8
1642 0.4228291623072471
1643 0.6036584690249813
1644 0.361393394409084
1645 0.3181640799018033
1646 0.6779923460012839
1647 0.8
1648 0.5355425910398409
1649 0.8
1650 0.2
1651 0.5555624278023353
1652 0.3593853428370643
1653 0.25502074212638254
1654 0.7268781710011646
1655 0.578312370420863
1656 0.6076262363634506
1657 0.29270993701647774
1658 0.8
1659 0.7938187395058242
1660 0.5084965033435469
1661 0.4904041549564904
1662 0.2
1663 0.2
1664 0.6555999305993369
1665 0.6004217282888004
1666 0.6572422404456909
1667 0.7087103598073972
1668 0.6517131443239715
1669 0.42197956490794447
1670 0.3099642177585068
1671 0.2
1672 0.4769609096507484
1673 0.8
1674 0.8
1675 0.5820675920622211
1676 0.6370473521729073
1677 0.2
1678 0.6618033981566958
1679 0.8
1680 0.35091688163233314
1681 0.8
1682 0.4156471216548731
1683 0.2
1684 0.8
1685 0.3639800263581763
1686 0.2
1687 0.8
1688 0.3461861201496663
1689 0.4144896182436007
1690 0.2
1691 0.7044789448058989
1692 0.7322410702149276
1693 0.22502389110641918
1694 0.7457447250501189
1695 0.21064131826972565
1696 0.2
1697 0.2
1698 0.6683759351647096
1699 0.7489003167112227
1700 0.4302527577026293
1701 0.6722050150092355
1702 0.8
1703 0.5035617011968095
1704 0.4380636012009082
1705 0.2
1706 0.8
1707 0.4431536553136147
1708 0.35387285028567284
1709 0.48344675941856097
1710 0.2977496751407697
1711 0.704397833688885
1712 0.28575381706025216
1713 0.6074862940960701
1714 0.32072496755092483
1715 0.6512915421614791
1716 0.4293375535012008
1717 0.2
1718 0.6686697191276211
1719 0.2589123514114749
1720 0.24507206286691818
1721 0.791000224200642
1722 0.43336323696153173
1723 0.2
1724 0.8
1725 0.2
1726 0.2
1727 0.2
1728 0.2070944631088919
1729 0.5294590014920623
1730 0.3159756883024658
1731 0.4974515820907006
1732 0.27055533770082607
1733 0.7901898637635612
1734 0.24073399364083248
1735 0.4121780237110704
1736 0.37619152601467376
1737 0.6522001491119476
1738 0.6865534595380274
1739 0.23594883381285342
1740 0.2
1741 0.23136548979172422
1742 0.6747664755732953
1743 0.21324557590555265
1744 0.2
1745 0.26696701973785
1746 0.8
1747 0.555280455475211
1748 0.5137042651873299
1749 0.2900558137589827
1750 0.47598986068799837
1751 0.6027505095403867
1752 0.22558031826913122
1753 0.6416417268712069
1754 0.2
1755 0.8
1756 0.47346454419085815
1757 0.6915508903771304
1758 0.2798337393465433
1759 0.4599352132044894
1760 0.79243721273099
1761 0.3111938248430567
1762 0.5990774584246965
1763 0.4239716125180501
1764 0.7738761368760029
1765 0.8
1766 0.29899010286033034
1767 0.6253959043261379
1768 0.32504903016356196
1769 0.8
1770 0.2
1771 0.2
1772 0.8
1773 0.8
1774 0.5704006132886504
1775 0.6990974207090191
1776 0.4073985889173505
1777 0.8
1778 0.7294203272843243
1779 0.41361315345374244
1780 0.48625333733338694
1781 0.48320949153912457
1782 0.4304479720855319
1783 0.8
1784 0.2
1785 0.8
1786 0.7491401284575003
1787 0.41055132958091833
1788 0.7940387819926327
1789 0.21480301806966234
1790 0.2
1791 0.5826482118463647
1792 0.532832649892685
1793 0.8
1794 0.3399758092638864
1795 0.7440397022513044
1796 0.8
1797 0.22656522902329473
1798 0.8
1799 0.27224877803378755
1800 0.6370751845053164
1801 0.7993800852990554
1802 0.359900843114207
1803 0.46281031008168605
1804 0.6381267100614179
1805 0.6616583537655236
1806 0.6588025507539044
1807 0.3465273210546654
1808 0.3324453315476966
1809 0.8
1810 0.2
1811 0.4435493140880692
1812 0.5662810405731342
1813 0.8
1814 0.2
1815 0.4608024936111935
1816 0.5746694483593744
1817 0.735770907167637
1818 0.5761628834601338
1819 0.6451644731188333
1820 0.3832757394287553
1821 0.2972138158901577
1822 0.8
1823 0.8
1824 0.2
1825 0.41806242991001097
1826 0.8
1827 0.2
1828 0.755346982805054
1829 0.4738168382522353
1830 0.4625694189181121
1831 0.8
1832 0.3715413316295796
1833 0.23505278745030994
1834 0.2
1835 0.8
1836 0.2089076995340134
1837 0.8
1838 0.3183294868050213
1839 0.7110009530932268
1840 0.5842449096681234
1841 0.8
1842 0.8
1843 0.7446999487985244
1844 0.2724688038407111
1845 0.4396295645094183
1846 0.6966076217828049
1847 0.38866746194394375
1848 0.2334176629376215
1849 0.26522570755443975
1850 0.6066542868085519
1851 0.2
1852 0.5687276614002348
1853 0.2128611996860591
1854 0.7007009105649858
1855 0.6568071006881304
1856 0.30349759190505154
1857 0.2
1858 0.23607553451313007
1859 0.34533975109027104
1860 0.4855180392317418
1861 0.4646202222636035
1862 0.5989377756314005
1863 0.8
1864 0.22680385982208906
1865 0.5456125509126349
1866 0.5194747260788821
1867 0.2
1868 0.46172035747351947
1869 0.5248496729926745
1870 0.2
1871 0.7877002239893217
1872 0.6640186623016924
1873 0.7761889939109429
1874 0.4747170098866506
1875 0.4442102406211372
1876 0.45579758140283644
1877 0.2
1878 0.6058027406450746
1879 0.8
1880 0.8
1881 0.5108623211334105
1882 0.22882269741347278
1883 0.400611342399438
1884 0.2
1885 0.33431461751358005
1886 0.7391914673219242
1887 0.3675612344870798
1888 0.4897887669683578
1889 0.5733264080663926
1890 0.2
1891 0.7133963962363872
1892 0.3766648075945615
1893 0.2
1894 0.2
1895 0.7280831475667429
1896 0.2
1897 0.2171770473697393
1898 0.6087516522277743
1899 0.6570195757714876
1900 0.4415462644621273
1901 0.8
1902 0.2
1903 0.8
1904 0.5184476017562588
1905 0.3916890534369988
1906 0.2
1907 0.7161654679022931
1908 0.6108210633527621
1909 0.2
1910 0.8
1911 0.2
1912 0.2
1913 0.8
1914 0.24524047038234148
1915 0.4658532273062242
1916 0.3198179927308755
1917 0.4472836836941817
1918 0.22163769485248347
1919 0.3885294026614722
1920 0.5876404806099498
1921 0.6457765370644233
1922 0.2
1923 0.2
1924 0.2
1925 0.4437178209661869
1926 0.41034573414598025
1927 0.2956995510047538
1928 0.2
1929 0.3420400738323227
1930 0.21232923126963688
1931 0.3573201209374093
1932 0.31836977410792555
1933 0.5509522506959753
1934 0.29220416907294866
1935 0.49717811675119195
1936 0.8
1937 0.6369849881474478
1938 0.293915889365308
1939 0.6201315112868556
1940 0.5624008271738051
1941 0.2
1942 0.603193385529574
1943 0.2
1944 0.26617570690515235
1945 0.6392041058119692
1946 0.6400441615086103
1947 0.433217081610377
1948 0.8
1949 0.5669293513045146
1950 0.2
1951 0.2
1952 0.7769199731515691
1953 0.3852319319800887
1954 0.2665926533490136
1955 0.2
1956 0.2815244736050898
1957 0.21600366575530466
1958 0.2
1959 0.7173735089361626
1960 0.48610300992890765
1961 0.7389935891329642
1962 0.2
1963 0.2
1964 0.8
1965 0.7675250479073294
1966 0.5380412016456088
1967 0.6146628898994262
1968 0.2
1969 0.2372299263816528
1970 0.8
1971 0.8
1972 0.2
1973 0.3325829712851994
1974 0.56965185804899
1975 0.48151263356673973
1976 0.8
1977 0.21561212335985047
1978 0.717587570993117
1979 0.8
1980 0.2094609716674981
1981 0.8
1982 0.6830662185932904
1983 0.7357953300273533
1984 0.577790268162805
1985 0.36634653758287006
1986 0.8
1987 0.8
1988 0.6470362745050725
1989 0.2
1990 0.6622625316225812
1991 0.7116992738671817
1992 0.6648700633454753
1993 0.5293623729103626
1994 0.3935553485610921
1995 0.5876001791056449
1996 0.8
1997 0.545590633035947
1998 0.21503283632407127
1999 0.8
2000 0.28980317249778154
2001 0.8
2002 0.8
2003 0.6602943055850341
2004 0.6424741364054265
2005 0.8
2006 0.2
2007 0.6385873245410243
2008 0.6308828196251913
2009 0.8
2010 0.44178516070888796
2011 0.5144854244230835
2012 0.5575191989491554
2013 0.2
2014 0.2
2015 0.403158364864939
2016 0.382946156729723
2017 0.3389192801826498
2018 0.2
2019 0.32581607622047914
2020 0.7078032065752871
2021 0.5213777080345988
2022 0.7765285827106249
2023 0.8
2024 0.5747084579161758
2025 0.7473756213941969
2026 0.6024279359363697
2027 0.7882171553785805
2028 0.5265458489296302
2029 0.40581630659292917
2030 0.8
2031 0.3733206430002461
2032 0.8
2033 0.7169709744156039
2034 0.8
2035 0.7459913680296087
2036 0.2
2037 0.4772903885344215
2038 0.2
2039 0.2
2040 0.6280014561674887
2041 0.5093505069934452
2042 0.3537383883396712
2043 0.36258533263637094
2044 0.5765597301318199
2045 0.4366625813207349
2046 0.2
2047 0.5775567014200647
2048 0.7752683164748533
2049 0.2
2050 0.5739581236356095
2051 0.7800434488232502
2052 0.2
2053 0.31031790414764415
2054 0.2
2055 0.2
2056 0.8
2057 0.8
2058 0.4734735645639813
2059 0.4943249376740565
2060 0.3619787744615501
2061 0.6365362508179053
2062 0.7378787955643592
2063 0.6194055582487012
2064 0.22165306053052303
2065 0.6835937761955182
2066 0.2188556799342246
2067 0.5589152032341174
2068 0.6831960066925967
2069 0.8
2070 0.5418211548571619
2071 0.658074703965916
2072 0.2
2073 0.7574982068420234
2074 0.4389129543308511
2075 0.5853397687644073
2076 0.21014766491540793
2077 0.4864164660796843
2078 0.3354331003791515
2079 0.5594023755724998
2080 0.3341677830024399
2081 0.5219384579900318
2082 0.6659050069283214
2083 0.4982149293627008
2084 0.40000970005588804
2085 0.6847615004970389
2086 0.452163622448597
2087 0.8
2088 0.8
2089 0.49913644891716547
2090 0.6045318380033765
2091 0.4311990437865391
2092 0.2
2093 0.2129602711540215
2094 0.8
2095 0.2
2096 0.8
2097 0.8
2098 0.5105171584879378
2099 0.8
2100 0.7038510190903419
2101 0.6662392715225702
2102 0.8
2103 0.8
2104 0.4940831883377297
2105 0.3836561859251564
2106 0.2
2107 0.2
2108 0.6340101410415385
2109 0.7043200287412514
2110 0.4407508883479499
2111 0.44091253212792514
2112 0.47668992035537666
2113 0.4086317240576549
2114 0.2
2115 0.2
2116 0.8
2117 0.4491392241790747
2118 0.3273510913235613
2119 0.3860237907695908
2120 0.2369307067339752
2121 0.6988456182000123
2122 0.564582332007387
2123 0.7278824965293976
2124 0.27354447559479983
2125 0.2293160186822718
2126 0.2
2127 0.4377164680094316
2128 0.26399671765904975
2129 0.2
2130 0.2
2131 0.5875704460397672
2132 0.8
2133 0.7801589455042949
2134 0.2363584629927022
2135 0.6179091052188442
2136 0.2
2137 0.5962447833229082
2138 0.6159056393103323
2139 0.6737778552177964
2140 0.7483297713007722
2141 0.2
2142 0.541715453810966
2143 0.2
2144 0.8
2145 0.8
2146 0.33862733854700766
2147 0.6115030084735881
2148 0.4894546591772582
2149 0.4365406355194642
2150 0.5258400860530054
2151 0.8
2152 0.2
2153 0.25260972090891076
2154 0.5296003622627677
2155 0.2
2156 0.8
2157 0.4087863247212778
2158 0.2
2159 0.2629914589558213
2160 0.28720660848980395
2161 0.45428212282050173
2162 0.753655850993407
2163 0.4912806648800887
2164 0.5763539541805666
2165 0.6259534830735811
2166 0.49113927905450067
2167 0.8
2168 0.8
2169 0.7412818859839845
2170 0.4241455790215435
2171 0.8
2172 0.6596336060576702
2173 0.2
2174 0.8
2175 0.7758169666978989
2176 0.38347834002548453
2177 0.6478930765827451
2178 0.8
2179 0.5202904450580984
2180 0.5385633903912151
2181 0.41709869703638597
2182 0.6963376470869598
2183 0.8
2184 0.4472520555859595
2185 0.49750857060921716
2186 0.24584686889494212
2187 0.48597699764974894
2188 0.8
2189 0.8
2190 0.2
2191 0.6064895837594274
2192 0.2
2193 0.5671766993696127
2194 0.5846494744339241
2195 0.2
2196 0.8
2197 0.3823146359819959
2198 0.8
2199 0.4556096663073117
2200 0.3185416956588095
2201 0.8
2202 0.33811965089139695
2203 0.3830660583866519
2204 0.29189439047288346
2205 0.6109687300150942
2206 0.4427420664268468
2207 0.8
2208 0.2
2209 0.2130934144411426
2210 0.8
2211 0.2
2212 0.8
2213 0.7899910201484072
2214 0.8
2215 0.46847768248167787
2216 0.8
2217 0.3764273135499778
2218 0.6072438312434754
2219 0.634855045042083
2220 0.3615361631432702
2221 0.34692384993202985
2222 0.2
2223 0.7314532136509987
2224 0.2
2225 0.8
2226 0.8
2227 0.7987168064501843
2228 0.2832631790007124
2229 0.6242108714755943
2230 0.6390633174921589
2231 0.8
2232 0.5430801131855943
2233 0.4813994602264898
2234 0.30594776073797086
2235 0.8
2236 0.4271974695202266
2237 0.7618287977571732
2238 0.8
2239 0.5467286515671059
2240 0.2
2241 0.8
2242 0.2
2243 0.7498964582712854
2244 0.39870619224727166
2245 0.4749278894536588
2246 0.35574108652325087
2247 0.566918380671005
2248 0.44550128022824204
2249 0.8
2250 0.3003826898856755
2251 0.7266117618784967
2252 0.6613847982502121
2253 0.6603804236998236
2254 0.5698274672708107
2255 0.5305409429601662
2256 0.7563233954491507
2257 0.2
2258 0.26519779186234194
2259 0.8
2260 0.8
2261 0.2
2262 0.2873564746709061
2263 0.36386278242643744
2264 0.49062088813796734
2265 0.2
2266 0.6940858984495069
2267 0.553921287248734
2268 0.4323922533473531
2269 0.8
2270 0.28600977611415934
2271 0.366436005431721
2272 0.33080579396363197
2273 0.8
2274 0.2
2275 0.6908939007851301
2276 0.2
2277 0.39094061692838195
2278 0.2
2279 0.6362359887965592
2280 0.6126761146256675
2281 0.5384402484202341
2282 0.8
2283 0.2
2284 0.6450815526814955
2285 0.48452368591392114
2286 0.551770741865928
2287 0.439061976596733
2288 0.8
2289 0.473638958148901
2290 0.407600710703377
2291 0.2
2292 0.5192683487833308
2293 0.3917673964627183
2294 0.6044370822662207
2295 0.8
2296 0.7719415837683257
2297 0.2
2298 0.4597627439926134
2299 0.8
2300 0.4837870661289689
2301 0.6683764710936795
2302 0.6077748543543121
2303 0.6766316369751011
2304 0.8
2305 0.3090409995162928
2306 0.599281979230475
2307 0.8
2308 0.2
2309 0.38534093312471307
2310 0.8
2311 0.6993566935222084
2312 0.4625328782819917
2313 0.2534704701219944
2314 0.45117844858029943
2315 0.5331809138838138
2316 0.2
2317 0.2
2318 0.8
2319 0.610099660592258
2320 0.7761410964740343
2321 0.2888110097253628
2322 0.7020216736544439
2323 0.2
2324 0.4165532955481789
2325 0.4498342760181935
2326 0.2
2327 0.5490131165418124
2328 0.8
2329 0.3647589140677075
2330 0.8
2331 0.2
2332 0.6744695681337664
2333 0.2
2334 0.5961860304277122
2335 0.6943698424733776
2336 0.25242519341785485
2337 0.4498498650749455
2338 0.3377323201039979
2339 0.4220967116158441
2340 0.7888320489238803
2341 0.2
2342 0.8
2343 0.2248635662783638
2344 0.4927514541264835
2345 0.5329852971394541
2346 0.3865403525395479
2347 0.33596555794129834
2348 0.8
2349 0.8
2350 0.7527612430602664
2351 0.2
2352 0.7976248056227834
2353 0.7017633235050953
2354 0.32084488592714466
2355 0.5336938180770316
2356 0.6937414469632937
2357 0.2
2358 0.8
2359 0.8
2360 0.4138580878738892
2361 0.5269686177189219
2362 0.5404525968817335
2363 0.8
2364 0.2
2365 0.6685149946051168
2366 0.2
2367 0.7205422876262073
2368 0.8
2369 0.6192241586668972
2370 0.2
2371 0.39525975624330956
2372 0.2
2373 0.5252995220240236
2374 0.28681043174651827
2375 0.44499948814833773
2376 0.2
2377 0.5002523112922502
2378 0.8
2379 0.8
2380 0.21493628934743325
2381 0.6523792516996744
2382 0.2
2383 0.3924700646870881
2384 0.282120030133539
2385 0.6295466278723849
2386 0.2
2387 0.6982911705061696
2388 0.42395851712708177
2389 0.8
2390 0.2
2391 0.2
2392 0.2254258543204532
2393 0.7118503476331688
2394 0.2
2395 0.6949315595596056
2396 0.3291141768236312
2397 0.3400716432316113
2398 0.3189153254056596
2399 0.2
2400 0.6025853148182735
2401 0.6064661758722554
2402 0.5749311899877099
2403 0.2
2404 0.8
2405 0.2956604908078383
2406 0.6836390175364386
2407 0.8
2408 0.4941819820975963
2409 0.28831761624210955
2410 0.25775065624658106
2411 0.6656497436987494
2412 0.36137282832017165
2413 0.21383391632137533
2414 0.6834768405314811
2415 0.8
2416 0.6086913675040981
2417 0.5384303054965325
2418 0.44328484561806836
2419 0.21810555603382453
2420 0.5278804664611415
2421 0.4644042728510352
2422 0.6864864483077153
2423 0.7251799493715926
2424 0.25596240755445054
2425 0.6709860552682411
2426 0.8
2427 0.8
2428 0.5029830445767984
2429 0.5177350252922411
2430 0.6455417496475373
2431 0.2
2432 0.7103450480120437
2433 0.2910307575525085
2434 0.5875471567714415
2435 0.8
2436 0.2
2437 0.2
2438 0.21884483092123896
2439 0.8
2440 0.6298276286221509
2441 0.2
2442 0.6179004151138465
2443 0.4662264257893759
2444 0.5553897288049702
2445 0.2
2446 0.25484582937126243
2447 0.21998618643430423
2448 0.8
2449 0.4242809119136247
2450 0.2
2451 0.7142627122515918
2452 0.4223645391247336
2453 0.6259521001248521
2454 0.4783345065228996
2455 0.5322642777030131
2456 0.2169621763673818
2457 0.8
2458 0.8
2459 0.2
2460 0.7326434101160207
2461 0.37743225224687776
2462 0.6202600463363702
2463 0.42014409056781166
2464 0.6532497804564029
2465 0.49287002132472496
2466 0.34638567371263984
2467 0.2
2468 0.3629969913193488
2469 0.4109619838049566
2470 0.8
2471 0.7118251568487232
2472 0.4567446077339368
2473 0.2
2474 0.8
2475 0.559158974341641
2476 0.38832754370889155
2477 0.5121116227149606
2478 0.8
2479 0.8
2480 0.5884320364079153
2481 0.48231367045595436
2482 0.2
2483 0.6274911751775138
2484 0.5838581135578772
2485 0.7688548128384856
2486 0.7467689715384681
2487 0.29188207844978276
2488 0.43923378144160485
2489 0.7077597009461877
2490 0.8
2491 0.2
2492 0.5511919340581862
2493 0.8
2494 0.646121221388614
2495 0.8
2496 0.7195337785583331
2497 0.2388021909469365
2498 0.45268017535580646
2499 0.4003202305622861
2500 0.686160377962248
2501 0.3253907034495476
2502 0.2
2503 0.4747557384865274
2504 0.2
2505 0.7407049255193001
2506 0.4834641771356822
2507 0.2
2508 0.7446719747412991
2509 0.2
2510 0.3310255758602837
2511 0.6338092480295969
2512 0.8
2513 0.25360375141220426
2514 0.6823334855846471
2515 0.8
2516 0.2
2517 0.5627936306616689
2518 0.8
2519 0.4813934460684862
2520 0.8
2521 0.2
2522 0.45392875619225287
2523 0.2
2524 0.27897795735344083
2525 0.2580649834585928
2526 0.2
2527 0.6295035083226141
2528 0.532042895860457
2529 0.37729899072300443
2530 0.8
2531 0.8
2532 0.2
2533 0.6432145565330768
2534 0.2
2535 0.7993086749251612
2536 0.25122037649498696
2537 0.5343678579252445
2538 0.44274390646087786
2539 0.46449463276608555
2540 0.6713417158047842
2541 0.27167619520292063
2542 0.6510727826909658
2543 0.7153829942427401
2544 0.5325012760520427
2545 0.8
2546 0.8
2547 0.575834716543514
2548 0.6100053794517734
2549 0.7221525433278853
2550 0.689047664745969
2551 0.4493119937754141
2552 0.6963836147214966
2553 0.3981768121845886
2554 0.385596004545902
2555 0.34777210315542295
2556 0.4353095413023955
2557 0.8
2558 0.6428812218622655
2559 0.20405808643573348
2560 0.26277475217029234
2561 0.6303380527080114
2562 0.5279023793299078
2563 0.4338281570821878
2564 0.4137450018111376
2565 0.2
2566 0.4147694069319457
2567 0.2
2568 0.41502181247246017
2569 0.2
2570 0.8
2571 0.44230909176012323
2572 0.6613726350291509
2573 0.44563587802486637
2574 0.7418887397497915
2575 0.3676061229995775
2576 0.5428114793831667
2577 0.4671078870427773
2578 0.38255971053058874
2579 0.5506993027910988
2580 0.41109616340540217
2581 0.8
2582 0.8
2583 0.3878744848102342
2584 0.2
2585 0.5981767978458684
2586 0.7484304592945855
2587 0.28977009328662523
2588 0.2
2589 0.37033026787237106
2590 0.8
2591 0.33141285936910647
2592 0.5363359617951001
2593 0.2
2594 0.40050831208509396
2595 0.3644826918590118
2596 0.2
2597 0.42313785765398604
2598 0.2309455458281106
2599 0.7734181755607137
2600 0.2
2601 0.633775309557898
2602 0.3111306821753399
2603 0.7629838191748395
2604 0.3933020772191784
2605 0.5600826688869206
2606 0.4813675234178899
2607 0.2
2608 0.5162050994996902
2609 0.2
2610 0.2
2611 0.5297631687202782
2612 0.6374604300438027
2613 0.4553498733245731
2614 0.22222974714269444
2615 0.2
2616 0.7608151916535199
2617 0.4633619387769327
2618 0.40247331358584704
2619 0.8
2620 0.2
2621 0.4306649609886083
2622 0.40049581075093044
2623 0.30777426592379775
2624 0.5909468516793024
2625 0.2
2626 0.5895494524961408
2627 0.759086426836832
2628 0.8
2629 0.5440277216601692
2630 0.4084926299554695
2631 0.2
2632 0.8
2633 0.2
2634 0.5445621890971669
2635 0.49803372947803604
2636 0.6027962640624082
2637 0.4958053611529559
2638 0.3306287445432436
2639 0.2
2640 0.6708857158478863
2641 0.2
2642 0.2
2643 0.2427965770218271
2644 0.2
2645 0.2
2646 0.29272609794508236
2647 0.740891009483009
2648 0.6554097957629359
2649 0.8
2650 0.5187958037795453
2651 0.7114737395710536
2652 0.4657560815313054
2653 0.4383576213315223
2654 0.6449724671088236
2655 0.30099996004574286
2656 0.5778566968918591
2657 0.2
2658 0.471525244127251
2659 0.20255689558534168
2660 0.6853566433792435
2661 0.2
2662 0.5319969366311501
2663 0.5796083626036106
2664 0.6787378331779743
2665 0.6141846694316809
2666 0.8
2667 0.25941055736176666
2668 0.2568373252492285
2669 0.4145932058418808
2670 0.2
2671 0.2
2672 0.6391536015034711
2673 0.2239737762455759
2674 0.297983976578021
2675 0.4157743341559942
2676 0.6608811193391353
2677 0.7348643391631015
2678 0.2
2679 0.5237494695200233
2680 0.20884340556408376
2681 0.2
2682 0.7076011696547392
2683 0.2
2684 0.4948545364221708
2685 0.6567928782000538
2686 0.522674648073794
2687 0.4262605431099096
2688 0.8
2689 0.5661224099914146
2690 0.5388269856064355
2691 0.32585055394024487
2692 0.8
2693 0.7888603612429365
2694 0.26640941721500894
2695 0.4973354447222401
2696 0.51782535793027
2697 0.8
2698 0.2
2699 0.7953466936713612
2700 0.5743769685498852
2701 0.28260164559273615
2702 0.8
2703 0.29578828180874384
2704 0.2
2705 0.8
2706 0.314816544077279
2707 0.5960733431717368
2708 0.8
2709 0.49127777561486713
2710 0.44630462749537675
2711 0.7101618777691794
2712 0.6844453931625263
2713 0.8
2714 0.41327497523888357
2715 0.5767865799564914
2716 0.381937401058568
2717 0.34056141653621597
2718 0.4811442092120805
2719 0.2
2720 0.20809325128621897
2721 0.6665535917135026
2722 0.2
2723 0.8
2724 0.8
2725 0.5515759853678257
2726 0.2996229601168413
2727 0.5283169236351136
2728 0.8
2729 0.2913096616806448
2730 0.24006388563793185
2731 0.7064094653367216
2732 0.545631718922937
2733 0.4018589304281725
2734 0.2
2735 0.2
2736 0.6868894458972774
2737 0.35104593629683023
2738 0.42036527191241235
2739 0.34358736885185376
2740 0.8
2741 0.8
2742 0.8
2743 0.37916007035178595
2744 0.6306723996017586
2745 0.3073163536372752
2746 0.5968867902384385
2747 0.5280408564069097
2748 0.7150791005850613
2749 0.5417906414931284
2750 0.8
2751 0.7083395927194657
2752 0.2892873652393372
2753 0.8
2754 0.2573031849821208
2755 0.8
2756 0.4094280367909526
2757 0.8
2758 0.8
2759 0.8
2760 0.643978025490702
2761 0.2493966966240695
2762 0.5373102686079652
2763 0.6298772313037503
2764 0.34081617769930656
2765 0.6017570061000297
2766 0.42948885360677114
2767 0.2
2768 0.8
2769 0.49257634498564523
2770 0.7562730303249431
2771 0.7872165726367402
2772 0.2
2773 0.6425823474480064
2774 0.40561271538990695
2775 0.5419760726921499
2776 0.7205443206918025
2777 0.8
2778 0.2
2779 0.3379727496497982
2780 0.37227347842364067
2781 0.8
2782 0.22821269905039898
2783 0.4135738227947377
2784 0.7279156325069663
2785 0.382163697426368
2786 0.31752406387844345
2787 0.5882149800021342
2788 0.6671965252560333
2789 0.8
2790 0.5985470159796457
2791 0.36731602826330984
2792 0.8
2793 0.3965415714447854
2794 0.2
2795 0.4499830488624032
2796 0.42815144731771637
2797 0.7975342795904375
2798 0.4696793036782941
2799 0.398304823830446
2800 0.5116944369739473
2801 0.8
2802 0.5460039659110738
2803 0.8
2804 0.541158717684769
2805 0.6047689409504894
2806 0.35488801578349916
2807 0.8
2808 0.581962937237061
2809 0.7862979305030661
2810 0.279617739095185
2811 0.3026399666703349
2812 0.7922692105305621
2813 0.43966959715158194
2814 0.5606914780075954
2815 0.2
2816 0.8
2817 0.2534465181057515
2818 0.28548801671681334
2819 0.5066648133348507
2820 0.33250236543386075
2821 0.8
2822 0.4412143539648612
2823 0.7836113759366737
2824 0.40683365853309905
2825 0.42001777795559087
2826 0.425902348371223
2827 0.564181197162087
2828 0.6495356782104085
2829 0.2
2830 0.3656511978301735
2831 0.3261352406103655
2832 0.7324330081723365
2833 0.2
2834 0.688613125470612
2835 0.37875411900191314
2836 0.8
2837 0.5291031209596865
2838 0.5797791902382959
2839 0.7509840092647642
2840 0.7863274568350409
2841 0.6098984922691142
2842 0.753896884030325
2843 0.4120779225313567
2844 0.36453224566610964
2845 0.2
2846 0.4474250796565366
2847 0.7229379104854886
2848 0.2
2849 0.5692574933145915
2850 0.67270165525722
2851 0.6889977638149956
2852 0.672111481580678
2853 0.2
2854 0.8
2855 0.8
2856 0.2
2857 0.4607044148184634
2858 0.47132647020230045
2859 0.8
2860 0.575941536391685
2861 0.40940030672866295
2862 0.34980042265262123
2863 0.2
2864 0.8
2865 0.2660533689875658
2866 0.2
2867 0.7553943470141643
2868 0.5622862866127061
2869 0.660568551275633
2870 0.7689786154425645
2871 0.31964537415714056
2872 0.4980317973143233
2873 0.2
2874 0.7326806626380412
2875 0.3040979431922426
2876 0.6967556443973281
2877 0.2
2878 0.47693251829306876
2879 0.2
2880 0.7887203116973722
2881 0.5144229150494547
2882 0.2704242162004862
2883 0.6066652298240762
2884 0.7788307897436799
2885 0.4107057140147492
2886 0.8
2887 0.8
2888 0.3143591339397812
2889 0.22896627592378105
2890 0.2
2891 0.6051161796426572
2892 0.6154702277801071
2893 0.2
2894 0.5366166748766235
2895 0.6890641649449245
2896 0.702659467529132
2897 0.28877422453853285
2898 0.7213217939018947
2899 0.518093368011084
2900 0.2
2901 0.618476385741251
2902 0.7710443537870129
2903 0.2
2904 0.5805698906006316
2905 0.2
2906 0.6141948175277352
2907 0.8
2908 0.8
2909 0.8
2910 0.41089765839887427
2911 0.2639233778446345
2912 0.38947993776943246
2913 0.7245364922112003
2914 0.6431603910727333
2915 0.4151207525166906
2916 0.6355769639216328
2917 0.22314472906888527
2918 0.7589278468121927
2919 0.7520489084521282
2920 0.2300287939454264
2921 0.3626313449427808
2922 0.7205562677316633
2923 0.27363332280817054
2924 0.22976876953528635
2925 0.5115461431657279
2926 0.6999684362635346
2927 0.46015204220011596
2928 0.6879928769419682
2929 0.3391632233483355
2930 0.5917296063624404
2931 0.8
2932 0.6578021251604573
2933 0.2
2934 0.8
2935 0.34692945344620646
2936 0.8
2937 0.4413700770264848
2938 0.6406482011490857
2939 0.38532003697977935
2940 0.6170261484441969
2941 0.7163580726520699
2942 0.29446638877453657
2943 0.40907202646367025
2944 0.8
2945 0.4161177977999339
2946 0.8
2947 0.6211005369644731
2948 0.265436712236859
2949 0.2
2950 0.2
2951 0.2
2952 0.500764631849698
2953 0.5292470743845558
2954 0.6933670499922296
2955 0.8
2956 0.6187606367741192
2957 0.2
2958 0.6511435769072778
2959 0.36933135044050824
2960 0.4629831716811279
2961 0.31362732759149825
2962 0.4943315298754877
2963 0.8
2964 0.35478876868293324
2965 0.2
2966 0.28678462375298164
2967 0.2172051055487701
2968 0.7686695706468707
2969 0.5234244464094706
2970 0.5033182483179428
2971 0.3298883402017208
2972 0.5277821468177808
2973 0.5077315977929827
2974 0.7026688765814453
2975 0.27403531755790467
2976 0.2
2977 0.2
2978 0.35227764044532694
2979 0.8
2980 0.8
2981 0.5592840200783188
2982 0.8
2983 0.6030142348230322
2984 0.7248311137964412
2985 0.2
2986 0.2
2987 0.7449964601389586
2988 0.8
2989 0.2
2990 0.2933566930170527
2991 0.6004682603568634
2992 0.2
2993 0.6933943600739438
2994 0.2
2995 0.8
2996 0.536799587187462
2997 0.7972350423792487
2998 0.525745668132548
2999 0.29059122560236395
3000 0.3179633970339243
3001 0.4864381556949343
3002 0.2
3003 0.8
3004 0.4491513844498657
3005 0.6942928631730907
3006 0.8
3007 0.2
3008 0.5716756254875643
3009 0.4174909881222246
3010 0.2744572797941821
3011 0.41181076814910134
3012 0.2
3013 0.8
3014 0.2
3015 0.34099887970010684
3016 0.2
3017 0.27997195550801635
3018 0.49463930106980536
3019 0.51145566106467
3020 0.47685466821920575
3021 0.5872602205065306
3022 0.4938112142321881
3023 0.578581370457427
3024 0.7434470142650925
3025 0.7123532712863183
3026 0.40011424831283954
3027 0.8
3028 0.8
3029 0.8
3030 0.2
3031 0.5102373773878182
3032 0.6631065392779403
3033 0.311515404861448
3034 0.42578359251140097
3035 0.67843825316659
3036 0.27474523716684307
3037 0.6501248106125802
3038 0.8
3039 0.8
3040 0.3688433717935068
3041 0.3899248342772796
3042 0.44726617388620166
3043 0.3568985098801859
3044 0.2
3045 0.42657184089690203
3046 0.2
3047 0.5419568816226042
3048 0.3162098050743868
3049 0.2847884577480891
3050 0.7184231449041084
3051 0.2
3052 0.2
3053 0.379268674408088
3054 0.3784262879785219
3055 0.3236355568150826
3056 0.6346168358099316
3057 0.2
3058 0.2
3059 0.2
3060 0.6319337181786693
3061 0.2
3062 0.35668376710901895
3063 0.8
3064 0.32500636576799147
3065 0.4703143396919192
3066 0.8
3067 0.8
3068 0.4863324744291097
3069 0.43664907157429733
3070 0.3583432167816458
3071 0.5638838973682241
3072 0.595101005945243
3073 0.4698736424181491
3074 0.6425731726462249
3075 0.8
3076 0.2071927745809397
3077 0.8
3078 0.7090980495391624
3079 0.7816031274285966
3080 0.42553748923017454
3081 0.5905395905022174
3082 0.43176170127886787
3083 0.8
3084 0.2
3085 0.5377491213757856
3086 0.8
3087 0.8
3088 0.342101745289053
3089 0.6191384550839616
3090 0.8
3091 0.8
3092 0.8
3093 0.6205961625735066
3094 0.6727421247022612
3095 0.6065464362489379
3096 0.7509509999467896
3097 0.49648542424254827
3098 0.5760205765216427
3099 0.5523733631164746
3100 0.2924884874792282
3101 0.8
3102 0.7888587927772934
3103 0.7609226722502314
3104 0.24018549221377355
3105 0.546453985734747
3106 0.4597002298657852
3107 0.8
3108 0.20815687615304085
3109 0.8
3110 0.3157998924716423
3111 0.4198210032476248
3112 0.3051133481821272
3113 0.33629600959355155
3114 0.8
3115 0.2
3116 0.8
3117 0.5036377692231014
3118 0.21333940176983873
3119 0.27994168431195565
3120 0.2
3121 0.48392008444738477
3122 0.5030871851246649
3123 0.6767401907442882
3124 0.6406709572240341
3125 0.591301551238732
3126 0.8
3127 0.4221758916910531
3128 0.7328321789360156
3129 0.45653633194491827
3130 0.2
3131 0.6668423019804874
3132 0.75041429399809
3133 0.6265379606019585
3134 0.3853154707371353
3135 0.38890489874604706
3136 0.3043233434099134
3137 0.3061565512369887
3138 0.47423290781938576
3139 0.8
3140 0.8
3141 0.6716122950217162
3142 0.8
3143 0.4126292398726769
3144 0.6474544673609166
3145 0.5351966983638148
3146 0.2
3147 0.26776191094385204
3148 0.2
3149 0.8
3150 0.8
3151 0.2
3152 0.8
3153 0.6229664777714972
3154 0.4610138459929423
3155 0.2
3156 0.36704107848251855
3157 0.6251407207489528
3158 0.798342065484853
3159 0.35231728297357634
3160 0.5337468961440607
3161 0.8
3162 0.34699975236890446
3163 0.635782990500401
3164 0.8
3165 0.2763078802277338
3166 0.6076429385835568
3167 0.8
3168 0.4641612400324897
3169 0.6399376717577404
3170 0.26574404908102345
3171 0.8
3172 0.2
3173 0.8
3174 0.7577071591187918
3175 0.6461066658295983
3176 0.3160621605718612
3177 0.2
3178 0.2
3179 0.3834557312347243
3180 0.7354217159480896
3181 0.6316208698825834
3182 0.8
3183 0.7192452462129374
3184 0.40800573455344546
3185 0.48780908248185084
3186 0.5463223916562696
3187 0.2
3188 0.8
3189 0.2
3190 0.8
3191 0.31336460545443157
3192 0.7059429823823753
3193 0.5272003361958602
3194 0.679468507725562
3195 0.4404434004716732
3196 0.2
3197 0.3863312353861259
3198 0.605971548122426
3199 0.2
3200 0.6084457182065637
3201 0.8
3202 0.4797174746925835
3203 0.5730403556455901
3204 0.8
3205 0.6803859107327346
3206 0.7562688904025866
3207 0.8
3208 0.7143065099586132
3209 0.45060547434549614
3210 0.8
3211 0.3411373078606143
3212 0.8
3213 0.6245289001184673
3214 0.8
3215 0.8
3216 0.5548051936451367
3217 0.6589244306307591
3218 0.2807037935168538
3219 0.41391106261053945
3220 0.33316235989091425
3221 0.4551366718264433
3222 0.37955057020732974
3223 0.6191332993431358
3224 0.2
3225 0.2
3226 0.3038580495431704
3227 0.2
3228 0.2
3229 0.5578349287289933
3230 0.2
3231 0.20255242380583316
3232 0.22143330717725085
3233 0.6258014696990142
3234 0.2
3235 0.2783857386812678
3236 0.7237423215863418
3237 0.35186470135740344
3238 0.22708061961122816
3239 0.7029327114195101
3240 0.4564347321842407
3241 0.7844766227659531
3242 0.5717711524862237
3243 0.7121098009032798
3244 0.2
3245 0.8
3246 0.5734494409982149
3247 0.5575466064210994
3248 0.36194457672853686
3249 0.37427033526784637
3250 0.2
3251 0.3310433024005098
3252 0.2557916398649481
3253 0.5482736758211877
3254 0.5397432546749009
3255 0.5090285924702479
3256 0.7878583555605752
3257 0.6762114872931547
3258 0.6927870968571223
3259 0.8
3260 0.2
3261 0.3319476516965291
3262 0.4461066394836454
3263 0.5990058741281179
3264 0.31171935821312025
3265 0.24884209719606476
3266 0.8
3267 0.2
3268 0.8
3269 0.7908553465972412
3270 0.7566274172088809
3271 0.8
3272 0.38910907824218643
3273 0.6476422919417655
3274 0.8
3275 0.4682524977894133
3276 0.7995780740656323
3277 0.51609941137324
3278 0.8
3279 0.2408857045108062
3280 0.437351100329148
3281 0.23645847922215296
3282 0.7385550772792816
3283 0.6304019760747852
3284 0.37306068997065855
3285 0.8
3286 0.39153056130330344
3287 0.2
3288 0.5332540754239458
3289 0.2
3290 0.5198572211334579
3291 0.6338739949554751
3292 0.2
3293 0.8
3294 0.5846939732910457
3295 0.4703663358619522
3296 0.3786414890556051
3297 0.5643178680381621
3298 0.7089497281793087
3299 0.48150585447704636
3300 0.2
3301 0.5513638765671454
3302 0.8
3303 0.35536581969716674
3304 0.47938671975738967
3305 0.5507588288877205
3306 0.2
3307 0.2
3308 0.7147611960431473
3309 0.7379667325743825
3310 0.743788463502933
3311 0.3668311614148564
3312 0.2
3313 0.5990575340833281
3314 0.6186895569015234
3315 0.8
3316 0.7675623118841352
3317 0.7228186335222482
3318 0.6324789618678169
3319 0.21354773821216827
3320 0.5878934865936872
3321 0.33274766961656344
3322 0.298188670966947
3323 0.2
3324 0.8
3325 0.4043444908146099
3326 0.2
3327 0.7775462072561576
3328 0.3563470284597671
3329 0.7780999751003254
3330 0.2
3331 0.8
3332 0.4958856473206605
3333 0.4200232779451588
3334 0.24136875489173393
3335 0.7165458759723772
3336 0.3547239129516004
3337 0.5502222311741302
3338 0.706159687572546
3339 0.2
3340 0.7286996951649636
3341 0.7727947463581517
3342 0.4183517368859591
3343 0.4332605483721975
3344 0.2
3345 0.6394089519880659
3346 0.5239978584077868
3347 0.7320249604978389
3348 0.6089740732742612
3349 0.21706772305466088
3350 0.7418398758114824
3351 0.6789794452217184
3352 0.59779788003861
3353 0.2
3354 0.21047273311435383
3355 0.2
3356 0.8
3357 0.27191635234781086
3358 0.3738121862295489
3359 0.5567273569949582
3360 0.2
3361 0.4723882175273103
3362 0.2
3363 0.37722754755415927
3364 0.2
3365 0.48284345444840265
3366 0.6702267381608344
3367 0.5785419927751024
3368 0.7520472771799868
3369 0.28447915749823305
3370 0.3230644693750634
3371 0.4046426243823396
3372 0.5593064855667534
3373 0.8
3374 0.7954040241493824
3375 0.7986144612890194
3376 0.742339659737509
3377 0.8
3378 0.2
3379 0.2
3380 0.6248469278764297
3381 0.2
3382 0.8
3383 0.5171979220049463
3384 0.6141286313296861
3385 0.6006264035920466
3386 0.2
3387 0.35773024202753656
3388 0.2
3389 0.7311369207246106
3390 0.8
3391 0.43595934027341354
3392 0.2
3393 0.2
3394 0.4010618154139435
3395 0.42715656504197175
3396 0.7231871923091053
3397 0.8
3398 0.28105660809223887
3399 0.2542028257693225
3400 0.2
3401 0.8
3402 0.6141471290903241
3403 0.32097445804551794
3404 0.8
3405 0.40324203023863253
3406 0.2
3407 0.5837293727827397
3408 0.6635300291104633
3409 0.3814240998307467
3410 0.2
3411 0.7917582665307848
3412 0.8
3413 0.4655229337667455
3414 0.6700040739074603
3415 0.748654523384365
3416 0.2470852719625536
3417 0.4368187032434379
3418 0.4907844276791827
3419 0.410403661300486
3420 0.7727707761091219
3421 0.2
3422 0.8
3423 0.7430751146428519
3424 0.6439780389996945
3425 0.3783515401024058
3426 0.8
3427 0.644139937856667
3428 0.8
3429 0.2
3430 0.2
3431 0.21384398254209075
3432 0.8
3433 0.2581190651982985
3434 0.4163104821434369
3435 0.609851349748893
3436 0.8
3437 0.574103140946223
3438 0.6793603003139629
3439 0.2
3440 0.2
3441 0.7125590536728394
3442 0.5974181845165553
3443 0.27545433437557065
3444 0.3775590202737248
3445 0.8
3446 0.2
3447 0.2
3448 0.6194414509299309
3449 0.7426163787928026
3450 0.4949390632859057
3451 0.5473777323385284
3452 0.8
3453 0.2620637185424314
3454 0.5731963707771226
3455 0.2830876113665036
3456 0.8
3457 0.8
3458 0.49213127987205924
3459 0.4677142333764373
3460 0.8
3461 0.8
3462 0.45610521141364807
3463 0.45632917275299967
3464 0.8
3465 0.4957537378895562
3466 0.3847094533706025
3467 0.5197144492244936
3468 0.79351980280014
3469 0.24074602588503152
3470 0.3271628894498715
3471 0.5944648492987729
3472 0.40898671189097524
3473 0.6167890744379283
3474 0.8
3475 0.59822136672296
3476 0.8
3477 0.21523272125296727
3478 0.41837886782257855
3479 0.3170686762235548
3480 0.6948778075129657
3481 0.7825319921024645
3482 0.6438905604779537
3483 0.2
3484 0.8
3485 0.6202458075684602
3486 0.8
3487 0.45816092668662345
3488 0.760149457653073
3489 0.8
3490 0.45162856199697865
3491 0.8
3492 0.8
3493 0.6745615678679618
3494 0.49047370363087084
3495 0.6952318358167612
3496 0.6836443939695653
3497 0.2
3498 0.43531384067650036
3499 0.6060529109713548
3500 0.3927064988067936
3501 0.2075379231093643
3502 0.4475422343890956
3503 0.7747563463335689
3504 0.4441043370025345
3505 0.6289416099963576
3506 0.45149531416315763
3507 0.2
3508 0.6196475129425394
3509 0.265295720044063
3510 0.5480336782180416
3511 0.2
3512 0.2
3513 0.5599536071499166
3514 0.5946420291515612
3515 0.4373088310314224
3516 0.46757246135570973
3517 0.5273072953764918
3518 0.33209267126191977
3519 0.8
