en,1,717,786,775,794
en,2,749,874,790,940
en,3,406,708,764,829
en,4,725,755,697,896
en,5,775,786,698,794
en,6,406,764,730,829
en,7,697,755,725,839
en,8,489,799,723,865
en,9,489,759,799,865
en,10,698,794,786,922
en,11,187,188,733,817
en,12,723,799,759,865
en,13,717,786,794,922
en,14,565,723,647,865
en,15,762,862,773,950
en,16,718,774,746,953
en,17,710,754,701,797
en,18,730,764,708,829
en,19,752,803,462,849
en,20,404,750,786,862
en,21,319,815,104,870
en,22,775,786,717,808
en,23,718,746,177,953
en,24,248,815,770,881
en,25,762,768,862,950
en,26,746,774,177,953
en,27,790,865,488,893
en,28,66,767,714,787
en,29,708,829,406,941
en,30,755,793,725,839
en,31,45,743,796,842
en,32,725,697,772,896
en,33,649,740,779,873
en,34,728,832,791,948
en,35,694,754,722,766
en,36,755,772,697,896
en,37,752,826,630,857
en,38,319,770,815,870
en,39,611,570,745,782
en,40,565,627,723,865
en,41,697,772,755,861
en,42,761,772,697,861
en,43,696,772,761,861
en,44,707,720,784,818
en,45,282,756,845,854
en,46,696,755,772,861
en,47,721,784,720,818
en,48,725,793,755,896
en,49,722,754,701,766
en,50,709,104,815,870
en,51,289,177,315,746
en,52,457,790,874,940
en,53,406,764,708,883
en,54,457,874,727,940
en,55,710,766,754,932
en,56,177,746,718,783
en,57,726,846,693,896
en,58,467,893,865,935
en,59,705,786,750,862
en,60,730,841,406,920
en,61,710,701,754,766
en,62,708,406,883,941
en,63,289,177,746,774
en,64,694,754,766,932
en,65,701,754,722,891
en,66,248,815,881,944
en,67,730,764,406,841
en,68,754,797,710,801
en,69,120,709,121,903
en,70,725,846,726,896
en,71,726,741,693,846
en,72,161,714,298,844
en,73,693,846,741,896
en,74,508,779,740,848
en,75,725,726,693,896
en,76,444,782,749,806
en,77,404,786,750,925
en,78,710,801,797,852
en,79,502,739,803,805
en,80,711,693,755,884
en,81,720,784,737,813
en,82,421,772,725,836
en,83,161,298,714,800
en,84,175,800,161,844
en,85,711,755,693,820
en,86,10,784,720,813
en,87,692,712,754,797
en,88,267,845,774,901
en,89,721,818,720,923
en,90,509,779,848,857
en,91,289,267,774,901
en,92,707,720,818,867
en,93,720,784,10,909
en,94,524,790,749,806
en,95,489,759,511,799
en,96,692,797,801,852
en,97,693,726,725,793
en,98,705,773,762,862
en,99,698,729,851,875
en,100,502,803,742,805
en,101,739,851,729,875
en,102,711,792,693,884
en,103,348,815,719,868
en,104,27,771,741,830
en,105,121,709,815,868
en,106,692,754,712,840
en,107,283,756,854,870
en,108,9,737,784,813
en,109,177,315,746,783
en,110,717,794,775,808
en,111,739,729,851,883
en,112,282,283,756,854
en,113,722,778,877,891
en,114,754,792,722,891
en,115,722,877,701,891
en,116,242,356,785,905
en,117,149,858,798,898
en,118,470,857,826,880
en,119,733,758,171,817
en,120,495,752,630,857
en,121,693,741,726,778
en,122,692,797,754,801
en,123,698,729,775,851
en,124,784,842,743,942
en,125,791,832,732,948
en,126,711,792,763,946
en,127,509,779,508,848
en,128,702,801,770,823
en,129,27,830,741,835
en,130,209,776,719,809
en,131,121,709,120,815
en,132,775,849,786,949
en,133,242,785,817,905
en,134,510,740,508,779
en,135,277,798,751,895
en,136,25,725,772,835
en,137,785,798,356,858
en,138,705,786,775,808
en,139,775,786,705,949
en,140,692,712,789,840
en,141,711,696,783,884
en,142,402,744,724,750
en,143,711,755,696,884
en,144,565,627,566,723
en,145,546,779,723,873
en,146,120,104,319,815
en,147,818,867,720,923
en,148,104,709,120,903
en,149,732,787,174,856
en,150,775,851,729,883
en,151,104,870,709,903
en,152,282,756,283,870
en,153,741,778,573,846
en,154,693,722,792,891
en,155,444,584,749,782
en,156,704,817,785,905
en,157,761,814,180,888
en,158,215,817,827,905
en,159,712,771,701,797
en,160,770,815,710,881
en,161,645,865,790,893
en,162,745,811,782,929
en,163,277,217,751,798
en,164,709,868,121,903
en,165,780,858,69,898
en,166,567,867,818,923
en,167,244,719,348,815
en,168,384,728,791,948
en,169,823,847,747,930
en,170,242,356,363,785
en,171,710,701,765,797
en,172,711,763,788,946
en,173,716,847,823,930
en,174,414,828,752,922
en,175,614,806,790,893
en,176,120,709,104,815
en,177,734,693,792,884
en,178,346,753,359,926
en,179,696,755,711,820
en,180,696,861,783,884
en,181,712,754,820,840
en,182,645,790,684,893
en,183,695,725,781,793
en,184,404,501,786,925
en,185,770,823,801,852
en,186,742,803,739,805
en,187,9,784,737,938
en,188,402,724,744,863
en,189,289,774,746,901
en,190,567,867,923,948
en,191,187,343,188,817
en,192,726,781,725,793
en,193,611,745,621,782
en,194,805,851,742,890
en,195,694,722,754,792
en,196,204,348,244,719
en,197,735,770,342,854
en,198,515,724,834,929
en,199,719,765,204,809
en,200,749,782,584,811
en,201,758,824,704,931
en,202,763,792,694,946
en,203,766,881,710,944
en,204,771,830,101,918
en,205,162,80,201,224
en,206,96,732,777,897
en,207,733,824,758,931
en,208,318,248,770,881
en,209,731,174,787,856
en,210,342,735,318,770
en,211,699,716,823,930
en,212,269,837,774,845
en,213,463,462,752,803
en,214,191,731,843,853
en,215,122,120,121,903
en,216,710,881,815,944
en,217,161,800,714,844
en,218,703,740,723,779
en,219,693,778,722,891
en,220,759,790,644,865
en,221,346,77,359,753
en,222,728,863,720,948
en,223,711,788,763,912
en,224,12,728,813,832
en,225,754,801,710,932
en,226,705,744,773,862
en,227,388,730,536,885
en,228,470,630,826,857
en,229,731,787,190,947
en,230,698,786,775,849
en,231,21,860,751,879
en,232,404,786,501,862
en,233,706,748,734,777
en,234,734,748,713,777
en,235,660,638,667,893
en,236,745,834,724,929
en,237,787,844,190,947
en,238,529,737,9,813
en,239,163,201,80,907
en,240,591,667,638,893
en,241,734,755,693,884
en,242,204,765,719,944
en,243,720,863,923,948
en,244,35,731,760,878
en,245,700,824,733,894
en,246,711,763,804,912
en,247,479,790,488,893
en,248,712,701,771,891
en,249,714,800,298,934
en,250,611,612,570,782
en,251,695,781,726,793
en,252,830,869,101,918
en,253,865,893,645,935
en,254,318,770,735,881
en,255,289,177,774,953
en,256,813,834,724,951
en,257,720,923,867,948
en,258,511,799,759,933
en,259,45,227,743,842
en,260,573,778,741,919
en,261,242,785,363,817
en,262,774,837,756,845
en,263,763,792,711,804
en,264,739,742,698,803
en,265,410,388,536,885
en,266,698,742,739,851
en,267,704,817,758,931
en,268,746,783,315,912
en,269,64,66,714,787
en,270,462,803,463,849
en,271,706,748,777,791
en,272,713,777,748,791
en,273,717,828,811,929
en,274,717,808,592,874
en,275,724,750,744,802
en,276,149,214,798,858
en,277,739,859,729,883
en,278,35,760,731,899
en,279,516,863,728,948
en,280,592,872,717,874
en,281,190,844,843,947
en,282,546,650,779,873
en,283,693,793,725,896
en,284,700,797,712,824
en,285,710,765,719,797
en,286,742,805,739,851
en,287,405,402,724,750
en,288,45,227,46,743
en,289,634,635,639,806
en,290,614,749,790,806
en,291,592,808,717,872
en,292,165,731,763,856
en,293,731,190,843,947
en,294,192,830,27,835
en,295,754,797,712,891
en,296,753,853,99,926
en,297,712,771,741,891
en,298,755,861,696,884
en,299,515,724,393,834
en,300,25,725,421,772
en,301,96,732,167,777
en,302,722,877,32,927
en,303,724,737,558,834
en,304,758,817,733,931
en,305,721,818,567,936
en,306,229,884,804,912
en,307,406,730,447,829
en,308,214,356,798,858
en,309,9,737,529,938
en,310,567,923,721,936
en,311,723,740,703,799
en,312,65,767,66,787
en,313,791,832,728,897
en,314,213,798,277,895
en,315,634,639,591,806
en,316,6,721,887,942
en,317,751,798,217,905
en,318,421,725,422,915
en,319,699,823,747,930
en,320,138,796,736,842
en,321,743,818,707,942
en,322,488,790,759,865
en,323,693,748,722,778
en,324,171,173,758,869
en,325,66,714,767,831
en,326,765,118,866,877
en,327,811,828,430,929
en,328,188,250,733,817
en,329,741,771,712,830
en,330,777,816,713,833
en,331,702,845,756,854
en,332,729,849,775,949
en,333,259,175,161,844
en,334,804,884,711,912
en,335,256,187,733,817
en,336,694,763,760,792
en,337,501,862,786,949
en,338,758,817,704,827
en,339,743,887,818,942
en,340,122,104,120,903
en,341,724,802,744,917
en,342,414,752,786,922
en,343,692,712,797,824
en,344,708,729,859,883
en,345,699,823,716,838
en,346,489,641,723,799
en,347,693,726,748,778
en,348,698,803,752,849
en,349,401,863,744,924
en,350,729,859,739,875
en,351,725,772,697,836
en,352,702,788,876,946
en,353,744,863,724,917
en,354,430,745,782,929
en,355,585,811,872,874
en,356,442,778,726,846
en,357,12,813,728,917
en,358,422,725,590,915
en,359,227,743,842,942
en,360,733,810,700,894
en,361,264,881,766,944
en,362,21,761,860,879
en,363,826,857,703,880
en,364,649,740,681,779
en,365,774,845,702,901
en,366,187,188,89,733
en,367,567,818,721,923
en,368,705,786,862,949
en,369,191,763,731,853
en,370,80,164,163,907
en,371,585,872,592,874
en,372,731,787,732,856
en,373,730,536,885,920
en,374,359,753,77,926
en,375,712,820,789,840
en,376,717,872,811,874
en,377,702,876,801,946
en,378,484,805,485,825
en,379,725,835,590,846
en,380,756,702,854,870
en,381,46,743,227,942
en,382,731,843,853,939
en,383,783,861,195,884
en,384,421,836,725,915
en,385,14,816,777,833
en,386,645,644,684,790
en,387,21,751,22,879
en,388,177,783,718,895
en,389,18,814,841,888
en,390,760,763,706,792
en,391,457,727,933,940
en,392,631,566,627,723
en,393,730,738,708,904
en,394,757,793,755,839
en,395,712,696,772,914
en,396,180,861,761,888
en,397,457,933,790,940
en,398,264,766,765,944
en,399,667,634,591,638
en,400,215,817,216,827
en,401,447,730,406,920
en,402,384,791,728,924
en,403,730,764,738,904
en,404,269,774,267,845
en,405,188,193,189,733
en,406,502,599,487,803
en,407,710,797,719,852
en,408,693,792,711,820
en,409,181,70,252,743
en,410,732,832,791,897
en,411,201,163,335,800
en,412,444,749,614,806
en,413,747,756,337,870
en,414,282,105,756,870
en,415,442,573,778,846
en,416,269,301,837,845
en,417,843,853,715,926
en,418,730,708,764,904
en,419,702,756,774,823
en,420,216,171,758,817
en,421,645,644,790,865
en,422,216,817,758,827
en,423,698,851,739,875
en,424,703,759,723,799
en,425,696,712,772,820
en,426,818,887,721,942
en,427,405,724,515,750
en,428,701,710,765,766
en,429,163,800,201,907
en,430,457,595,727,874
en,431,721,720,784,923
en,432,404,750,433,925
en,433,180,814,18,888
en,434,700,830,771,918
en,435,102,747,337,870
en,436,205,853,843,926
en,437,474,851,805,890
en,438,265,769,766,881
en,439,740,779,703,848
en,440,704,827,817,905
en,441,509,848,822,857
en,442,771,797,712,830
en,443,722,694,766,927
en,444,702,823,774,900
en,445,397,737,529,834
en,446,190,731,174,787
en,447,576,762,855,892
en,448,723,779,547,880
en,449,337,756,747,780
en,450,227,842,784,942
en,451,255,776,209,809
en,452,717,925,828,929
en,453,716,785,699,838
en,454,487,502,742,805
en,455,341,230,763,788
en,456,738,764,730,839
en,457,171,758,733,869
en,458,341,230,788,912
en,459,430,811,749,828
en,460,167,777,732,856
en,461,402,744,401,863
en,462,728,863,744,917
en,463,752,849,786,922
en,464,705,762,773,807
en,465,47,743,75,796
en,466,700,712,797,830
en,467,182,64,714,844
en,468,765,766,710,944
en,469,147,780,154,858
en,470,447,406,841,920
en,471,694,788,763,946
en,472,524,749,523,806
en,473,9,784,10,813
en,474,421,772,836,885
en,475,6,721,477,887
en,476,388,836,730,885
en,477,96,777,44,897
en,478,348,123,815,868
en,479,484,583,485,805
en,480,708,738,730,882
en,481,718,751,704,798
en,482,712,789,696,914
en,483,814,885,536,920
en,484,450,813,917,951
en,485,716,823,709,910
en,486,729,775,705,949
en,487,473,726,778,913
en,488,146,736,50,907
en,489,697,725,836,839
en,490,707,743,784,842
en,491,716,709,823,847
en,492,701,712,797,891
en,493,763,230,804,912
en,494,694,760,722,792
en,495,486,484,485,825
en,496,722,766,701,877
en,497,696,772,755,820
en,498,770,854,702,870
en,499,162,201,80,163
en,500,695,725,793,839
en,501,517,923,567,936
en,502,11,720,115,832
en,503,695,762,773,950
en,504,293,845,753,854
en,505,693,748,734,792
en,506,458,727,595,874
en,507,129,252,70,743
en,508,700,869,830,918
en,509,703,826,752,857
en,510,382,732,787,948
en,511,790,806,591,893
en,512,298,844,714,928
en,513,700,810,776,894
en,514,752,698,849,922
en,515,720,115,832,909
en,516,195,229,783,884
en,517,558,737,724,863
en,518,396,768,744,862
en,519,693,792,754,891
en,520,47,235,75,743
en,521,191,731,190,843
en,522,660,657,638,893
en,523,502,487,742,803
en,524,704,751,718,789
en,525,27,28,741,771
en,526,767,832,115,909
en,527,254,259,175,161
en,528,713,748,734,793
en,529,744,863,728,924
en,530,591,790,524,806
en,531,66,200,182,714
en,532,746,788,702,946
en,533,706,734,748,792
en,534,111,99,853,926
en,535,755,820,772,896
en,536,695,773,762,807
en,537,716,699,785,930
en,538,247,319,770,815
en,539,702,788,746,901
en,540,47,75,236,796
en,541,611,533,621,745
en,542,516,923,863,948
en,543,387,728,574,924
en,544,282,283,105,870
en,545,641,740,723,799
en,546,552,834,813,951
en,547,53,878,871,945
en,548,576,855,781,892
en,549,547,723,546,779
en,550,566,723,631,873
en,551,621,745,604,782
en,552,700,797,771,830
en,553,188,189,89,733
en,554,721,923,850,936
en,555,746,774,702,901
en,556,744,713,773,950
en,557,430,782,811,929
en,558,750,786,717,925
en,559,119,765,118,866
en,560,289,774,288,953
en,561,58,771,101,918
en,562,458,794,727,874
en,563,747,823,709,847
en,564,681,740,649,873
en,565,165,731,191,763
en,566,248,881,316,944
en,567,293,287,845,854
en,568,766,769,265,927
en,569,422,421,25,725
en,570,733,824,716,894
en,571,798,895,213,953
en,572,547,686,548,723
en,573,700,824,712,830
en,574,513,782,636,806
en,575,27,100,28,771
en,576,681,740,510,779
en,577,756,780,337,837
en,578,65,732,767,787
en,579,509,510,508,779
en,580,631,723,669,873
en,581,716,128,930,931
en,582,490,865,689,935
en,583,686,647,723,865
en,584,393,724,558,834
en,585,96,65,732,832
en,586,244,204,719,944
en,587,11,115,720,909
en,588,407,883,406,941
en,589,217,328,277,751
en,590,289,746,125,901
en,591,712,692,789,824
en,592,726,778,741,846
en,593,595,458,457,727
en,594,546,723,643,873
en,595,688,676,528,740
en,596,229,804,230,912
en,597,363,785,356,858
en,598,716,894,128,931
en,599,720,832,728,948
en,600,575,762,576,892
en,601,701,765,797,866
en,602,12,813,11,832
en,603,694,766,769,932
en,604,404,433,501,925
en,605,200,182,714,800
en,606,760,878,769,927
en,607,463,803,752,822
en,608,770,823,709,870
en,609,737,784,720,923
en,610,112,853,753,901
en,611,179,315,783,912
en,612,753,853,788,901
en,613,770,709,823,852
en,614,154,780,155,858
en,615,744,768,713,950
en,616,138,146,736,796
en,617,177,895,718,953
en,618,337,102,347,747
en,619,235,47,75,236
en,620,247,770,248,815
en,621,696,751,718,895
en,622,693,755,793,896
en,623,27,835,741,846
en,624,722,760,706,792
en,625,384,516,728,948
en,626,618,806,569,893
en,627,547,686,723,880
en,628,593,739,795,805
en,629,244,719,815,944
en,630,698,742,851,890
en,631,788,912,711,946
en,632,170,736,146,907
en,633,694,769,766,927
en,634,706,760,731,763
en,635,693,722,748,792
en,636,558,393,515,724
en,637,716,838,823,910
en,638,384,791,732,948
en,639,650,649,779,873
en,640,697,757,755,839
en,641,697,730,885,920
en,642,117,765,766,877
en,643,741,830,712,835
en,644,697,885,814,920
en,645,776,809,255,918
en,646,21,261,751,860
en,647,65,174,732,787
en,648,65,767,732,832
en,649,688,680,676,740
en,650,565,647,683,865
en,651,702,774,756,845
en,652,568,569,446,893
en,653,32,877,722,921
en,654,720,11,813,832
en,655,724,515,750,929
en,656,765,809,797,866
en,657,441,741,573,846
en,658,368,812,170,907
en,659,503,739,795,859
en,660,705,750,744,862
en,661,298,928,714,934
en,662,823,838,692,910
en,663,584,782,456,811
en,664,35,151,731,878
en,665,96,167,44,777
en,666,779,857,619,880
en,667,700,824,776,910
en,668,289,288,177,953
en,669,502,803,739,875
en,670,718,751,696,789
en,671,76,796,743,864
en,672,112,788,853,901
en,673,470,826,471,880
en,674,182,175,64,844
en,675,539,406,829,941
en,676,510,779,509,857
en,677,619,857,470,880
en,678,66,200,714,831
en,679,787,867,714,928
en,680,707,818,743,889
en,681,102,347,747,903
en,682,733,810,87,869
en,683,496,822,752,857
en,684,11,10,720,813
en,685,236,75,235,345
en,686,289,125,267,901
en,687,696,718,783,895
en,688,706,748,722,792
en,689,549,829,730,882
en,690,510,681,508,740
en,691,474,805,742,890
en,692,529,9,530,813
en,693,77,753,99,926
en,694,744,768,396,924
en,695,70,181,235,743
en,696,730,839,764,841
en,697,781,855,762,892
en,698,614,749,595,790
en,699,163,80,162,164
en,700,43,777,734,833
en,701,308,735,342,854
en,702,725,695,781,839
en,703,634,526,635,806
en,704,444,584,614,749
en,705,714,200,800,831
en,706,191,843,205,853
en,707,117,118,765,877
en,708,577,762,729,855
en,709,27,590,835,846
en,710,138,146,170,736
en,711,700,733,824,869
en,712,764,807,408,908
en,713,764,408,807,883
en,714,611,570,533,745
en,715,209,348,204,719
en,716,761,772,696,879
en,717,442,473,726,778
en,718,71,837,780,898
en,719,408,908,807,943
en,720,387,384,728,924
en,721,565,683,627,865
en,722,346,886,753,926
en,723,680,688,658,825
en,724,794,808,717,874
en,725,190,263,843,844
en,726,548,686,647,723
en,727,818,887,743,889
en,728,574,728,516,863
en,729,518,850,923,936
en,730,729,708,859,904
en,731,871,878,715,945
en,732,201,162,335,163
en,733,558,724,571,863
en,734,790,933,759,940
en,735,282,845,287,854
en,736,697,814,761,888
en,737,688,528,658,825
en,738,188,343,250,817
en,739,684,893,657,935
en,740,405,404,402,750
en,741,531,430,745,782
en,742,698,775,729,849
en,743,181,75,235,743
en,744,707,720,867,909
en,745,414,828,922,925
en,746,729,904,859,911
en,747,414,416,752,828
en,748,726,693,748,793
en,749,781,855,494,915
en,750,707,784,720,909
en,751,767,867,787,948
en,752,9,10,784,909
en,753,174,167,732,856
en,754,102,747,870,903
en,755,722,748,706,821
en,756,422,25,590,725
en,757,99,753,112,853
en,758,9,8,784,938
en,759,128,847,716,930
en,760,571,724,402,863
en,761,727,794,458,890
en,762,798,858,699,898
en,763,712,696,789,820
en,764,293,272,753,845
en,765,763,788,230,912
en,766,762,695,892,950
en,767,697,839,730,841
en,768,101,869,281,918
en,769,695,762,855,904
en,770,702,876,788,901
en,771,784,923,737,938
en,772,723,759,703,880
en,773,35,381,760,899
en,774,718,798,704,838
en,775,876,932,801,946
en,776,741,771,701,891
en,777,17,841,454,888
en,778,391,558,737,834
en,779,618,591,806,893
en,780,706,760,722,821
en,781,18,841,17,888
en,782,636,782,623,806
en,783,704,789,718,838
en,784,623,636,615,782
en,785,154,147,155,780
en,786,496,752,495,857
en,787,702,801,876,932
en,788,859,904,708,911
en,789,590,725,846,915
en,790,692,838,824,910
en,791,608,609,475,805
en,792,722,778,748,921
en,793,715,853,843,939
en,794,586,592,808,874
en,795,704,716,824,838
en,796,531,745,430,929
en,797,457,727,458,933
en,798,731,878,843,939
en,799,309,32,877,927
en,800,734,748,693,793
en,801,160,204,765,809
en,802,722,760,694,927
en,803,356,217,798,905
en,804,696,711,783,840
en,805,591,618,667,893
en,806,627,683,625,865
en,807,209,348,719,868
en,808,590,725,25,835
en,809,643,723,566,873
en,810,697,836,730,839
en,811,121,815,123,868
en,812,701,797,771,866
en,813,181,252,203,743
en,814,28,741,771,919
en,815,769,871,54,878
en,816,713,748,793,950
en,817,605,849,803,875
en,818,382,787,431,948
en,819,247,318,248,770
en,820,169,146,50,907
en,821,6,938,721,942
en,822,716,704,824,931
en,823,703,727,826,933
en,824,680,678,740,825
en,825,859,875,729,911
en,826,556,908,408,943
en,827,129,203,252,743
en,828,9,529,8,938
en,829,704,785,716,838
en,830,720,813,728,832
en,831,703,826,759,933
en,832,161,335,163,800
en,833,588,739,593,805
en,834,35,787,899,947
en,835,328,751,217,905
en,836,696,783,718,840
en,837,715,853,753,926
en,838,47,45,743,796
en,839,724,917,813,951
en,840,719,776,209,868
en,841,415,828,925,929
en,842,726,892,695,950
en,843,696,820,711,840
en,844,756,837,295,845
en,845,762,892,768,950
en,846,552,813,450,951
en,847,724,750,802,951
en,848,96,832,732,897
en,849,748,906,821,921
en,850,747,756,699,780
en,851,716,824,838,910
en,852,170,812,322,907
en,853,618,569,568,893
en,854,705,775,729,807
en,855,444,456,584,782
en,856,289,267,269,774
en,857,707,796,743,842
en,858,478,412,423,885
en,859,64,65,66,787
en,860,701,797,754,891
en,861,696,718,789,840
en,862,695,807,762,904
en,863,704,798,751,905
en,864,773,816,14,833
en,865,726,748,913,950
en,866,265,766,264,881
en,867,222,817,215,905
en,868,573,741,441,919
en,869,147,154,148,858
en,870,677,740,676,873
en,871,786,849,698,922
en,872,797,809,771,866
en,873,708,729,883,904
en,874,713,897,791,924
en,875,588,795,739,941
en,876,776,824,716,910
en,877,660,667,618,893
en,878,557,640,586,808
en,879,360,379,373,361
en,880,64,787,714,844
en,881,731,853,763,939
en,882,21,329,22,751
en,883,695,757,833,908
en,884,415,430,828,929
en,885,301,270,837,845
en,886,758,824,733,869
en,887,488,759,489,865
en,888,610,579,829,920
en,889,588,739,883,941
en,890,177,179,315,783
en,891,695,762,781,855
en,892,716,709,847,910
en,893,163,164,185,907
en,894,695,833,773,908
en,895,631,627,669,723
en,896,334,318,342,735
en,897,702,801,823,900
en,898,70,235,47,743
en,899,787,867,431,948
en,900,759,826,727,933
en,901,300,50,736,907
en,902,618,591,639,806
en,903,693,741,778,891
en,904,697,841,814,888
en,905,720,832,767,909
en,906,775,807,408,883
en,907,693,754,792,820
en,908,421,389,772,885
en,909,36,867,787,928
en,910,623,617,636,806
en,911,697,772,761,885
en,912,789,879,696,914
en,913,515,405,558,724
en,914,256,733,171,817
en,915,64,66,182,714
en,916,719,776,700,809
en,917,700,824,758,869
en,918,457,759,790,933
en,919,724,929,750,951
en,920,48,49,50,796
en,921,641,675,740,799
en,922,49,736,50,796
en,923,85,833,734,937
en,924,649,681,510,779
en,925,577,576,762,855
en,926,720,728,813,863
en,927,740,703,799,848
en,928,706,777,732,791
en,929,255,209,156,809
en,930,734,713,793,833
en,931,768,913,748,950
en,932,709,815,770,870
en,933,342,318,247,770
en,934,489,511,641,799
en,935,732,777,706,856
en,936,213,277,95,895
en,937,779,703,848,857
en,938,71,780,69,898
en,939,11,116,115,909
en,940,745,834,560,951
en,941,686,723,646,865
en,942,396,744,403,862
en,943,470,495,630,857
en,944,746,702,801,946
en,945,588,593,739,795
en,946,295,282,756,845
en,947,48,796,76,864
en,948,702,774,746,900
en,949,703,916,727,933
en,950,702,854,770,932
en,951,119,117,118,765
en,952,711,792,754,820
en,953,512,636,513,782
en,954,623,617,615,636
en,955,457,614,595,790
en,956,24,772,389,885
en,957,706,763,731,856
en,958,731,760,706,899
en,959,264,117,765,766
en,960,723,779,740,873
en,961,770,854,735,932
en,962,325,736,349,831
en,963,258,847,776,894
en,964,170,327,736,907
en,965,716,847,128,894
en,966,742,805,476,825
en,967,668,665,663,935
en,968,625,683,490,865
en,969,75,181,76,743
en,970,699,774,838,953
en,971,53,54,871,878
en,972,695,773,833,950
en,973,702,735,854,932
en,974,724,745,929,951
en,975,477,721,6,938
en,976,756,699,780,837
en,977,707,743,796,864
en,978,255,810,776,918
en,979,283,770,103,870
en,980,646,723,686,880
en,981,165,763,166,856
en,982,650,546,643,873
en,983,729,762,577,949
en,984,723,740,641,873
en,985,693,755,734,793
en,986,695,726,781,892
en,987,340,229,230,912
en,988,388,390,549,730
en,989,146,50,736,796
en,990,518,850,737,923
en,991,736,796,49,864
en,992,179,783,229,912
en,993,87,733,88,810
en,994,187,89,256,733
en,995,346,271,77,753
en,996,700,776,719,910
en,997,521,737,545,850
en,998,793,833,713,950
en,999,697,730,836,885
en,1000,727,703,826,916
en,1001,315,125,289,746
en,1002,109,858,780,930
en,1003,665,660,663,935
en,1004,585,584,456,811
en,1005,306,365,147,780
en,1006,749,782,523,806
en,1007,707,714,819,934
en,1008,472,726,473,913
en,1009,726,913,768,950
en,1010,714,707,819,867
en,1011,615,621,616,782
en,1012,701,771,741,919
en,1013,762,729,855,904
en,1014,765,719,797,809
en,1015,713,777,791,897
en,1016,788,853,753,876
en,1017,383,821,906,921
en,1018,430,782,749,811
en,1019,770,801,702,932
en,1020,744,750,705,802
en,1021,764,883,807,904
en,1022,414,922,786,925
en,1023,503,795,739,805
en,1024,549,555,730,829
en,1025,297,298,800,934
en,1026,524,749,790,940
en,1027,429,721,850,936
en,1028,518,923,517,936
en,1029,713,816,777,897
en,1030,9,784,226,909
en,1031,766,881,769,932
en,1032,668,657,665,935
en,1033,762,807,729,904
en,1034,738,730,836,839
en,1035,282,287,283,854
en,1036,277,751,93,895
en,1037,730,697,841,920
en,1038,657,893,661,935
en,1039,354,769,878,927
en,1040,66,767,106,831
en,1041,335,162,201,224
en,1042,574,863,401,924
en,1043,402,558,405,724
en,1044,705,773,744,802
en,1045,696,879,772,914
en,1046,169,812,368,907
en,1047,169,170,146,907
en,1048,561,577,729,855
en,1049,465,742,799,890
en,1050,48,49,796,864
en,1051,559,782,745,811
en,1052,675,740,799,825
en,1053,416,826,752,828
en,1054,135,264,117,765
en,1055,767,787,732,948
en,1056,318,735,196,881
en,1057,555,602,730,829
en,1058,791,821,748,906
en,1059,584,595,749,874
en,1060,669,723,641,873
en,1061,751,798,718,895
en,1062,707,784,743,942
en,1063,489,488,511,759
en,1064,76,75,743,796
en,1065,724,802,917,951
en,1066,456,584,445,444
en,1067,739,803,698,875
en,1068,712,820,754,891
en,1069,714,707,831,934
en,1070,429,477,721,887
en,1071,22,827,329,905
en,1072,695,833,757,950
en,1073,549,520,829,882
en,1074,599,822,544,848
en,1075,530,397,529,834
en,1076,341,763,243,788
en,1077,512,615,636,782
en,1078,334,342,308,735
en,1079,322,812,330,907
en,1080,748,726,793,950
en,1081,772,879,761,885
en,1082,411,879,772,885
en,1083,621,533,603,745
en,1084,694,932,876,946
en,1085,546,547,548,723
en,1086,463,803,605,849
en,1087,689,490,683,865
en,1088,699,838,798,953
en,1089,727,890,458,933
en,1090,630,752,416,826
en,1091,444,584,445,614
en,1092,293,753,292,854
en,1093,496,463,752,822
en,1094,408,764,406,883
en,1095,424,814,536,920
en,1096,435,729,875,911
en,1097,719,765,710,944
en,1098,665,657,660,935
en,1099,604,745,559,782
en,1100,22,751,329,827
en,1101,195,783,132,861
en,1102,275,733,251,894
en,1103,190,787,64,844
en,1104,57,771,58,918
en,1105,550,850,518,936
en,1106,783,860,132,861
en,1107,695,781,738,855
en,1108,726,725,781,846
en,1109,604,621,603,745
en,1110,435,855,729,911
en,1111,477,850,721,938
en,1112,843,844,140,947
en,1113,753,886,715,926
en,1114,729,698,849,875
en,1115,138,170,327,736
en,1116,250,193,188,733
en,1117,334,735,333,871
en,1118,450,813,553,917
en,1119,333,735,308,886
en,1120,251,275,193,733
en,1121,150,121,868,903
en,1122,716,824,733,931
en,1123,100,101,771,830
en,1124,55,887,743,942
en,1125,88,733,275,810
en,1126,151,35,731,947
en,1127,484,486,672,825
en,1128,382,787,732,899
en,1129,807,883,729,904
en,1130,613,530,813,834
en,1131,401,744,396,924
en,1132,704,716,785,931
en,1133,457,759,488,790
en,1134,729,807,775,883
en,1135,712,824,758,830
en,1136,483,902,882,911
en,1137,164,184,185,812
en,1138,10,226,116,909
en,1139,247,120,319,815
en,1140,258,776,847,868
en,1141,736,831,707,934
en,1142,574,728,863,924
en,1143,109,107,108,747
en,1144,178,783,177,895
en,1145,707,714,831,867
en,1146,700,719,797,910
en,1147,563,561,577,729
en,1148,757,764,695,839
en,1149,738,781,695,839
en,1150,729,577,849,949
en,1151,571,558,402,724
en,1152,42,777,167,856
en,1153,558,571,737,863
en,1154,34,878,760,927
en,1155,695,781,762,892
en,1156,47,236,45,796
en,1157,522,737,521,850
en,1158,771,809,157,866
en,1159,577,576,575,762
en,1160,454,841,453,888
en,1161,748,906,768,950
en,1162,643,546,548,723
en,1163,736,707,864,934
en,1164,17,180,18,888
en,1165,213,895,95,953
en,1166,291,292,753,854
en,1167,171,172,173,869
en,1168,33,722,32,927
en,1169,301,270,269,837
en,1170,329,827,751,905
en,1171,488,511,759,933
en,1172,136,765,204,944
en,1173,792,804,734,884
en,1174,744,773,713,816
en,1175,112,753,113,901
en,1176,791,897,728,924
en,1177,577,563,729,849
en,1178,214,149,148,858
en,1179,318,334,196,735
en,1180,728,832,12,897
en,1181,748,778,726,913
en,1182,320,342,770,854
en,1183,27,590,26,835
en,1184,713,768,744,924
en,1185,753,853,715,876
en,1186,503,739,502,805
en,1187,384,732,791,899
en,1188,391,393,558,834
en,1189,712,772,820,896
en,1190,697,836,772,885
en,1191,605,563,849,875
en,1192,325,349,200,831
en,1193,777,804,706,856
en,1194,724,813,737,834
en,1195,694,760,763,939
en,1196,571,737,863,923
en,1197,442,846,726,892
en,1198,71,147,69,780
en,1199,781,839,738,915
en,1200,645,689,865,935
en,1201,263,191,190,843
en,1202,453,841,757,888
en,1203,381,821,760,899
en,1204,453,757,841,908
en,1205,109,780,747,930
en,1206,735,881,770,932
en,1207,713,816,897,924
en,1208,725,839,781,915
en,1209,588,739,851,883
en,1210,686,646,647,865
en,1211,503,795,482,859
en,1212,715,843,878,939
en,1213,355,363,356,858
en,1214,695,839,764,904
en,1215,420,836,738,882
en,1216,420,738,836,915
en,1217,306,305,780,837
en,1218,717,727,794,874
en,1219,14,773,452,816
en,1220,570,745,393,834
en,1221,43,734,85,833
en,1222,490,467,865,935
en,1223,256,171,216,817
en,1224,509,822,629,857
en,1225,710,801,770,932
en,1226,518,571,737,850
en,1227,767,867,720,909
en,1228,770,801,710,852
en,1229,700,758,824,830
en,1230,703,779,723,880
en,1231,32,722,33,921
en,1232,360,361,373,952
en,1233,428,850,550,936
en,1234,683,647,689,865
en,1235,518,737,571,923
en,1236,283,854,770,870
en,1237,279,785,363,858
en,1238,749,811,717,828
en,1239,52,54,769,871
en,1240,719,700,797,809
en,1241,35,899,731,947
en,1242,756,774,699,898
en,1243,543,529,737,938
en,1244,53,152,878,945
en,1245,363,785,352,817
en,1246,251,894,733,931
en,1247,256,343,187,817
en,1248,695,764,757,908
en,1249,41,930,128,931
en,1250,483,859,902,911
en,1251,531,612,430,782
en,1252,695,757,793,950
en,1253,669,627,641,723
en,1254,463,462,496,752
en,1255,677,676,673,873
en,1256,244,348,123,815
en,1257,68,774,837,898
en,1258,746,783,711,840
en,1259,787,928,844,947
en,1260,442,573,473,778
en,1261,442,507,443,892
en,1262,106,767,115,909
en,1263,459,457,458,933
en,1264,388,390,730,836
en,1265,96,98,65,832
en,1266,57,809,771,918
en,1267,237,213,95,953
en,1268,165,174,731,856
en,1269,642,496,462,752
en,1270,478,423,761,885
en,1271,717,794,727,922
en,1272,216,171,173,758
en,1273,330,736,327,907
en,1274,293,273,271,753
en,1275,325,736,831,842
en,1276,770,881,710,932
en,1277,699,756,747,823
en,1278,764,839,757,841
en,1279,57,157,771,809
en,1280,729,705,807,949
en,1281,727,717,828,874
en,1282,643,548,566,723
en,1283,165,191,166,763
en,1284,373,326,379,360
en,1285,261,761,262,860
en,1286,99,113,112,753
en,1287,510,509,554,857
en,1288,738,695,855,904
en,1289,731,899,787,947
en,1290,181,252,70,235
en,1291,738,764,839,904
en,1292,565,627,683,581
en,1293,734,777,85,804
en,1294,734,792,706,804
en,1295,718,783,746,840
en,1296,349,800,736,907
en,1297,706,791,732,899
en,1298,12,553,813,917
en,1299,21,261,329,751
en,1300,608,795,505,805
en,1301,756,699,837,898
en,1302,579,730,602,829
en,1303,757,833,793,950
en,1304,13,897,816,917
en,1305,545,737,571,850
en,1306,21,761,261,860
en,1307,383,821,791,906
en,1308,701,766,765,877
en,1309,262,261,21,761
en,1310,652,636,617,806
en,1311,174,167,65,732
en,1312,349,199,200,800
en,1313,446,569,444,806
en,1314,536,388,549,730
en,1315,768,906,748,913
en,1316,484,672,527,825
en,1317,121,120,123,815
en,1318,172,733,87,869
en,1319,333,871,735,886
en,1320,341,230,243,763
en,1321,711,783,746,912
en,1322,788,876,753,901
en,1323,465,742,476,799
en,1324,164,80,184,812
en,1325,248,316,246,944
en,1326,560,834,552,951
en,1327,421,836,389,885
en,1328,12,728,897,917
en,1329,591,526,634,806
en,1330,749,811,584,874
en,1331,706,777,734,804
en,1332,435,729,563,875
en,1333,215,222,216,817
en,1334,287,293,292,854
en,1335,752,822,703,857
en,1336,702,753,735,876
en,1337,762,768,394,862
en,1338,160,809,765,866
en,1339,98,767,65,832
en,1340,85,734,43,777
en,1341,169,368,170,907
en,1342,106,831,767,909
en,1343,272,273,293,753
en,1344,488,759,457,933
en,1345,458,597,794,874
en,1346,562,855,738,915
en,1347,793,833,757,937
en,1348,774,718,838,953
en,1349,694,760,769,927
en,1350,318,316,248,881
en,1351,734,833,793,937
en,1352,234,233,871,945
en,1353,105,337,756,870
en,1354,58,101,56,918
en,1355,35,787,382,899
en,1356,105,102,337,870
en,1357,543,529,397,737
en,1358,212,195,861,884
en,1359,291,292,293,753
en,1360,796,842,707,864
en,1361,423,814,761,885
en,1362,776,847,716,894
en,1363,317,871,769,881
en,1364,502,739,436,875
en,1365,176,175,259,844
en,1366,42,85,777,804
en,1367,177,241,895,953
en,1368,14,777,43,833
en,1369,755,793,757,937
en,1370,472,442,473,726
en,1371,308,735,854,886
en,1372,474,476,742,805
en,1373,728,897,816,924
en,1374,88,189,193,733
en,1375,701,765,866,877
en,1376,735,753,702,854
en,1377,408,807,775,943
en,1378,675,528,740,825
en,1379,732,791,777,897
en,1380,755,757,697,888
en,1381,265,317,769,881
en,1382,827,879,789,914
en,1383,97,832,96,897
en,1384,714,787,767,867
en,1385,751,860,93,895
en,1386,190,165,174,731
en,1387,726,768,892,950
en,1388,70,55,129,743
en,1389,180,761,19,814
en,1390,109,40,858,930
en,1391,149,898,798,953
en,1392,753,845,702,854
en,1393,748,791,706,821
en,1394,588,593,474,805
en,1395,549,730,390,882
en,1396,300,736,218,907
en,1397,552,613,813,834
en,1398,475,476,805,825
en,1399,733,817,250,931
en,1400,429,887,721,936
en,1401,487,486,485,825
en,1402,750,929,872,951
en,1403,564,779,619,880
en,1404,731,763,760,939
en,1405,726,695,793,950
en,1406,487,485,805,825
en,1407,563,729,849,875
en,1408,98,115,767,832
en,1409,202,758,173,869
en,1410,212,884,861,937
en,1411,738,839,695,904
en,1412,208,860,761,861
en,1413,175,182,201,800
en,1414,560,604,603,745
en,1415,699,798,785,858
en,1416,196,735,871,881
en,1417,727,828,717,922
en,1418,32,31,877,921
en,1419,397,391,737,834
en,1420,340,179,229,912
en,1421,759,826,666,940
en,1422,319,320,770,870
en,1423,561,729,435,855
en,1424,759,865,646,880
en,1425,64,190,174,787
en,1426,423,412,814,885
en,1427,861,888,211,937
en,1428,699,774,823,838
en,1429,26,192,27,835
en,1430,718,895,798,953
en,1431,411,772,24,885
en,1432,712,789,758,824
en,1433,142,844,141,928
en,1434,627,625,490,865
en,1435,452,773,14,833
en,1436,86,281,869,918
en,1437,64,174,65,787
en,1438,275,810,733,894
en,1439,729,807,762,949
en,1440,693,754,820,891
en,1441,836,839,725,915
en,1442,489,723,627,865
en,1443,829,882,520,902
en,1444,86,869,810,918
en,1445,755,697,861,888
en,1446,602,730,579,920
en,1447,513,514,782,806
en,1448,9,226,10,909
en,1449,325,324,736,842
en,1450,365,155,147,780
en,1451,334,196,735,871
en,1452,141,844,197,928
en,1453,255,92,810,918
en,1454,540,850,428,936
en,1455,723,646,865,880
en,1456,604,616,621,782
en,1457,111,78,99,926
en,1458,816,897,728,917
en,1459,269,267,301,845
en,1460,258,128,847,894
en,1461,700,809,776,918
en,1462,721,923,784,938
en,1463,229,220,804,884
en,1464,429,850,540,936
en,1465,421,389,24,772
en,1466,706,792,763,804
en,1467,62,184,80,952
en,1468,103,283,320,770
en,1469,44,167,42,777
en,1470,108,107,358,747
en,1471,501,786,491,949
en,1472,96,65,167,732
en,1473,734,777,713,833
en,1474,531,393,745,929
en,1475,431,787,36,867
en,1476,573,441,29,919
en,1477,171,733,172,869
en,1478,751,696,860,895
en,1479,778,913,748,921
en,1480,761,879,478,885
en,1481,543,737,522,938
en,1482,715,769,735,876
en,1483,454,17,448,841
en,1484,831,867,767,909
en,1485,756,837,774,898
en,1486,309,32,223,877
en,1487,406,764,500,841
en,1488,333,308,291,886
en,1489,536,730,602,920
en,1490,84,15,85,937
en,1491,477,429,721,850
en,1492,708,883,764,904
en,1493,703,759,799,933
en,1494,471,470,630,826
en,1495,558,545,521,737
en,1496,707,867,831,909
en,1497,88,193,275,733
en,1498,732,787,731,899
en,1499,736,800,218,907
en,1500,269,68,774,837
en,1501,738,839,836,915
en,1502,76,743,114,889
en,1503,291,854,753,886
en,1504,277,213,217,798
en,1505,780,858,699,930
en,1506,562,494,855,915
en,1507,723,865,759,880
en,1508,300,169,50,907
en,1509,89,171,256,733
en,1510,766,877,722,927
en,1511,511,675,641,799
en,1512,704,758,789,824
en,1513,197,844,298,928
en,1514,747,780,699,930
en,1515,527,670,484,609
en,1516,400,773,802,816
en,1517,477,6,620,938
en,1518,184,812,80,952
en,1519,785,798,699,838
en,1520,170,322,330,907
en,1521,107,747,109,780
en,1522,35,760,34,878
en,1523,309,877,766,927
en,1524,823,838,774,900
en,1525,750,872,802,951
en,1526,710,881,766,932
en,1527,562,738,432,915
en,1528,191,263,205,843
en,1529,560,745,603,834
en,1530,659,650,649,779
en,1531,403,396,401,744
en,1532,666,826,759,880
en,1533,719,815,710,852
en,1534,218,736,864,934
en,1535,565,566,627,581
en,1536,404,405,433,750
en,1537,755,734,793,937
en,1538,487,805,742,825
en,1539,699,774,756,823
en,1540,15,833,85,937
en,1541,586,585,592,874
en,1542,465,474,742,890
en,1543,325,324,330,736
en,1544,694,792,754,946
en,1545,195,229,179,783
en,1546,748,713,791,906
en,1547,735,769,715,871
en,1548,306,780,71,837
en,1549,356,214,355,858
en,1550,501,413,862,949
en,1551,360,812,361,952
en,1552,704,798,785,838
en,1553,641,627,489,723
en,1554,191,165,190,731
en,1555,85,734,804,884
en,1556,730,829,579,920
en,1557,387,791,384,924
en,1558,719,710,815,944
en,1559,587,420,738,882
en,1560,416,497,414,752
en,1561,294,837,270,845
en,1562,613,530,9,813
en,1563,18,814,448,841
en,1564,596,472,768,892
en,1565,166,763,804,856
en,1566,697,761,861,888
en,1567,487,825,742,848
en,1568,615,616,623,782
en,1569,731,878,151,947
en,1570,698,890,794,922
en,1571,562,738,855,911
en,1572,680,658,678,825
en,1573,411,478,879,885
en,1574,727,794,890,922
en,1575,18,448,17,841
en,1576,218,800,736,934
en,1577,814,841,697,920
en,1578,731,856,732,899
en,1579,732,856,706,899
en,1580,768,906,396,924
en,1581,225,812,80,907
en,1582,692,789,838,900
en,1583,731,706,856,899
en,1584,13,12,897,917
en,1585,484,672,670,527
en,1586,762,807,705,949
en,1587,716,868,776,910
en,1588,335,201,253,224
en,1589,783,860,696,895
en,1590,101,830,183,869
en,1591,644,790,759,940
en,1592,771,797,700,809
en,1593,698,752,803,916
en,1594,346,359,302,926
en,1595,131,132,860,861
en,1596,720,813,737,863
en,1597,435,561,563,729
en,1598,294,295,837,845
en,1599,547,646,686,880
en,1600,552,553,450,813
en,1601,124,125,746,901
en,1602,208,761,180,861
en,1603,469,619,470,880
en,1604,830,835,202,914
en,1605,423,20,761,814
en,1606,446,444,614,806
en,1607,349,736,330,907
en,1608,641,740,677,873
en,1609,49,300,50,736
en,1610,562,600,494,915
en,1611,748,713,906,950
en,1612,6,887,5,942
en,1613,283,103,105,870
en,1614,218,736,49,864
en,1615,768,892,472,913
en,1616,775,808,557,943
en,1617,250,251,733,931
en,1618,160,204,136,765
en,1619,129,134,203,743
en,1620,100,192,101,830
en,1621,711,804,792,884
en,1622,771,866,59,919
en,1623,698,803,742,916
en,1624,202,758,830,914
en,1625,5,743,55,887
en,1626,705,802,750,808
en,1627,308,854,291,886
en,1628,698,916,890,922
en,1629,582,902,795,941
en,1630,543,397,522,737
en,1631,178,177,231,895
en,1632,110,847,747,903
en,1633,702,746,801,900
en,1634,214,356,217,798
en,1635,800,831,736,934
en,1636,744,802,773,816
en,1637,562,587,738,911
en,1638,745,872,929,951
en,1639,305,337,362,780
en,1640,472,395,768,913
en,1641,320,308,342,854
en,1642,247,248,249,815
en,1643,890,916,727,922
en,1644,753,876,715,886
en,1645,442,443,846,892
en,1646,715,871,769,878
en,1647,109,280,780,858
en,1648,522,391,521,737
en,1649,567,535,818,867
en,1650,25,421,24,772
en,1651,627,625,683,581
en,1652,325,330,349,736
en,1653,360,373,326,952
en,1654,300,49,218,736
en,1655,778,877,31,921
en,1656,346,302,886,926
en,1657,124,901,746,912
en,1658,383,906,386,921
en,1659,47,45,46,743
en,1660,436,739,503,859
en,1661,28,771,59,919
en,1662,503,436,502,739
en,1663,700,810,733,869
en,1664,392,570,393,834
en,1665,111,853,205,926
en,1666,272,293,273,271
en,1667,661,657,660,893
en,1668,384,382,732,899
en,1669,306,147,71,780
en,1670,368,322,170,812
en,1671,264,265,117,766
en,1672,258,847,290,868
en,1673,411,24,772,879
en,1674,720,863,737,923
en,1675,562,587,432,738
en,1676,394,598,762,862
en,1677,328,329,751,905
en,1678,599,544,487,848
en,1679,694,876,788,946
en,1680,692,840,789,900
en,1681,632,566,631,873
en,1682,702,876,735,932
en,1683,646,759,644,865
en,1684,512,611,621,782
en,1685,571,863,574,923
en,1686,644,759,666,940
en,1687,778,891,741,919
en,1688,88,89,189,733
en,1689,760,821,33,927
en,1690,882,902,708,911
en,1691,718,774,838,900
en,1692,716,847,776,868
en,1693,587,882,738,911
en,1694,191,243,763,853
en,1695,193,250,251,733
en,1696,432,738,420,915
en,1697,59,771,157,866
en,1698,815,852,719,868
en,1699,587,420,432,738
en,1700,473,778,398,913
en,1701,390,730,836,882
en,1702,709,870,747,903
en,1703,119,118,194,866
en,1704,248,246,815,944
en,1705,822,848,703,857
en,1706,523,749,430,782
en,1707,843,878,152,945
en,1708,701,741,891,919
en,1709,755,693,820,896
en,1710,477,620,850,938
en,1711,30,778,573,919
en,1712,595,614,584,749
en,1713,293,271,346,753
en,1714,200,199,182,800
en,1715,722,877,778,921
en,1716,684,790,591,893
en,1717,435,875,859,911
en,1718,517,550,518,936
en,1719,99,112,111,853
en,1720,545,558,571,737
en,1721,692,801,823,852
en,1722,93,751,261,860
en,1723,180,17,861,888
en,1724,758,830,700,869
en,1725,676,740,679,873
en,1726,77,99,78,926
en,1727,313,831,106,909
en,1728,456,782,559,811
en,1729,420,390,836,882
en,1730,87,172,89,733
en,1731,89,88,87,733
en,1732,333,334,308,735
en,1733,751,789,704,827
en,1734,98,115,106,767
en,1735,59,866,219,919
en,1736,117,766,223,877
en,1737,313,106,115,909
en,1738,512,612,611,782
en,1739,676,680,678,740
en,1740,722,821,33,921
en,1741,716,847,868,910
en,1742,773,833,452,908
en,1743,709,868,847,910
en,1744,559,745,622,811
en,1745,230,166,763,804
en,1746,156,255,809,918
en,1747,644,666,759,880
en,1748,678,658,672,825
en,1749,564,547,779,880
en,1750,22,751,827,879
en,1751,357,365,306,780
en,1752,557,586,592,808
en,1753,483,859,607,902
en,1754,823,852,709,910
en,1755,697,757,839,841
en,1756,169,185,812,907
en,1757,400,452,773,816
en,1758,293,287,272,845
en,1759,787,36,928,947
en,1760,170,330,327,907
en,1761,699,858,780,898
en,1762,717,808,750,872
en,1763,478,761,21,879
en,1764,382,384,732,948
en,1765,859,708,902,911
en,1766,36,787,35,947
en,1767,785,930,39,931
en,1768,727,916,826,922
en,1769,474,476,465,742
en,1770,585,584,811,874
en,1771,407,406,409,941
en,1772,231,177,241,895
en,1773,465,890,799,933
en,1774,438,619,779,857
en,1775,532,822,496,857
en,1776,175,176,259,254
en,1777,119,160,765,866
en,1778,826,916,752,922
en,1779,505,795,583,805
en,1780,692,801,754,840
en,1781,669,641,677,873
en,1782,695,807,764,908
en,1783,295,756,337,837
en,1784,320,342,247,770
en,1785,52,769,317,871
en,1786,57,157,59,771
en,1787,704,824,789,838
en,1788,531,515,393,929
en,1789,317,196,871,881
en,1790,347,145,108,747
en,1791,774,699,898,953
en,1792,736,842,796,864
en,1793,764,841,757,908
en,1794,695,793,757,839
en,1795,712,758,789,914
en,1796,698,742,890,916
en,1797,58,100,101,771
en,1798,722,33,821,927
en,1799,201,800,199,907
en,1800,229,220,230,804
en,1801,668,665,657,656
en,1802,493,576,781,892
en,1803,714,844,787,928
en,1804,53,54,52,871
en,1805,34,35,381,760
en,1806,737,850,522,938
en,1807,483,481,882,902
en,1808,754,792,711,946
en,1809,177,178,179,783
en,1810,124,788,901,912
en,1811,354,878,34,927
en,1812,644,524,790,940
en,1813,746,774,718,900
en,1814,497,416,630,752
en,1815,202,830,758,869
en,1816,494,781,576,855
en,1817,717,811,749,874
en,1818,51,48,76,864
en,1819,134,743,5,887
en,1820,5,887,55,942
en,1821,109,40,280,858
en,1822,453,841,500,908
en,1823,513,514,512,782
en,1824,319,320,247,770
en,1825,451,745,560,951
en,1826,325,831,313,842
en,1827,271,273,77,753
en,1828,469,470,471,880
en,1829,168,166,804,856
en,1830,633,458,794,890
en,1831,88,275,90,810
en,1832,358,337,747,780
en,1833,718,838,789,900
en,1834,234,871,886,945
en,1835,603,745,533,834
en,1836,210,743,203,887
en,1837,720,867,767,948
en,1838,718,789,840,900
en,1839,76,114,51,889
en,1840,474,475,476,805
en,1841,212,861,211,937
en,1842,719,868,852,910
en,1843,621,615,512,782
en,1844,129,55,5,743
en,1845,737,813,724,863
en,1846,829,902,582,941
en,1847,531,393,570,745
en,1848,384,791,382,899
en,1849,298,297,928,934
en,1850,844,928,142,947
en,1851,95,277,93,895
en,1852,264,765,135,944
en,1853,890,916,799,933
en,1854,330,812,225,907
en,1855,206,205,843,926
en,1856,702,845,753,901
en,1857,524,525,749,940
en,1858,679,676,678,740
en,1859,67,898,149,953
en,1860,789,824,692,838
en,1861,566,631,627,581
en,1862,717,872,750,929
en,1863,712,741,835,896
en,1864,216,827,758,914
en,1865,637,639,635,806
en,1866,749,828,717,874
en,1867,93,860,94,895
en,1868,208,131,860,861
en,1869,799,890,742,916
en,1870,695,773,807,908
en,1871,161,297,298,800
en,1872,499,496,495,857
en,1873,714,831,800,934
en,1874,330,324,327,736
en,1875,803,822,742,916
en,1876,704,785,817,931
en,1877,593,795,608,805
en,1878,558,521,391,737
en,1879,495,497,630,752
en,1880,56,101,281,918
en,1881,360,378,379,361
en,1882,448,841,814,920
en,1883,127,847,128,930
en,1884,713,816,773,833
en,1885,694,769,760,939
en,1886,626,490,625,683
en,1887,320,103,770,870
en,1888,305,337,780,837
en,1889,736,707,842,864
en,1890,660,657,661,935
en,1891,731,760,878,939
en,1892,228,796,138,842
en,1893,247,249,120,815
en,1894,539,409,406,941
en,1895,22,329,221,905
en,1896,752,822,803,916
en,1897,358,747,107,780
en,1898,739,859,436,875
en,1899,320,770,283,854
en,1900,22,221,827,905
en,1901,172,171,89,733
en,1902,712,891,741,896
en,1903,481,520,882,902
en,1904,604,623,616,782
en,1905,757,498,833,908
en,1906,403,744,402,862
en,1907,623,652,617,806
en,1908,267,113,268,901
en,1909,402,401,571,863
en,1910,462,463,464,849
en,1911,142,140,844,947
en,1912,319,104,320,870
en,1913,65,106,66,767
en,1914,795,859,739,941
en,1915,798,838,718,953
en,1916,279,363,355,858
en,1917,347,358,337,747
en,1918,746,901,788,912
en,1919,124,125,315,746
en,1920,644,666,524,940
en,1921,276,776,258,868
en,1922,780,837,699,898
en,1923,500,764,408,908
en,1924,753,854,735,886
en,1925,423,412,424,814
en,1926,349,199,800,907
en,1927,352,817,785,931
en,1928,500,841,764,908
en,1929,591,524,523,806
en,1930,583,795,503,805
en,1931,744,816,728,917
en,1932,696,751,860,879
en,1933,752,828,826,922
en,1934,709,852,815,868
en,1935,93,277,328,751
en,1936,391,522,397,737
en,1937,411,24,389,885
en,1938,759,826,703,880
en,1939,129,5,134,743
en,1940,717,811,872,929
en,1941,209,776,276,868
en,1942,742,848,799,916
en,1943,704,789,758,827
en,1944,799,848,703,916
en,1945,38,128,41,930
en,1946,498,452,833,908
en,1947,90,86,88,810
en,1948,110,144,847,903
en,1949,354,265,769,927
en,1950,676,677,528,740
en,1951,549,520,555,829
en,1952,819,864,83,889
en,1953,12,553,11,813
en,1954,747,847,110,930
en,1955,538,582,795,941
en,1956,140,843,159,945
en,1957,509,544,822,848
en,1958,660,618,661,893
en,1959,164,80,62,184
en,1960,533,745,570,834
en,1961,30,866,877,919
en,1962,20,19,761,814
en,1963,537,829,582,941
en,1964,738,836,730,882
en,1965,861,884,755,937
en,1966,20,262,21,761
en,1967,140,843,260,844
en,1968,547,546,564,779
en,1969,644,759,646,880
en,1970,242,817,239,905
en,1971,11,115,98,832
en,1972,767,831,714,867
en,1973,336,330,322,812
en,1974,745,622,811,872
en,1975,24,835,772,914
en,1976,27,741,441,846
en,1977,5,429,4,887
en,1978,692,801,840,900
en,1979,400,14,452,816
en,1980,703,857,779,880
en,1981,632,643,566,873
en,1982,358,362,337,780
en,1983,476,799,742,825
en,1984,822,848,742,916
en,1985,293,346,291,753
en,1986,106,65,98,767
en,1987,640,794,597,874
en,1988,201,225,80,907
en,1989,478,21,22,879
en,1990,267,268,845,901
en,1991,208,262,19,761
en,1992,398,913,778,921
en,1993,649,510,659,779
en,1994,208,180,131,861
en,1995,491,462,492,849
en,1996,57,58,56,918
en,1997,28,441,27,741
en,1998,155,780,280,858
en,1999,709,852,868,910
en,2000,190,176,263,844
en,2001,707,743,864,889
en,2002,574,571,401,863
en,2003,296,197,298,928
en,2004,692,823,801,900
en,2005,334,333,198,871
en,2006,776,810,274,894
en,2007,296,141,197,928
en,2008,110,747,145,903
en,2009,696,789,820,840
en,2010,238,356,242,905
en,2011,30,219,866,919
en,2012,70,47,55,743
en,2013,523,782,514,806
en,2014,399,398,778,921
en,2015,194,30,219,866
en,2016,644,591,684,790
en,2017,15,43,85,833
en,2018,743,887,210,889
en,2019,751,827,704,905
en,2020,408,406,407,883
en,2021,798,898,699,953
en,2022,273,99,77,753
en,2023,771,809,700,918
en,2024,35,36,382,787
en,2025,465,458,890,933
en,2026,358,347,108,747
en,2027,694,763,788,939
en,2028,203,210,114,743
en,2029,622,872,745,951
en,2030,560,559,604,745
en,2031,206,926,843,945
en,2032,802,808,417,872
en,2033,645,893,684,935
en,2034,557,408,775,943
en,2035,60,871,233,945
en,2036,707,831,736,842
en,2037,728,813,863,917
en,2038,281,101,183,869
en,2039,738,855,781,915
en,2040,87,88,86,810
en,2041,692,852,823,910
en,2042,41,39,930,931
en,2043,598,762,862,949
en,2044,316,881,264,944
en,2045,42,168,85,804
en,2046,202,207,758,914
en,2047,295,294,282,845
en,2048,16,211,888,937
en,2049,309,223,766,877
en,2050,385,383,386,921
en,2051,527,658,528,825
en,2052,263,260,843,844
en,2053,750,808,802,872
en,2054,703,799,916,933
en,2055,657,665,660,656
en,2056,87,810,86,869
en,2057,583,505,628,795
en,2058,626,683,687,935
en,2059,561,576,577,855
en,2060,18,180,19,814
en,2061,641,675,528,740
en,2062,483,882,587,911
en,2063,802,816,744,917
en,2064,758,827,789,914
en,2065,157,809,160,866
en,2066,406,500,455,841
en,2067,89,189,188,187
en,2068,781,846,443,892
en,2069,482,859,795,902
en,2070,295,282,105,756
en,2071,702,753,876,901
en,2072,773,802,705,943
en,2073,243,166,191,763
en,2074,35,34,151,878
en,2075,291,753,346,886
en,2076,493,575,576,892
en,2077,588,594,795,941
en,2078,76,181,114,743
en,2079,134,203,743,887
en,2080,24,25,772,835
en,2081,262,761,208,860
en,2082,27,624,590,846
en,2083,712,835,830,914
en,2084,460,814,424,920
en,2085,230,168,166,804
en,2086,40,785,858,930
en,2087,471,826,666,880
en,2088,749,525,828,940
en,2089,727,826,759,940
en,2090,308,292,291,854
en,2091,556,500,408,908
en,2092,693,741,891,896
en,2093,712,835,772,896
en,2094,624,846,781,915
en,2095,843,926,715,945
en,2096,207,202,835,914
en,2097,675,799,476,825
en,2098,429,540,428,936
en,2099,104,133,870,903
en,2100,430,749,525,828
en,2101,696,860,783,861
en,2102,715,878,843,945
en,2103,698,775,794,851
en,2104,351,270,301,845
en,2105,97,12,832,897
en,2106,488,490,467,865
en,2107,275,257,91,810
en,2108,673,676,679,873
en,2109,119,186,160,866
en,2110,481,519,483,882
en,2111,385,821,383,921
en,2112,414,416,828,925
en,2113,713,906,768,924
en,2114,347,145,747,903
en,2115,460,424,536,920
en,2116,30,877,778,919
en,2117,706,804,763,856
en,2118,257,274,91,810
en,2119,290,144,150,903
en,2120,142,197,141,844
en,2121,243,788,763,853
en,2122,674,508,740,848
en,2123,54,53,152,878
en,2124,68,288,774,898
en,2125,404,501,413,862
en,2126,127,128,38,930
en,2127,333,234,871,886
en,2128,505,609,484,671
en,2129,260,843,140,945
en,2130,360,323,361,812
en,2131,244,136,204,944
en,2132,442,441,573,846
en,2133,826,828,727,922
en,2134,557,556,408,943
en,2135,726,472,892,913
en,2136,85,804,220,884
en,2137,577,762,598,949
en,2138,108,145,110,747
en,2139,447,406,455,841
en,2140,239,817,222,905
en,2141,764,807,695,904
en,2142,337,295,105,756
en,2143,487,503,502,805
en,2144,66,106,200,831
en,2145,440,438,439,857
en,2146,515,925,750,929
en,2147,114,743,210,889
en,2148,730,829,708,882
en,2149,173,202,207,758
en,2150,249,248,246,815
en,2151,714,867,819,928
en,2152,400,417,802,943
en,2153,218,800,163,907
en,2154,524,591,644,790
en,2155,499,532,496,857
en,2156,30,473,573,778
en,2157,395,906,768,913
en,2158,438,779,439,857
en,2159,709,770,815,852
en,2160,424,814,412,885
en,2161,757,841,697,888
en,2162,169,185,184,812
en,2163,59,219,29,919
en,2164,397,392,391,834
en,2165,772,835,712,914
en,2166,727,759,933,940
en,2167,152,159,843,945
en,2168,613,9,10,813
en,2169,802,418,917,951
en,2170,703,848,822,916
en,2171,711,820,754,840
en,2172,700,776,810,918
en,2173,405,515,433,750
en,2174,710,815,770,852
en,2175,729,855,904,911
en,2176,735,715,876,886
en,2177,708,738,882,911
en,2178,317,265,264,881
en,2179,658,527,672,825
en,2180,62,370,184,952
en,2181,624,590,846,915
en,2182,97,98,96,832
en,2183,613,552,560,834
en,2184,803,849,698,875
en,2185,715,769,876,939
en,2186,13,816,419,917
en,2187,242,363,352,817
en,2188,411,23,24,879
en,2189,21,478,423,761
en,2190,481,520,519,882
en,2191,93,328,261,751
en,2192,708,904,738,911
en,2193,772,879,24,914
en,2194,509,544,629,822
en,2195,313,842,831,909
en,2196,518,571,574,923
en,2197,237,67,149,953
en,2198,211,212,195,861
en,2199,597,633,458,794
en,2200,195,132,211,861
en,2201,538,537,582,941
en,2202,457,488,479,790
en,2203,480,583,628,795
en,2204,353,86,810,918
en,2205,735,871,715,886
en,2206,724,834,745,951
en,2207,357,306,305,780
en,2208,606,803,463,822
en,2209,433,750,515,925
en,2210,659,662,650,779
en,2211,791,821,383,899
en,2212,567,431,535,867
en,2213,209,123,348,868
en,2214,415,828,416,925
en,2215,74,818,1,819
en,2216,360,284,812,952
en,2217,41,128,894,931
en,2218,93,261,94,860
en,2219,40,39,785,930
en,2220,180,208,19,761
en,2221,85,220,84,884
en,2222,290,847,144,903
en,2223,623,782,444,806
en,2224,588,883,407,941
en,2225,234,886,302,926
en,2226,124,746,315,912
en,2227,181,203,114,743
en,2228,469,564,619,880
en,2229,31,399,778,921
en,2230,257,274,810,894
en,2231,488,457,459,933
en,2232,127,110,847,930
en,2233,725,772,835,896
en,2234,309,223,117,766
en,2235,712,830,758,914
en,2236,318,196,316,881
en,2237,795,902,859,941
en,2238,577,575,598,762
en,2239,706,821,791,899
en,2240,861,755,888,937
en,2241,498,452,14,833
en,2242,748,821,722,921
en,2243,637,618,639,806
en,2244,382,36,431,787
en,2245,456,559,622,811
en,2246,182,199,201,800
en,2247,309,766,265,927
en,2248,40,785,279,858
en,2249,245,135,765,944
en,2250,276,258,290,868
en,2251,403,401,402,744
en,2252,22,221,215,827
en,2253,288,269,68,774
en,2254,577,464,563,849
en,2255,546,650,662,779
en,2256,108,110,109,747
en,2257,680,678,658,672
en,2258,622,745,451,951
en,2259,458,595,597,874
en,2260,226,784,842,909
en,2261,109,747,110,930
en,2262,13,419,12,917
en,2263,117,119,135,765
en,2264,52,317,196,871
en,2265,6,5,55,942
en,2266,502,437,803,875
en,2267,748,913,906,921
en,2268,622,585,456,811
en,2269,524,525,523,749
en,2270,298,297,296,928
en,2271,238,217,356,905
en,2272,198,333,234,871
en,2273,73,83,864,889
en,2274,539,829,537,941
en,2275,294,295,270,837
en,2276,350,284,286,812
en,2277,763,853,788,939
en,2278,696,860,761,879
en,2279,735,876,769,932
en,2280,769,876,694,932
en,2281,679,740,681,873
en,2282,716,733,894,931
en,2283,328,240,329,905
en,2284,102,133,347,903
en,2285,641,528,677,740
en,2286,784,938,8,942
en,2287,232,234,302,926
en,2288,717,750,925,929
en,2289,192,183,101,830
en,2290,760,821,706,899
en,2291,423,425,20,814
en,2292,518,545,571,850
en,2293,386,906,913,921
en,2294,520,601,829,902
en,2295,474,633,851,890
en,2296,818,819,74,889
en,2297,512,514,612,782
en,2298,453,757,16,888
en,2299,15,757,498,833
en,2300,840,900,801,946
en,2301,754,840,801,946
en,2302,42,167,168,856
en,2303,724,863,813,917
en,2304,80,162,331,224
en,2305,381,34,760,821
en,2306,400,802,418,917
en,2307,130,132,783,860
en,2308,728,816,744,924
en,2309,744,816,713,924
en,2310,484,583,505,671
en,2311,19,262,20,761
en,2312,104,122,133,903
en,2313,700,797,824,910
en,2314,255,276,209,776
en,2315,37,867,36,928
en,2316,752,826,703,916
en,2317,24,207,835,914
en,2318,503,583,482,795
en,2319,154,155,153,858
en,2320,498,757,453,908
en,2321,398,31,399,778
en,2322,216,758,207,914
en,2323,434,607,483,859
en,2324,582,504,795,902
en,2325,694,876,769,939
en,2326,818,887,2,936
en,2327,157,160,186,866
en,2328,91,274,92,810
en,2329,204,160,156,809
en,2330,26,590,25,835
en,2331,130,783,178,895
en,2332,644,646,666,880
en,2333,53,871,60,945
en,2334,745,872,811,929
en,2335,726,846,781,892
en,2336,23,827,216,914
en,2337,761,814,697,885
en,2338,614,790,479,893
en,2339,493,576,494,781
en,2340,694,788,876,939
en,2341,482,436,503,859
en,2342,680,678,679,676
en,2343,391,392,393,834
en,2344,28,59,29,919
en,2345,55,47,46,743
en,2346,322,368,323,812
en,2347,535,818,534,936
en,2348,400,816,802,917
en,2349,354,769,54,878
en,2350,325,313,312,842
en,2351,155,280,153,858
en,2352,185,218,163,907
en,2353,50,278,48,796
en,2354,396,768,395,906
en,2355,130,860,783,895
en,2356,36,142,928,947
en,2357,40,39,279,785
en,2358,775,807,705,943
en,2359,260,206,843,945
en,2360,626,467,490,935
en,2361,221,215,827,905
en,2362,261,328,329,751
en,2363,496,532,463,822
en,2364,58,57,59,771
en,2365,404,403,402,862
en,2366,451,559,560,745
en,2367,472,473,398,913
en,2368,580,851,775,883
en,2369,336,225,330,812
en,2370,580,794,775,851
en,2371,142,843,140,947
en,2372,382,791,383,899
en,2373,674,740,825,848
en,2374,599,803,606,822
en,2375,258,128,127,847
en,2376,338,343,256,817
en,2377,592,417,808,872
en,2378,76,48,75,796
en,2379,775,705,808,943
en,2380,495,470,651,857
en,2381,328,217,240,905
en,2382,320,104,103,870
en,2383,352,785,39,931
en,2384,492,849,577,949
en,2385,214,217,213,798
en,2386,102,870,133,903
en,2387,707,819,864,934
en,2388,11,98,12,832
en,2389,150,122,121,903
en,2390,365,357,155,780
en,2391,341,340,230,912
en,2392,233,198,234,871
en,2393,55,743,46,942
en,2394,418,802,417,872
en,2395,311,60,233,945
en,2396,151,878,843,947
en,2397,430,612,514,782
en,2398,731,843,878,947
en,2399,31,778,30,877
en,2400,82,928,297,934
en,2401,52,54,354,769
en,2402,722,821,760,927
en,2403,16,212,211,937
en,2404,703,822,752,916
en,2405,483,519,587,882
en,2406,699,858,785,930
en,2407,20,21,423,761
en,2408,34,760,33,927
en,2409,414,786,501,925
en,2410,708,882,829,902
en,2411,33,760,34,821
en,2412,769,871,735,881
en,2413,370,164,62,184
en,2414,197,142,140,844
en,2415,265,317,354,769
en,2416,146,278,50,796
en,2417,554,509,629,857
en,2418,477,540,429,850
en,2419,705,807,773,943
en,2420,467,466,893,935
en,2421,716,930,785,931
en,2422,732,832,767,948
en,2423,674,740,678,825
en,2424,383,821,381,899
en,2425,111,205,78,926
en,2426,698,752,916,922
en,2427,784,707,842,909
en,2428,582,829,601,902
en,2429,482,607,859,902
en,2430,506,538,582,795
en,2431,206,205,263,843
en,2432,266,150,121,868
en,2433,97,12,98,832
en,2434,132,178,130,783
en,2435,717,922,828,925
en,2436,275,257,810,894
en,2437,185,300,218,907
en,2438,495,496,497,752
en,2439,675,476,528,825
en,2440,711,746,840,946
en,2441,718,840,746,900
en,2442,853,876,788,939
en,2443,629,822,532,857
en,2444,538,539,537,941
en,2445,619,564,438,779
en,2446,650,648,649,873
en,2447,299,140,159,945
en,2448,523,430,514,782
en,2449,567,923,516,948
en,2450,577,492,464,849
en,2451,580,775,408,883
en,2452,159,152,53,945
en,2453,594,538,795,941
en,2454,746,801,900,946
en,2455,250,817,352,931
en,2456,213,149,214,798
en,2457,726,892,768,913
en,2458,533,570,392,834
en,2459,309,117,265,766
en,2460,288,289,269,774
en,2461,37,819,867,928
en,2462,110,145,144,903
en,2463,312,842,313,909
en,2464,370,62,164,369
en,2465,400,452,417,943
en,2466,376,379,326,360
en,2467,414,415,416,925
en,2468,465,459,458,933
en,2469,482,483,607,902
en,2470,15,757,833,937
en,2471,450,917,418,951
en,2472,4,887,429,936
en,2473,626,625,682,683
en,2474,713,833,773,950
en,2475,221,222,215,905
en,2476,513,636,635,806
en,2477,249,123,120,815
en,2478,142,141,197,140
en,2479,107,109,280,780
en,2480,242,239,238,905
en,2481,755,884,734,937
en,2482,234,232,233,945
en,2483,139,796,228,842
en,2484,159,140,152,843
en,2485,746,900,840,946
en,2486,769,878,760,939
en,2487,715,878,769,939
en,2488,561,494,576,855
en,2489,588,851,407,883
en,2490,151,152,843,878
en,2491,273,113,99,753
en,2492,705,862,762,949
en,2493,63,350,286,812
en,2494,768,906,713,950
en,2495,543,8,529,938
en,2496,74,819,72,889
en,2497,351,294,270,845
en,2498,134,210,203,887
en,2499,156,158,255,918
en,2500,243,230,166,763
en,2501,177,288,241,953
en,2502,560,603,613,834
en,2503,152,151,843,947
en,2504,776,868,719,910
en,2505,496,642,497,752
en,2506,363,279,352,785
en,2507,110,144,127,847
en,2508,112,788,243,853
en,2509,43,44,777,897
en,2510,449,448,814,920
en,2511,646,644,645,865
en,2512,400,418,419,917
en,2513,453,498,15,757
en,2514,681,649,648,873
en,2515,797,719,852,910
en,2516,624,443,781,846
en,2517,31,32,399,921
en,2518,522,850,620,938
en,2519,692,824,797,910
en,2520,222,256,216,817
en,2521,637,635,636,806
en,2522,127,38,110,930
en,2523,354,54,34,878
en,2524,275,91,90,810
en,2525,747,847,709,903
en,2526,245,135,136,765
en,2527,38,41,39,930
en,2528,309,33,32,927
en,2529,674,825,487,848
en,2530,774,898,288,953
en,2531,588,594,593,795
en,2532,131,211,132,861
en,2533,28,100,58,771
en,2534,23,24,879,914
en,2535,284,63,812,952
en,2536,112,124,341,788
en,2537,1,818,37,819
en,2538,761,860,696,861
en,2539,781,846,725,915
en,2540,534,818,2,936
en,2541,82,819,928,934
en,2542,604,559,623,782
en,2543,325,312,324,842
en,2544,378,360,323,361
en,2545,742,825,799,848
en,2546,201,199,225,907
en,2547,633,794,851,890
en,2548,176,64,175,844
en,2549,802,872,418,951
en,2550,408,500,406,764
en,2551,353,810,92,918
en,2552,191,205,111,853
en,2553,711,840,754,946
en,2554,249,244,123,815
en,2555,16,888,757,937
en,2556,246,316,264,944
en,2557,451,622,559,745
en,2558,692,797,852,910
en,2559,216,173,207,758
en,2560,245,765,136,944
en,2561,554,440,439,857
en,2562,383,791,387,906
en,2563,411,412,478,885
en,2564,735,876,753,886
en,2565,517,516,567,923
en,2566,562,432,600,915
en,2567,698,851,794,890
en,2568,62,80,164,331
en,2569,87,86,281,869
en,2570,142,141,310,928
en,2571,37,819,818,867
en,2572,148,355,214,858
en,2573,672,658,670,527
en,2574,567,431,867,948
en,2575,666,826,525,940
en,2576,410,424,412,885
en,2577,32,33,385,921
en,2578,492,462,464,849
en,2579,740,799,825,848
en,2580,474,633,588,851
en,2581,737,923,850,938
en,2582,850,923,721,938
en,2583,470,619,651,857
en,2584,681,674,508,740
en,2585,2,887,818,889
en,2586,847,868,709,903
en,2587,562,855,435,911
en,2588,585,811,622,872
en,2589,454,453,16,888
en,2590,202,173,172,869
en,2591,398,473,31,778
en,2592,492,577,598,949
en,2593,266,290,150,868
en,2594,574,863,516,923
en,2595,826,828,525,940
en,2596,580,557,408,775
en,2597,7,938,6,942
en,2598,207,202,25,835
en,2599,460,536,602,920
en,2600,119,160,136,765
en,2601,51,73,864,889
en,2602,197,140,260,844
en,2603,83,218,864,934
en,2604,831,842,707,909
en,2605,20,425,19,814
en,2606,258,127,290,847
en,2607,117,223,118,877
en,2608,350,344,284,812
en,2609,535,37,818,867
en,2610,447,841,455,920
en,2611,568,661,618,893
en,2612,226,784,227,842
en,2613,715,886,871,945
en,2614,810,869,700,918
en,2615,626,687,685,935
en,2616,583,503,485,805
en,2617,589,601,582,829
en,2618,63,80,812,952
en,2619,23,216,207,914
en,2620,717,786,922,925
en,2621,485,503,487,805
en,2622,304,239,242,817
en,2623,30,31,473,778
en,2624,494,624,443,781
en,2625,720,767,832,948
en,2626,807,908,773,943
en,2627,493,781,443,892
en,2628,434,859,483,911
en,2629,640,597,586,874
en,2630,513,526,514,806
en,2631,555,579,602,829
en,2632,537,539,610,829
en,2633,83,864,819,934
en,2634,598,862,413,949
en,2635,41,894,251,931
en,2636,708,859,902,941
en,2637,456,444,623,782
en,2638,564,546,662,779
en,2639,802,808,705,943
en,2640,594,538,506,795
en,2641,296,297,82,928
en,2642,249,815,246,944
en,2643,112,341,243,788
en,2644,249,244,815,944
en,2645,218,49,83,864
en,2646,451,560,552,951
en,2647,773,908,452,943
en,2648,45,236,139,796
en,2649,509,508,544,848
en,2650,343,256,187,338
en,2651,276,255,274,776
en,2652,24,207,25,835
en,2653,260,140,299,945
en,2654,263,176,260,844
en,2655,417,808,802,943
en,2656,757,888,755,937
en,2657,438,651,619,857
en,2658,139,138,228,796
en,2659,82,83,819,934
en,2660,39,352,279,785
en,2661,63,286,284,812
en,2662,59,28,58,771
en,2663,502,436,437,875
en,2664,353,86,92,810
en,2665,401,387,574,924
en,2666,411,478,23,879
en,2667,437,605,803,875
en,2668,52,354,317,769
en,2669,471,666,469,880
en,2670,44,97,96,897
en,2671,7,8,938,942
en,2672,311,53,60,945
en,2673,32,31,223,877
en,2674,599,606,544,822
en,2675,16,453,15,757
en,2676,659,510,439,779
en,2677,376,378,379,360
en,2678,121,123,266,868
en,2679,673,631,669,873
en,2680,136,135,119,765
en,2681,370,62,367,952
en,2682,211,180,17,861
en,2683,430,523,525,749
en,2684,769,881,735,932
en,2685,450,419,418,917
en,2686,158,809,57,918
en,2687,712,820,891,896
en,2688,369,62,164,331
en,2689,407,580,408,883
en,2690,550,542,518,850
en,2691,37,321,819,928
en,2692,591,523,526,806
en,2693,37,431,36,867
en,2694,164,80,162,331
en,2695,624,27,441,846
en,2696,314,354,34,927
en,2697,373,380,326,952
en,2698,195,212,229,884
en,2699,587,519,420,882
en,2700,453,455,500,841
en,2701,419,816,400,917
en,2702,592,418,417,872
en,2703,746,711,912,946
en,2704,477,620,572,850
en,2705,23,215,216,827
en,2706,707,819,818,889
en,2707,276,274,258,776
en,2708,132,179,178,783
en,2709,455,841,448,920
en,2710,714,928,819,934
en,2711,701,866,771,919
en,2712,381,33,34,821
en,2713,518,516,517,923
en,2714,384,383,382,791
en,2715,690,673,679,873
en,2716,341,788,124,912
en,2717,360,326,284,952
en,2718,524,666,525,940
en,2719,382,383,381,899
en,2720,211,861,17,888
en,2721,438,440,651,857
en,2722,382,431,384,948
en,2723,623,444,652,806
en,2724,818,819,707,867
en,2725,304,222,239,817
en,2726,389,836,388,885
en,2727,532,606,463,822
en,2728,475,593,608,805
en,2729,308,320,283,854
en,2730,427,4,429,936
en,2731,77,271,346,359
en,2732,482,795,480,902
en,2733,385,33,821,921
en,2734,15,16,757,937
en,2735,479,467,466,893
en,2736,494,443,493,781
en,2737,633,794,580,851
en,2738,334,198,196,871
en,2739,465,799,511,933
en,2740,520,549,390,882
en,2741,449,448,18,814
en,2742,190,64,176,844
en,2743,73,74,72,889
en,2744,555,520,601,829
en,2745,209,266,123,868
en,2746,609,670,484,671
en,2747,7,620,6,938
en,2748,620,522,572,850
en,2749,629,532,554,857
en,2750,395,386,906,913
en,2751,721,938,784,942
en,2752,415,430,416,828
en,2753,226,842,312,909
en,2754,456,623,559,782
en,2755,227,139,228,842
en,2756,63,62,80,952
en,2757,662,659,439,779
en,2758,678,681,679,740
en,2759,371,369,164,331
en,2760,407,851,580,883
en,2761,663,660,661,935
en,2762,132,195,179,783
en,2763,156,809,158,918
en,2764,297,161,163,800
en,2765,460,461,814,920
en,2766,305,295,337,837
en,2767,721,887,818,936
en,2768,82,83,72,819
en,2769,707,864,819,889
en,2770,71,68,837,898
en,2771,564,469,547,880
en,2772,74,2,818,889
en,2773,245,264,135,944
en,2774,727,916,890,933
en,2775,387,396,906,924
en,2776,479,653,614,893
en,2777,10,552,613,813
en,2778,146,138,137,796
en,2779,303,926,206,945
en,2780,480,482,583,795
en,2781,305,362,357,780
en,2782,657,654,668,656
en,2783,283,287,292,854
en,2784,152,843,142,947
en,2785,284,285,63,952
en,2786,505,504,628,795
en,2787,1,534,535,818
en,2788,130,131,132,860
en,2789,67,288,898,953
en,2790,15,14,43,833
en,2791,361,368,169,812
en,2792,297,800,218,934
en,2793,679,648,690,873
en,2794,146,137,278,796
en,2795,352,250,343,817
en,2796,535,534,517,936
en,2797,373,379,326,375
en,2798,556,452,908,943
en,2799,588,407,409,941
en,2800,51,73,83,864
en,2801,791,906,713,924
en,2802,2,534,1,818
en,2803,449,814,461,920
en,2804,454,455,453,841
en,2805,164,370,369,371
en,2806,250,41,251,931
en,2807,30,573,29,919
en,2808,537,589,582,829
en,2809,186,119,194,866
en,2810,506,505,608,795
en,2811,420,390,421,836
en,2812,423,424,425,814
en,2813,260,299,206,945
en,2814,416,525,826,828
en,2815,142,152,140,843
en,2816,154,355,148,858
en,2817,387,906,791,924
en,2818,251,41,128,894
en,2819,126,210,2,889
en,2820,685,687,668,935
en,2821,344,360,284,812
en,2822,354,314,265,927
en,2823,537,610,579,829
en,2824,210,887,2,889
en,2825,562,561,435,855
en,2826,527,528,476,825
en,2827,221,239,222,905
en,2828,43,13,44,897
en,2829,465,458,633,890
en,2830,679,681,648,873
en,2831,313,325,200,831
en,2832,414,491,501,786
en,2833,506,582,504,795
en,2834,302,291,346,886
en,2835,94,261,262,860
en,2836,578,579,447,920
en,2837,220,168,230,804
en,2838,662,439,438,779
en,2839,506,608,593,795
en,2840,74,2,1,818
en,2841,637,636,652,806
en,2842,468,626,685,935
en,2843,144,290,127,847
en,2844,488,459,511,933
en,2845,3,2,887,936
en,2846,269,270,68,837
en,2847,561,562,494,855
en,2848,377,370,367,952
en,2849,681,678,674,740
en,2850,290,266,276,868
en,2851,256,222,338,817
en,2852,394,395,396,768
en,2853,669,677,673,873
en,2854,585,622,592,872
en,2855,255,158,92,918
en,2856,399,386,913,921
en,2857,386,396,395,906
en,2858,179,124,315,912
en,2859,249,246,244,944
en,2860,232,926,303,945
en,2861,266,209,276,868
en,2862,90,92,86,810
en,2863,419,13,400,816
en,2864,69,149,67,898
en,2865,475,527,476,825
en,2866,540,477,572,850
en,2867,483,587,434,911
en,2868,383,387,386,906
en,2869,465,476,511,799
en,2870,8,227,9,784
en,2871,51,114,73,889
en,2872,344,323,360,812
en,2873,660,657,656,655
en,2874,479,614,457,790
en,2875,674,487,544,848
en,2876,48,278,75,796
en,2877,692,838,823,900
en,2878,416,430,525,828
en,2879,535,431,37,867
en,2880,471,630,416,826
en,2881,339,82,81,928
en,2882,38,109,110,930
en,2883,314,309,265,927
en,2884,81,74,1,819
en,2885,701,877,866,919
en,2886,419,553,12,917
en,2887,25,202,26,835
en,2888,579,610,447,920
en,2889,588,580,407,851
en,2890,81,819,321,928
en,2891,186,59,157,866
en,2892,200,106,313,831
en,2893,437,599,502,803
en,2894,377,372,370,952
en,2895,715,926,886,945
en,2896,71,69,68,898
en,2897,42,85,43,777
en,2898,727,828,826,940
en,2899,687,626,682,683
en,2900,95,93,94,895
en,2901,154,153,355,858
en,2902,111,112,243,853
en,2903,220,85,168,804
en,2904,275,251,257,894
en,2905,218,297,163,800
en,2906,133,102,104,870
en,2907,399,913,398,921
en,2908,433,414,501,925
en,2909,582,601,504,902
en,2910,540,572,541,850
en,2911,580,597,640,794
en,2912,410,389,388,885
en,2913,554,532,499,857
en,2914,572,522,521,850
en,2915,82,819,81,928
en,2916,41,352,39,931
en,2917,693,891,820,896
en,2918,647,646,645,865
en,2919,161,335,162,163
en,2920,18,461,449,814
en,2921,598,413,492,949
en,2922,350,336,344,812
en,2923,387,401,396,924
en,2924,435,436,859,875
en,2925,57,158,157,809
en,2926,75,278,137,796
en,2927,284,326,285,952
en,2928,746,912,788,946
en,2929,301,267,268,845
en,2930,202,183,830,869
en,2931,597,580,633,794
en,2932,347,133,145,903
en,2933,137,139,236,796
en,2934,442,443,441,846
en,2935,384,387,383,791
en,2936,493,443,507,892
en,2937,10,553,552,813
en,2938,14,400,13,816
en,2939,463,606,605,803
en,2940,394,413,598,862
en,2941,420,519,390,882
en,2942,435,859,434,911
en,2943,344,322,323,812
en,2944,344,336,322,812
en,2945,415,531,430,929
en,2946,68,67,288,898
en,2947,555,601,589,829
en,2948,415,925,515,929
en,2949,304,338,222,817
en,2950,84,884,212,937
en,2951,202,172,183,869
en,2952,122,150,143,903
en,2953,380,373,326,375
en,2954,280,155,357,780
en,2955,233,60,198,871
en,2956,244,245,136,944
en,2957,562,435,434,911
en,2958,9,227,226,784
en,2959,661,893,466,935
en,2960,81,1,37,819
en,2961,23,879,827,914
en,2962,487,674,486,825
en,2963,432,420,422,915
en,2964,520,481,601,902
en,2965,564,662,438,779
en,2966,296,310,141,928
en,2967,60,53,52,871
en,2968,303,232,302,926
en,2969,240,221,329,905
en,2970,668,664,665,656
en,2971,138,139,137,796
en,2972,460,449,461,920
en,2973,316,317,264,881
en,2974,409,539,538,941
en,2975,41,250,352,931
en,2976,708,902,829,941
en,2977,73,114,126,889
en,2978,388,389,390,836
en,2979,660,657,655,638
en,2980,447,455,448,920
en,2981,131,180,211,861
en,2982,624,600,590,915
en,2983,22,827,23,879
en,2984,495,651,499,857
en,2985,417,557,592,808
en,2986,361,812,184,952
en,2987,685,668,663,935
en,2988,643,648,650,873
en,2989,715,876,853,939
en,2990,16,211,17,888
en,2991,316,196,317,881
en,2992,433,515,415,925
en,2993,738,904,855,911
en,2994,361,169,184,812
en,2995,372,380,373,952
en,2996,525,666,471,826
en,2997,16,84,212,937
en,2998,461,18,19,814
en,2999,461,19,425,814
en,3000,369,370,62,367
en,3001,632,631,673,873
en,3002,44,42,43,777
en,3003,434,436,607,859
en,3004,179,340,124,912
en,3005,37,1,535,818
en,3006,523,514,526,806
en,3007,37,321,81,819
en,3008,165,167,174,856
en,3009,36,142,310,928
en,3010,480,795,504,902
en,3011,143,144,145,903
en,3012,349,330,225,907
en,3013,338,304,343,817
en,3014,375,379,326,376
en,3015,460,425,424,814
en,3016,588,409,594,941
en,3017,544,606,629,822
en,3018,303,206,299,945
en,3019,153,280,40,858
en,3020,622,418,872,951
en,3021,526,513,635,806
en,3022,304,352,343,817
en,3023,151,36,35,947
en,3024,130,94,860,895
en,3025,589,579,555,829
en,3026,323,368,361,812
en,3027,114,210,126,889
en,3028,482,481,483,902
en,3029,377,367,366,952
en,3030,267,125,113,901
en,3031,521,541,572,850
en,3032,475,474,593,805
en,3033,689,647,645,865
en,3034,94,262,208,860
en,3035,143,145,133,903
en,3036,15,498,14,833
en,3037,48,51,49,864
en,3038,450,553,419,917
en,3039,685,663,468,935
en,3040,229,212,220,884
en,3041,540,541,542,850
en,3042,476,675,511,799
en,3043,82,297,83,934
en,3044,309,314,33,927
en,3045,361,184,373,952
en,3046,488,489,490,865
en,3047,242,352,304,817
en,3048,40,109,38,930
en,3049,397,533,392,834
en,3050,226,312,116,909
en,3051,674,544,508,848
en,3052,339,81,321,928
en,3053,469,646,547,880
en,3054,191,111,243,853
en,3055,102,103,104,870
en,3056,437,563,605,875
en,3057,589,537,579,829
en,3058,633,580,588,851
en,3059,116,312,313,909
en,3060,157,156,160,809
en,3061,46,8,7,942
en,3062,125,112,113,901
en,3063,40,38,39,930
en,3064,263,260,206,843
en,3065,665,663,664,668
en,3066,103,102,105,870
en,3067,437,605,606,803
en,3068,168,167,166,856
en,3069,593,594,506,795
en,3070,521,545,541,850
en,3071,417,418,400,802
en,3072,520,390,519,882
en,3073,574,516,518,923
en,3074,562,434,587,911
en,3075,217,238,240,905
en,3076,597,595,586,874
en,3077,399,385,386,921
en,3078,215,23,22,827
en,3079,534,2,426,936
en,3080,220,212,84,884
en,3081,231,241,95,895
en,3082,385,399,32,921
en,3083,517,551,550,936
en,3084,283,292,308,854
en,3085,282,294,287,845
en,3086,268,272,351,845
en,3087,416,525,471,826
en,3088,130,178,231,895
en,3089,143,150,144,903
en,3090,314,34,33,927
en,3091,83,297,218,934
en,3092,280,357,107,780
en,3093,307,295,305,837
en,3094,228,324,312,842
en,3095,461,425,460,814
en,3096,489,627,490,865
en,3097,12,97,13,897
en,3098,387,396,386,906
en,3099,335,332,162,224
en,3100,543,522,620,938
en,3101,482,607,436,859
en,3102,668,663,664,691
en,3103,451,552,450,951
en,3104,667,660,655,638
en,3105,118,31,30,877
en,3106,437,606,599,803
en,3107,291,302,234,886
en,3108,506,504,505,795
en,3109,30,29,219,919
en,3110,294,272,287,845
en,3111,364,350,344,284
en,3112,128,258,257,894
en,3113,382,381,35,899
en,3114,349,225,199,907
en,3115,603,530,613,834
en,3116,467,626,468,935
en,3117,245,246,264,944
en,3118,542,545,518,850
en,3119,40,279,153,858
en,3120,4,134,5,887
en,3121,578,449,460,920
en,3122,394,403,413,862
en,3123,628,504,480,795
en,3124,377,366,372,952
en,3125,183,87,281,869
en,3126,554,499,440,857
en,3127,81,82,72,819
en,3128,551,428,550,936
en,3129,11,553,10,813
en,3130,253,332,335,224
en,3131,364,286,350,284
en,3132,7,8,543,938
en,3133,493,596,575,892
en,3134,645,684,657,935
en,3135,399,386,398,913
en,3136,601,480,504,902
en,3137,92,90,91,810
en,3138,259,197,260,844
en,3139,158,353,92,918
en,3140,384,567,516,948
en,3141,128,257,251,894
en,3142,603,533,530,834
en,3143,668,689,645,935
en,3144,622,451,418,951
en,3145,233,232,311,945
en,3146,302,359,79,926
en,3147,383,385,33,821
en,3148,383,33,381,821
en,3149,240,238,239,905
en,3150,427,429,428,936
en,3151,355,153,279,858
en,3152,169,300,185,907
en,3153,435,437,436,875
en,3154,284,286,63,285
en,3155,685,663,668,691
en,3156,556,452,500,908
en,3157,131,130,208,860
en,3158,176,259,260,844
en,3159,3,426,2,936
en,3160,403,404,413,862
en,3161,234,333,291,886
en,3162,445,444,614,446
en,3163,646,469,666,880
en,3164,156,157,158,809
en,3165,350,225,336,812
en,3166,151,34,54,878
en,3167,596,507,472,892
en,3168,372,184,370,952
en,3169,542,541,545,850
en,3170,73,126,74,889
en,3171,449,447,448,920
en,3172,322,330,327,170
en,3173,13,97,44,897
en,3174,530,533,397,834
en,3175,653,479,466,893
en,3176,323,368,322,170
en,3177,262,20,21,261
en,3178,3,2,210,887
en,3179,130,95,94,895
en,3180,326,380,366,952
en,3181,418,592,622,872
en,3182,116,313,115,909
en,3183,390,389,421,836
en,3184,226,228,312,842
en,3185,691,668,685,687
en,3186,452,556,417,943
en,3187,594,409,538,941
en,3188,74,126,2,889
en,3189,629,606,532,822
en,3190,454,448,455,841
en,3191,122,143,133,903
en,3192,307,270,295,837
en,3193,311,159,53,945
en,3194,186,219,59,866
en,3195,16,17,454,888
en,3196,341,124,340,912
en,3197,347,358,108,145
en,3198,624,441,443,846
en,3199,80,225,63,812
en,3200,645,657,668,935
en,3201,498,453,500,908
en,3202,151,54,152,878
en,3203,653,466,661,893
en,3204,435,436,434,859
en,3205,60,196,198,871
en,3206,339,296,82,928
en,3207,656,657,654,655
en,3208,465,633,474,890
en,3209,270,307,71,837
en,3210,61,367,62,952
en,3211,166,167,165,856
en,3212,226,227,228,842
en,3213,83,49,51,864
en,3214,37,36,321,928
en,3215,56,158,57,918
en,3216,172,87,183,869
en,3217,499,651,440,857
en,3218,232,303,299,945
en,3219,60,52,196,871
en,3220,353,158,56,918
en,3221,202,183,192,830
en,3222,72,74,81,819
en,3223,245,244,246,944
en,3224,6,55,7,942
en,3225,231,95,130,895
en,3226,351,301,268,845
en,3227,467,468,466,935
en,3228,478,22,23,879
en,3229,270,71,68,837
en,3230,194,219,186,866
en,3231,366,285,326,952
en,3232,118,223,31,877
en,3233,350,63,225,812
en,3234,130,94,208,860
en,3235,7,55,46,942
en,3236,366,367,61,952
en,3237,643,632,648,873
en,3238,206,78,205,926
en,3239,303,302,79,926
en,3240,653,661,568,893
en,3241,664,668,654,656
en,3242,152,142,151,947
en,3243,584,585,586,874
en,3244,482,480,481,902
en,3245,437,435,563,875
en,3246,221,240,239,905
en,3247,36,310,321,928
en,3248,615,616,617,623
en,3249,663,685,664,691
en,3250,366,380,372,952
en,3251,459,465,511,933
en,3252,351,272,294,845
en,3253,67,68,69,898
en,3254,63,285,61,952
en,3255,339,310,296,928
en,3256,303,79,206,926
en,3257,584,586,595,874
en,3258,62,63,61,952
en,3259,596,493,507,892
en,3260,551,517,534,936
en,3261,569,652,444,806
en,3262,410,412,411,885
en,3263,601,481,480,902
en,3264,452,498,500,908
en,3265,371,164,162,331
en,3266,379,374,378,376
en,3267,366,61,285,952
en,3268,690,632,673,873
en,3269,151,142,36,947
en,3270,67,241,288,953
en,3271,625,682,683,581
en,3272,373,184,372,952
en,3273,422,590,432,915
en,3274,652,637,617,636
en,3275,339,321,310,928
en,3276,395,472,398,913
en,3277,690,648,632,873
en,3278,78,206,79,926
en,3279,663,661,468,935
en,3280,468,661,466,935
en,3281,418,451,450,951
en,3282,432,590,600,915
en,3283,433,415,414,925
en,3284,336,350,344,364
en,3285,620,7,543,938
en,3286,449,578,447,920
en,3287,67,237,241,953
en,3288,207,24,23,914
en,3289,232,299,311,945
en,3290,311,299,159,945
en,3291,431,567,384,948
en,3292,670,672,484,671
en,3293,395,398,386,913
en,3294,411,389,410,885
en,3295,374,379,375,376
en,3296,426,3,427,936
en,3297,527,658,670,609
en,3298,331,162,332,224
en,3299,531,415,515,929
en,3300,15,84,16,937
en,3301,426,551,534,936
en,3302,380,372,373,375
en,3303,447,829,920,610
en,3304,920,829,447,730
en,3305,862,950,744,773
en,3306,744,950,862,768
en,3307,790,874,595,457
en,3308,595,874,790,749
en,3309,785,905,798,704
en,3310,798,905,785,356
en,3311,844,182,800,714
en,3312,844,800,182,175
en,3313,877,891,919,701
en,3314,919,891,877,778
en,3315,723,565,548,566
en,3316,723,548,565,647
en,3317,488,893,467,479
en,3318,467,893,488,865
en,3319,834,929,393,515
en,3320,393,929,834,745
en,3321,782,570,531,612
en,3322,782,531,570,745
en,3323,858,147,69,148
en,3324,858,69,147,780
en,3325,808,786,750,705
en,3326,808,750,786,717
en,3327,822,803,848,599
en,3328,822,848,803,742
en,3329,487,848,803,599
en,3330,487,803,848,742
en,3331,804,42,856,777
en,3332,804,856,42,168
en,3333,885,424,536,410
en,3334,885,536,424,814
en,3335,253,161,254,175
en,3336,254,161,253,335
en,3337,175,800,253,161
en,3338,175,253,800,201
en,3339,335,253,800,161
en,3340,335,800,253,201
en,3341,784,818,942,707
en,3342,942,818,784,721
en,3343,825,688,740,680
en,3344,825,740,688,528
en,3345,912,884,783,229
en,3346,912,783,884,711
en,3347,874,640,808,586
en,3348,874,808,640,794
en,3349,402,862,750,404
en,3350,750,862,402,744
en,3351,809,209,204,719
en,3352,809,204,209,156
en,3353,529,834,813,530
en,3354,813,834,529,737
en,3355,858,69,149,148
en,3356,858,149,69,898
en,3357,870,702,823,756
en,3358,870,823,702,770
en,3359,824,776,894,700
en,3360,824,894,776,716
en,3361,75,236,137,345
en,3362,75,137,236,796
en,3363,567,936,535,517
en,3364,535,936,567,818
en,3365,808,640,775,557
en,3366,808,775,640,794
en,3367,580,775,640,557
en,3368,580,640,775,794
en,3369,909,11,10,720
en,3370,909,10,11,116
en,3371,805,825,527,475
en,3372,527,825,805,484
en,3373,527,609,805,475
en,3374,805,609,527,484
en,3375,907,164,812,80
en,3376,907,812,164,185
en,3377,806,446,893,614
en,3378,806,893,446,569
en,3379,505,805,609,608
en,3380,639,591,667,634
en,3381,667,591,639,618
en,3382,831,349,800,736
en,3383,831,800,349,200
en,3384,892,442,472,726
en,3385,892,472,442,507
en,3386,889,76,864,51
en,3387,889,864,76,743
en,3388,870,823,747,756
en,3389,870,747,823,709
en,3390,830,100,27,771
en,3391,830,27,100,192
en,3392,887,477,5,429
en,3393,887,5,477,6
en,3394,879,789,751,827
en,3395,879,751,789,696
en,3396,940,874,828,749
en,3397,940,828,874,727
en,3398,896,846,835,725
en,3399,896,835,846,741
en,3400,862,396,394,403
en,3401,862,394,396,768
en,3402,842,45,139,796
en,3403,842,139,45,227
en,3404,683,935,668,687
en,3405,668,935,683,689
en,3406,85,937,884,84
en,3407,884,937,85,734
en,3408,857,510,439,554
en,3409,857,439,510,779
en,3410,915,494,624,600
en,3411,915,624,494,781
en,3412,953,213,149,237
en,3413,953,149,213,798
en,3414,491,949,849,492
en,3415,849,949,491,786
en,3416,810,255,274,92
en,3417,810,274,255,776
en,3418,935,683,490,626
en,3419,935,490,683,689
en,3420,555,536,730,602
en,3421,730,536,555,549
en,3422,919,441,28,741
en,3423,919,28,441,29
en,3424,915,421,420,422
en,3425,915,420,421,836
en,3426,505,484,805,583
en,3427,505,805,484,609
en,3428,752,849,642,786
en,3429,752,642,849,462
en,3430,491,642,849,786
en,3431,491,849,642,462
en,3432,72,889,83,73
en,3433,83,889,72,819
en,3434,446,893,653,568
en,3435,653,893,446,614
en,3436,859,883,941,708
en,3437,941,883,859,739
en,3438,816,897,14,777
en,3439,816,14,897,13
en,3440,43,14,897,777
en,3441,43,897,14,13
en,3442,387,516,728,384
en,3443,728,516,387,574
en,3444,835,192,202,26
en,3445,835,202,192,830
en,3446,926,234,945,232
en,3447,926,945,234,886
en,3448,837,306,307,71
en,3449,837,307,306,305
en,3450,903,290,868,150
en,3451,903,868,290,847
en,3452,901,124,112,788
en,3453,901,112,124,125
en,3454,901,268,753,113
en,3455,901,753,268,845
en,3456,273,753,268,113
en,3457,95,953,241,237
en,3458,241,953,95,895
en,3459,768,596,762,394
en,3460,768,762,596,892
en,3461,598,762,596,394
en,3462,227,942,8,46
en,3463,8,942,227,784
en,3464,943,400,773,802
en,3465,943,773,400,452
en,3466,946,932,754,694
en,3467,946,754,932,801
en,3468,428,542,850,540
en,3469,850,542,428,550
en,3470,118,866,30,194
en,3471,118,30,866,877
en,3472,936,4,3,427
en,3473,936,3,4,887
en,3474,894,274,258,257
en,3475,894,258,274,776
en,3476,557,943,417,556
en,3477,417,943,557,808
en,3478,657,591,893,684
en,3479,893,591,657,638
en,3480,447,539,829,610
en,3481,829,539,447,406
en,3482,161,197,844,298
en,3483,844,197,161,259
en,3484,413,491,949,501
en,3485,949,491,413,492
en,3486,674,672,825,678
en,3487,674,825,672,486
en,3488,463,563,849,605
en,3489,849,563,463,464
en,3490,736,327,842,324
en,3491,736,842,327,138
en,3492,228,842,327,324
en,3493,228,327,842,138
en,3494,472,394,768,395
en,3495,768,394,472,596
en,3496,56,86,918,281
en,3497,56,918,86,353
en,3498,497,752,786,414
en,3499,786,752,497,642
en,3500,786,491,497,414
en,3501,497,491,786,642
en,3502,579,460,920,578
en,3503,920,460,579,602
en,3504,77,79,926,78
en,3505,77,926,79,359
en,3506,426,428,936,427
en,3507,936,428,426,551
en,3508,652,618,806,569
en,3509,806,618,652,637
en,3510,358,357,780,107
en,3511,358,780,357,362
en,3512,134,3,887,4
en,3513,134,887,3,210
en,3514,851,805,588,474
en,3515,851,588,805,739
en,3516,753,268,272,273
en,3517,753,272,268,845
en,3518,762,596,575,598
en,3519,762,575,596,892
