1  0.8000000
2  0.7504590
3  0.3305335
4  0.8000000
5  0.6918015
6  0.6447726
7  0.2000000
8  0.6849990
9  0.2396758
10  0.6644378
11  0.4156609
12  0.6574214
13  0.5622051
14  0.2000000
15  0.4238929
16  0.5089569
17  0.4289321
18  0.5972383
19  0.2312171
20  0.6308722
21  0.5736226
22  0.2804464
23  0.5400361
24  0.4608561
25  0.4348210
26  0.8000000
27  0.7969086
28  0.8000000
29  0.2000000
30  0.8000000
31  0.7055895
32  0.8000000
33  0.2180093
34  0.8000000
35  0.3908535
36  0.2000000
37  0.6023120
38  0.6205377
39  0.2006935
40  0.5245214
41  0.8000000
42  0.8000000
43  0.8000000
44  0.5297996
45  0.7443805
46  0.3240315
47  0.7651002
48  0.2000000
49  0.6480408
50  0.3072491
51  0.8000000
52  0.5655176
53  0.5559714
54  0.2302887
55  0.6047415
56  0.2000000
57  0.3351877
58  0.3723156
59  0.2000000
60  0.2000000
61  0.2000000
62  0.4853456
63  0.3182160
64  0.5980346
65  0.2432450
66  0.2994094
67  0.4330845
68  0.8000000
69  0.2000000
70  0.6349765
71  0.8000000
72  0.2000000
73  0.2000000
74  0.2000000
75  0.3417207
76  0.3347848
77  0.2000000
78  0.5132253
79  0.3764532
80  0.8000000
81  0.6278625
82  0.3423554
83  0.2829849
84  0.6438532
85  0.4549650
86  0.6813739
87  0.5038154
88  0.3084777
89  0.3348424
90  0.8000000
91  0.7350774
92  0.5498034
93  0.4952033
94  0.5579019
95  0.3802086
96  0.5961667
97  0.2719731
98  0.2647757
99  0.2000000
100  0.4567717
101  0.2795560
102  0.5857326
103  0.6935207
104  0.5701632
105  0.2528663
106  0.2000000
107  0.3043678
108  0.7337837
109  0.2914008
110  0.3725318
111  0.2306704
112  0.4948277
113  0.8000000
114  0.5472089
115  0.8000000
116  0.2000000
117  0.6446011
118  0.2000000
119  0.2000000
120  0.3830704
121  0.6308394
122  0.8000000
123  0.8000000
124  0.5786657
125  0.8000000
126  0.2000000
127  0.4392881
128  0.4397707
129  0.4818421
130  0.7407974
131  0.8000000
132  0.5732190
133  0.2000000
134  0.2000000
135  0.8000000
136  0.2000000
137  0.3385069
138  0.2000000
139  0.3803665
140  0.4350259
141  0.8000000
142  0.8000000
143  0.6814814
144  0.8000000
145  0.4063582
146  0.2000000
147  0.7849308
148  0.2210751
149  0.5380651
150  0.2000000
151  0.2000000
152  0.7108420
153  0.6437178
154  0.8000000
155  0.5889069
156  0.3988582
157  0.5772550
158  0.5736308
159  0.8000000
160  0.2000000
161  0.2017088
162  0.2233987
163  0.2939234
164  0.2000000
165  0.5789724
166  0.7706045
167  0.4209917
168  0.8000000
169  0.5726750
170  0.8000000
171  0.3856026
172  0.7263994
173  0.4161424
174  0.4059454
175  0.5423071
176  0.6956314
177  0.3410353
178  0.4469111
179  0.2000000
180  0.7722364
181  0.8000000
182  0.6944249
183  0.4059454
184  0.7633235
185  0.5805759
186  0.2000000
187  0.6450793
188  0.2000000
189  0.6336634
190  0.5850310
191  0.4539361
192  0.4985029
193  0.4220974
194  0.6836778
195  0.2000000
196  0.4568308
197  0.2000000
198  0.3545266
199  0.3761050
200  0.6354097
201  0.3176658
202  0.5880034
203  0.4925926
204  0.2000000
205  0.7517511
206  0.8000000
207  0.6365451
208  0.7505189
209  0.6309529
210  0.2000000
211  0.3841679
212  0.2776152
213  0.2000000
214  0.2000000
215  0.7629403
216  0.5434548
217  0.2000000
218  0.8000000
219  0.6200983
220  0.3320220
221  0.2488102
222  0.4161943
223  0.7356117
224  0.3678149
225  0.2260533
226  0.2465503
227  0.3511654
228  0.8000000
229  0.6958692
230  0.4538339
231  0.8000000
232  0.4039233
233  0.7644066
234  0.5210337
235  0.8000000
236  0.2923938
237  0.4674800
238  0.4169365
239  0.3936971
240  0.6328959
241  0.8000000
242  0.6790248
243  0.2450430
244  0.8000000
245  0.6273290
246  0.7106973
247  0.2000000
248  0.5400794
249  0.4734856
250  0.5493370
251  0.7471050
252  0.5429444
253  0.2000000
254  0.3506054
255  0.7409187
256  0.8000000
257  0.7083854
258  0.4075902
259  0.5542156
260  0.3616520
261  0.3896549
262  0.3816580
263  0.7096451
264  0.5830175
265  0.3476522
266  0.4488154
267  0.4970087
268  0.2726858
269  0.6401817
270  0.5748531
271  0.5699071
272  0.6894376
273  0.7636068
274  0.3183819
275  0.6437810
276  0.5461981
277  0.6776337
278  0.2000000
279  0.5870808
280  0.2748410
281  0.3021659
282  0.4876022
283  0.6410964
284  0.2000000
285  0.2000000
286  0.6125300
287  0.3359279
288  0.3618659
289  0.3198089
290  0.3845757
291  0.4417485
292  0.8000000
293  0.8000000
294  0.5141618
295  0.2000000
296  0.5566066
297  0.7780327
298  0.8000000
299  0.5603587
300  0.8000000
301  0.2179042
302  0.5067666
303  0.8000000
304  0.2517868
305  0.2000000
306  0.2000000
307  0.8000000
308  0.2386734
309  0.3338393
310  0.3338393
311  0.2000000
312  0.4694775
313  0.5483120
314  0.4583394
315  0.4487183
316  0.7600082
317  0.5756589
318  0.4671606
319  0.4886243
320  0.5129849
321  0.8000000
322  0.3583258
323  0.4886936
324  0.3807594
325  0.7365468
326  0.4763081
327  0.7290049
328  0.3602949
329  0.5654232
330  0.2000000
331  0.3412839
332  0.7615159
333  0.7423916
334  0.3303510
335  0.6115029
336  0.2000000
337  0.2036217
338  0.4249698
339  0.5577587
340  0.5055491
341  0.4404202
342  0.4333451
343  0.2273756
344  0.8000000
345  0.4655045
346  0.2343603
347  0.2000000
348  0.4443872
349  0.2245270
350  0.8000000
351  0.8000000
352  0.7257660
353  0.3513598
354  0.2000000
355  0.6960995
356  0.2000000
357  0.8000000
358  0.4443872
359  0.7418997
360  0.2168245
361  0.2000000
362  0.7039489
363  0.5446515
364  0.2604095
365  0.8000000
366  0.5033235
367  0.6268397
368  0.8000000
369  0.6825171
370  0.7368515
371  0.5811578
372  0.2000000
373  0.4747299
374  0.3422987
375  0.4977049
376  0.6941502
377  0.8000000
378  0.8000000
379  0.7108420
380  0.5712183
381  0.4369848
382  0.4345119
383  0.6745859
384  0.3660186
385  0.2000000
386  0.8000000
387  0.4404999
388  0.7506537
389  0.2225360
390  0.2000000
391  0.8000000
392  0.2000000
393  0.8000000
394  0.6643249
395  0.8000000
396  0.4383563
397  0.2000000
398  0.8000000
399  0.4306078
400  0.5376836
401  0.2143337
402  0.6826003
403  0.4945298
404  0.8000000
405  0.7527225
406  0.4669833
407  0.3232002
408  0.3102422
409  0.3342522
410  0.3923901
411  0.2586962
412  0.6726226
413  0.5754327
414  0.5910592
415  0.2000000
416  0.2000000
417  0.8000000
418  0.2000000
419  0.4351381
420  0.2000000
421  0.2934751
422  0.2000000
423  0.6009231
424  0.5015209
425  0.2000000
426  0.2000000
427  0.5500048
428  0.3964964
429  0.3964964
430  0.8000000
431  0.5416833
432  0.8000000
433  0.8000000
434  0.2000000
435  0.3936007
436  0.5634676
437  0.7399894
438  0.3013424
439  0.4901117
440  0.8000000
441  0.2554522
442  0.6475060
443  0.6072753
444  0.5256274
445  0.2591416
446  0.8000000
447  0.3934497
448  0.2000000
449  0.6453559
450  0.6320130
451  0.7854792
452  0.2891085
453  0.2891085
454  0.5234271
455  0.5234271
456  0.5395401
457  0.4970087
458  0.8000000
459  0.8000000
460  0.2000000
461  0.3167594
462  0.6725522
463  0.7863328
464  0.2000000
465  0.2743892
466  0.2000000
467  0.2000000
468  0.4818421
469  0.2543835
470  0.2000000
471  0.5828088
472  0.2000000
473  0.8000000
474  0.7249507
475  0.2899756
476  0.8000000
477  0.8000000
478  0.5726340
479  0.4243178
480  0.2000000
481  0.8000000
482  0.2827234
483  0.8000000
484  0.3695928
485  0.6918624
486  0.6579362
487  0.2000000
488  0.7656683
489  0.2000000
490  0.7973359
491  0.4531365
492  0.3168360
493  0.4853394
494  0.7855040
495  0.8000000
496  0.2000000
497  0.2000000
498  0.2000000
499  0.2506186
500  0.2000000
501  0.5039281
502  0.3260857
503  0.7878183
504  0.2000000
505  0.5720319
506  0.2000000
507  0.6615169
508  0.8000000
509  0.2000000
510  0.4840253
511  0.2542727
512  0.6762936
513  0.7689161
514  0.3092954
515  0.6173344
516  0.8000000
517  0.4741708
518  0.2000000
519  0.8000000
520  0.2000000
521  0.6331078
522  0.5766614
523  0.6622287
524  0.4511110
525  0.6555967
526  0.5834281
527  0.3180252
528  0.8000000
529  0.6702004
530  0.8000000
531  0.2782388
532  0.3540745
533  0.4555892
534  0.2000000
535  0.6558899
536  0.3557283
537  0.8000000
538  0.6295871
539  0.7937471
540  0.2000000
541  0.7060251
542  0.3976927
543  0.8000000
544  0.2819124
545  0.8000000
546  0.5664704
547  0.2600538
548  0.2000000
549  0.8000000
550  0.2988919
551  0.2000000
552  0.2000000
553  0.7352042
554  0.7072530
555  0.2432442
556  0.6620096
557  0.7245041
558  0.4214992
559  0.5999583
560  0.7934519
561  0.6985872
562  0.5895317
563  0.2000000
564  0.7989747
565  0.5075539
566  0.2000000
567  0.2000000
568  0.3927686
569  0.4524054
570  0.4499608
571  0.4324570
572  0.2000000
573  0.6255511
574  0.6245842
575  0.2000000
576  0.2000000
577  0.5354542
578  0.2000000
579  0.2000000
580  0.2077843
581  0.6196579
582  0.8000000
583  0.2000000
584  0.5748822
585  0.2436584
586  0.8000000
587  0.6475492
588  0.2339698
589  0.5284111
590  0.2543360
591  0.4952033
592  0.2000000
593  0.5290467
594  0.5613979
595  0.7036413
596  0.4941803
597  0.8000000
598  0.2000000
599  0.8000000
600  0.6944530
601  0.2745693
602  0.2000000
603  0.2805066
604  0.2282222
605  0.3706448
606  0.5883183
607  0.6375305
608  0.2000000
609  0.4908888
610  0.8000000
611  0.6329334
612  0.8000000
613  0.4748468
614  0.6294191
615  0.6446593
616  0.2755338
617  0.2000000
618  0.8000000
619  0.2840534
620  0.6460216
621  0.3748300
622  0.2000000
623  0.8000000
624  0.2000000
625  0.2000000
626  0.8000000
627  0.7016450
628  0.8000000
629  0.2377804
630  0.4854223
631  0.2934285
632  0.6662786
633  0.5921133
634  0.7163848
635  0.7781106
636  0.8000000
637  0.4534722
638  0.8000000
639  0.2159805
640  0.7956421
641  0.2711537
642  0.4294414
643  0.5089178
644  0.7213539
645  0.4305177
646  0.3973518
647  0.5518277
648  0.5187868
649  0.7150894
650  0.8000000
651  0.2000000
652  0.2472075
653  0.3865812
654  0.8000000
655  0.2000000
656  0.2793446
657  0.8000000
658  0.2000000
659  0.4600868
660  0.6561691
661  0.6911180
662  0.7314176
663  0.5380651
664  0.6550148
665  0.5976807
666  0.7467528
667  0.5519958
668  0.7167539
669  0.7415890
670  0.8000000
671  0.2549168
672  0.6004244
673  0.8000000
674  0.5463393
675  0.5862154
676  0.3463052
677  0.5416808
678  0.8000000
679  0.3953173
680  0.6335700
681  0.6593941
682  0.4526273
683  0.4698268
684  0.5174005
685  0.2000000
686  0.4031634
687  0.7493358
688  0.2937788
689  0.2174094
690  0.6561511
691  0.2385335
692  0.8000000
693  0.3838967
694  0.8000000
695  0.7651112
696  0.2000000
697  0.4087665
698  0.5129560
699  0.8000000
700  0.7011960
701  0.3358750
702  0.5189583
703  0.7290571
704  0.2000000
705  0.4728239
706  0.2000000
707  0.6140076
708  0.4368402
709  0.4247880
710  0.3888607
711  0.4199053
712  0.2359084
713  0.3448725
714  0.2206942
715  0.2000000
716  0.6236832
717  0.3705744
718  0.2000000
719  0.4839037
720  0.4174418
721  0.6299516
722  0.8000000
723  0.7133153
724  0.7931734
725  0.3568591
726  0.3241874
727  0.3253601
728  0.2962755
729  0.2000000
730  0.3417082
731  0.3645375
732  0.2000000
733  0.6083585
734  0.8000000
735  0.5429760
736  0.6550756
737  0.4799130
738  0.2064946
739  0.5753048
740  0.3809103
741  0.6707897
742  0.2000000
743  0.2000000
744  0.4242546
745  0.8000000
746  0.2000000
747  0.7544778
748  0.7994585
749  0.3735980
750  0.5297379
751  0.2000000
752  0.8000000
753  0.4461760
754  0.2936203
755  0.4551647
756  0.8000000
757  0.5833027
758  0.5835721
759  0.5058249
760  0.8000000
761  0.6333901
762  0.8000000
763  0.7207619
764  0.6301748
765  0.2773353
766  0.6179455
767  0.3819814
768  0.3834376
769  0.2000000
770  0.2000000
771  0.8000000
772  0.8000000
773  0.6303659
774  0.4669121
775  0.8000000
776  0.2084740
777  0.6787846
778  0.8000000
779  0.4291712
780  0.2431203
781  0.8000000
782  0.2000000
783  0.7171856
784  0.7171856
785  0.2000000
786  0.8000000
787  0.2000000
788  0.3905697
789  0.2000000
790  0.2000000
791  0.4736790
792  0.7179627
793  0.7161979
794  0.4501490
795  0.8000000
796  0.7917961
797  0.2515578
798  0.6646517
799  0.8000000
800  0.2000000
801  0.8000000
802  0.2000000
803  0.5871562
804  0.4438773
805  0.5354542
806  0.5323362
807  0.4391382
808  0.4593033
809  0.5513665
810  0.2007028
811  0.6977791
812  0.7164116
813  0.8000000
814  0.2483598
815  0.8000000
816  0.3251844
817  0.6549022
818  0.8000000
819  0.3349613
820  0.2000000
821  0.2769722
822  0.5027430
823  0.7279219
824  0.4142371
825  0.2000000
826  0.5501673
827  0.8000000
828  0.8000000
829  0.4794318
830  0.6839135
831  0.8000000
832  0.3641901
833  0.6015929
834  0.6196239
835  0.3177958
836  0.7606060
837  0.8000000
838  0.3593225
839  0.4976216
840  0.7780617
841  0.5794341
842  0.3448562
843  0.8000000
844  0.4810438
845  0.5721203
846  0.8000000
847  0.4263840
848  0.6540356
849  0.2000000
850  0.8000000
851  0.7189638
852  0.2666715
853  0.2000000
854  0.4739265
855  0.6339537
856  0.8000000
857  0.4770391
858  0.2000000
859  0.2000000
860  0.8000000
861  0.7442765
862  0.2000000
863  0.5146904
864  0.3744334
865  0.3958814
866  0.3573474
867  0.8000000
868  0.3004610
869  0.2000000
870  0.2917683
871  0.3250594
872  0.6199075
873  0.5565038
874  0.2000000
875  0.2000000
876  0.2000000
877  0.2569968
878  0.5202448
879  0.3665986
880  0.4526257
881  0.5948955
882  0.5077015
883  0.3622154
884  0.8000000
885  0.2468363
886  0.2000000
887  0.2000000
888  0.2000000
889  0.2373546
890  0.2000000
891  0.4794323
892  0.2000000
893  0.2000000
894  0.3966684
895  0.2000000
896  0.2000000
897  0.4166338
898  0.2054986
899  0.2000000
900  0.4724835
901  0.5173740
902  0.2000000
903  0.2000000
904  0.4094318
905  0.2000000
906  0.3581258
907  0.2000000
908  0.8000000
909  0.5691633
910  0.5123536
911  0.4313613
912  0.2397102
913  0.8000000
914  0.8000000
915  0.2720549
916  0.7924405
917  0.6916861
918  0.2000000
919  0.5986738
920  0.8000000
921  0.3277323
922  0.7844806
923  0.2000000
924  0.8000000
925  0.2971066
926  0.5581616
927  0.8000000
928  0.4245940
929  0.4283883
930  0.4163255
931  0.7241954
932  0.4519614
933  0.3535592
934  0.2000000
935  0.4926459
936  0.5801950
937  0.4999414
938  0.5731559
939  0.3662247
940  0.8000000
941  0.7745536
942  0.7338567
943  0.7424408
944  0.3113786
945  0.2779878
946  0.4762128
947  0.8000000
948  0.3498422
949  0.8000000
950  0.2512143
951  0.5856003
952  0.4936301
953  0.2000000
954  0.2821850
955  0.7700939
956  0.8000000
957  0.7545798
958  0.8000000
959  0.7372930
960  0.4951695
961  0.3367906
962  0.6458839
963  0.6148763
964  0.4840253
965  0.8000000
966  0.2850341
967  0.3697000
968  0.2000000
969  0.6965280
970  0.2000000
971  0.5296464
972  0.2000000
973  0.3020343
974  0.5259536
975  0.2000000
976  0.5682843
977  0.3164488
978  0.2862544
979  0.5720005
980  0.5737706
981  0.2086556
982  0.2759793
983  0.2000000
984  0.6920105
985  0.2000000
986  0.5771485
987  0.6802508
988  0.2000000
989  0.5675287
990  0.2000000
991  0.5062759
992  0.7952629
993  0.4963924
994  0.7287578
995  0.5660113
996  0.4123188
997  0.3417207
998  0.6803355
999  0.6863228
1000  0.2000000
1001  0.5256274
1002  0.5464948
1003  0.5182539
1004  0.2369210
1005  0.8000000
1006  0.6869333
1007  0.2000000
1008  0.5433700
1009  0.5584694
1010  0.5921819
1011  0.8000000
1012  0.3095760
1013  0.4317416
1014  0.4884423
1015  0.7041569
1016  0.5000816
1017  0.8000000
1018  0.7114673
1019  0.8000000
1020  0.8000000
1021  0.3075309
1022  0.3923789
1023  0.7184513
1024  0.4527978
1025  0.5660753
1026  0.8000000
1027  0.6471803
1028  0.2000000
1029  0.2000000
1030  0.6632066
1031  0.5775455
1032  0.7376797
1033  0.2000000
1034  0.4279497
1035  0.3049131
1036  0.7369565
1037  0.2000000
1038  0.2000000
1039  0.8000000
1040  0.6852966
1041  0.7038984
1042  0.5039619
1043  0.2768938
1044  0.5655561
1045  0.3571916
1046  0.2000000
1047  0.6001622
1048  0.4787226
1049  0.3524333
1050  0.6110151
1051  0.5798108
1052  0.2000000
1053  0.2000000
1054  0.2000000
1055  0.2713377
1056  0.5102704
1057  0.7321035
1058  0.3770864
1059  0.8000000
1060  0.6274758
1061  0.2436888
1062  0.3667042
1063  0.5920753
1064  0.7562318
1065  0.2000000
1066  0.4026210
1067  0.2000000
1068  0.6729086
1069  0.4613191
1070  0.5149826
1071  0.3454667
1072  0.5066938
1073  0.3107632
1074  0.5003197
1075  0.8000000
1076  0.7080502
1077  0.8000000
1078  0.4581688
1079  0.5834600
1080  0.3016060
1081  0.6958787
1082  0.6795690
1083  0.7675410
1084  0.4137214
1085  0.4133349
1086  0.2000000
1087  0.5457655
1088  0.8000000
1089  0.7074934
1090  0.8000000
1091  0.4614161
1092  0.2000000
1093  0.5027430
1094  0.7797986
1095  0.6726226
1096  0.2000000
1097  0.5479545
1098  0.6537986
1099  0.2000000
1100  0.3200565
1101  0.6584112
1102  0.2907795
1103  0.3572237
1104  0.6200983
1105  0.4573561
1106  0.6940288
1107  0.5425439
1108  0.5172848
1109  0.4041335
1110  0.2000000
1111  0.2000000
1112  0.4643505
1113  0.3896608
1114  0.5451313
1115  0.8000000
1116  0.2000000
1117  0.4621909
1118  0.2000000
1119  0.2938882
1120  0.7972231
1121  0.3945342
1122  0.5640513
1123  0.8000000
1124  0.6643853
1125  0.2000000
1126  0.2054616
1127  0.8000000
1128  0.5830657
1129  0.2000000
1130  0.8000000
1131  0.2000000
1132  0.8000000
1133  0.6724455
1134  0.3171258
1135  0.8000000
1136  0.4705614
1137  0.4981312
1138  0.5382121
1139  0.5482943
1140  0.5204822
1141  0.4674800
1142  0.4967929
1143  0.8000000
1144  0.2000000
1145  0.8000000
1146  0.5986738
1147  0.5764997
1148  0.2000000
1149  0.3432078
1150  0.7907690
1151  0.8000000
1152  0.5881555
1153  0.6141767
1154  0.8000000
1155  0.8000000
1156  0.4406043
1157  0.4634267
1158  0.7129519
1159  0.8000000
1160  0.6834044
1161  0.5136531
1162  0.2001895
1163  0.2000000
1164  0.2000000
1165  0.2000000
1166  0.6362415
1167  0.3406690
1168  0.6420293
1169  0.2000000
1170  0.2000000
1171  0.7860641
1172  0.2000000
1173  0.4114018
1174  0.6075423
1175  0.3775951
1176  0.6573002
1177  0.8000000
1178  0.6629391
1179  0.4650665
1180  0.2662687
1181  0.2743462
1182  0.4648123
1183  0.2918291
1184  0.8000000
1185  0.2000000
1186  0.3250594
1187  0.5446401
1188  0.8000000
1189  0.7287578
1190  0.2176243
1191  0.2399897
1192  0.2000000
1193  0.6410877
1194  0.2658487
1195  0.4203178
1196  0.7918958
1197  0.2578560
1198  0.8000000
1199  0.2000000
1200  0.5782184
1201  0.8000000
1202  0.4212493
1203  0.3715311
1204  0.4567352
1205  0.7179963
1206  0.7434703
1207  0.2000000
1208  0.2000000
1209  0.3374805
1210  0.2000000
1211  0.8000000
1212  0.5890449
1213  0.2000000
1214  0.8000000
1215  0.6770302
1216  0.2395434
1217  0.6449495
1218  0.6849896
1219  0.4387204
1220  0.4749077
1221  0.2895194
1222  0.4138180
1223  0.2000000
1224  0.8000000
1225  0.4009169
1226  0.6053369
1227  0.2000000
1228  0.2000000
1229  0.8000000
1230  0.5155073
1231  0.7758134
1232  0.2759793
1233  0.7840820
1234  0.2000000
1235  0.8000000
1236  0.8000000
1237  0.2000000
1238  0.4438525
1239  0.2000000
1240  0.6652093
1241  0.3272880
1242  0.7027558
1243  0.6891000
1244  0.5012213
1245  0.4172638
1246  0.8000000
1247  0.4792138
1248  0.3643004
1249  0.8000000
1250  0.6444467
1251  0.8000000
1252  0.8000000
1253  0.7315663
1254  0.8000000
1255  0.6214020
1256  0.4614573
1257  0.2738502
1258  0.2000000
1259  0.6894376
1260  0.6316779
1261  0.2000000
1262  0.6809812
1263  0.5471500
1264  0.5594945
1265  0.7448058
1266  0.6731517
1267  0.2000000
1268  0.8000000
1269  0.5721866
1270  0.8000000
1271  0.2000000
1272  0.2628857
1273  0.2338435
1274  0.4643505
1275  0.5522366
1276  0.7437412
1277  0.7550999
1278  0.2396042
1279  0.5675615
1280  0.3430822
1281  0.6758371
1282  0.2000000
1283  0.3896549
1284  0.6260682
1285  0.4949229
1286  0.7833100
1287  0.4946562
1288  0.8000000
1289  0.2000000
1290  0.2790195
1291  0.7887229
1292  0.3809568
1293  0.8000000
1294  0.8000000
1295  0.5223683
1296  0.6317066
1297  0.4569138
1298  0.2464368
1299  0.8000000
1300  0.5798538
1301  0.2000000
1302  0.2000000
1303  0.6677367
1304  0.6030395
1305  0.2000000
1306  0.2000000
1307  0.8000000
1308  0.4933052
1309  0.6051950
1310  0.2000000
1311  0.7699534
1312  0.6842609
1313  0.8000000
1314  0.2000000
1315  0.7936719
1316  0.5645479
1317  0.7189304
1318  0.3822434
1319  0.3616046
1320  0.4362631
1321  0.8000000
1322  0.2608018
1323  0.6916703
1324  0.2000000
1325  0.8000000
