n,1,3.91086173,24.6922092,0.
n,2,11.3497629,22.2751637,0.
n,3,14.6946316,20.2254257,0.
n,4,20.2254257,14.6946316,0.
n,5,22.2751637,11.3497629,0.
n,6,24.6922092,3.91086173,0.
n,7,25.,0.,0.
n,8,24.6922092,-3.91086173,0.
n,9,22.2751637,-11.3497629,0.
n,10,20.2254257,-14.6946316,0.
n,11,14.6946316,-20.2254257,0.
n,12,11.3497629,-22.2751637,0.
n,13,3.91086173,-24.6922092,0.
n,14,0.,25.,0.
n,15,0.,-25.,0.
n,16,-19.2397003,-0.616775215,-15.9516001
n,17,-21.276638,0.0448244326,-13.1264114
n,18,-23.1845818,-1.1955713,-9.27608585
n,19,-24.2202187,-0.568893492,-6.16906881
n,20,-24.9109592,-0.193138123,-2.09924984
n,21,-24.9092312,0.143213406,2.12360406
n,22,-24.2141132,0.577353954,6.19220161
n,23,-23.1507874,1.25762427,9.35197544
n,24,-21.1755314,0.117185034,13.2884598
n,25,-18.6754379,1.11701739,16.5825291
n,26,2.13373208,24.8181076,-2.12337351
n,27,2.79684997,24.1485367,-5.83316088
n,28,1.72627258,22.7823906,-10.1480379
n,29,0.799836814,20.9849606,-13.564353
n,30,-0.40857774,18.9351997,-16.3184338
n,31,-1.884691,12.2214813,-21.727478
n,32,-3.56466866,16.8260288,-18.143261
n,33,-3.69092917,19.2439518,-15.5256996
n,34,-2.96310902,20.9357147,-13.3385096
n,35,-2.46001482,22.7407417,-10.0899467
n,36,-1.99059045,24.1618729,-6.1025753
n,37,-1.65945053,24.8948326,-1.57909679
n,38,-2.40507197,24.7136116,2.90740585
n,39,-1.99851954,23.9777145,6.7878685
n,40,-1.39388096,22.6799088,10.4249153
n,41,-0.734866023,20.9163876,13.6735048
n,42,-0.067533657,18.7550869,16.5300369
n,43,3.34869981,18.4758434,16.5054359
n,44,2.82269955,20.7063789,13.7214508
n,45,2.37825847,22.5568428,10.5134525
n,46,1.78395808,23.9270515,7.02236938
n,47,1.04015994,24.7441692,3.41235995
n,48,7.51370287,22.8637638,-6.7670188
n,49,5.72911978,22.048048,-10.2985802
n,50,4.21587181,20.5046806,-13.6669121
n,51,2.60102701,18.9459572,-16.1023407
n,52,1.95498967,15.9782257,-19.1278419
n,53,0.993826151,7.73947525,-23.7510605
n,54,14.5968781,19.0217476,-7.07843924
n,55,12.8563423,18.6332035,-10.6074581
n,56,11.04496,17.6274872,-13.8665276
n,57,9.21931171,15.9469995,-16.9025879
n,58,3.67543912,11.2776461,-22.0069504
n,59,5.51621962,17.674593,-16.7982178
n,60,7.64013147,19.349123,-13.865057
n,61,9.47498131,20.5885239,-10.5516529
n,62,11.3243713,21.1321659,-7.08450127
n,63,17.482851,16.3981514,-7.10285378
n,64,15.7512026,16.2382793,-10.6403894
n,65,13.8390064,15.5658779,-13.8269787
n,66,11.9643631,14.7217751,-16.282608
n,67,10.9308701,11.8008652,-19.1378078
n,68,7.72585011,10.1004429,-21.5242252
n,69,5.65849686,6.97457027,-23.3310261
n,70,2.8239224,3.54951048,-24.5850849
n,71,19.8840637,13.3825397,-7.10855961
n,72,18.1623459,13.5116205,-10.6096802
n,73,16.2056961,13.1917076,-13.7242203
n,74,14.0736246,12.4900885,-16.4599762
n,75,23.1050014,6.42835093,-7.0594039
n,76,21.5271702,7.03031063,-10.5903578
n,77,19.5447369,7.35480452,-13.7444582
n,78,17.2191048,7.59851122,-16.4549408
n,79,10.6926413,6.51917982,-21.6371841
n,80,14.3206196,8.91213703,-18.4524708
n,81,16.1224155,10.6158085,-15.8862305
n,82,18.0872631,10.5819578,-13.6335278
n,83,20.0841351,10.4730177,-10.5803328
n,84,21.7712345,9.99711704,-7.14639473
n,85,23.8248005,2.61120534,-7.11058855
n,86,22.3552933,3.4463923,-10.6472168
n,87,20.4097557,4.14085913,-13.8309498
n,88,18.3913612,4.96289587,-16.1903515
n,89,15.4549427,4.33442736,-19.1665726
n,90,7.22324848,2.5979538,-23.7923374
n,91,23.4282551,-5.09560251,-7.08178902
n,92,22.2792187,-3.96469045,-10.6262732
n,93,20.5803814,-2.94111967,-13.8851614
n,94,18.2785969,-2.02378273,-16.9350872
n,95,4.15133524,-0.0271020122,-24.6529045
n,96,11.6327963,1.23429489,-22.0942192
n,97,18.3637676,1.90879977,-16.8561115
n,98,20.71838,0.737350762,-13.9715786
n,99,22.5985947,-0.211094305,-10.6891975
n,100,23.9120789,-1.28898597,-7.17989969
n,101,22.2876339,-8.8126049,-7.11332273
n,102,21.3161182,-7.55460072,-10.6560364
n,103,19.8339939,-6.26197624,-13.8708458
n,104,18.2467918,-4.94978952,-16.3570843
n,105,15.0131607,-5.04884911,-19.3420296
n,106,12.1150551,-2.72150302,-21.6983604
n,107,7.76182699,-2.31779814,-23.6512547
n,108,20.5899792,-12.2481861,-7.14385748
n,109,19.8312454,-10.8689289,-10.6577702
n,110,18.5873451,-9.37775517,-13.8408213
n,111,16.8776302,-7.76576757,-16.7283726
n,112,15.6577902,-18.144495,-7.11413479
n,113,15.3065176,-16.6497078,-10.653532
n,114,14.5521774,-14.875083,-13.8551807
n,115,13.4581709,-12.7988043,-16.735239
n,116,10.3523006,-6.18260813,-21.8998909
n,117,12.8681402,-9.48307133,-19.2219238
n,118,15.885746,-10.4557381,-16.2271576
n,119,16.9021416,-12.1903839,-13.8098574
n,120,17.84552,-13.8779621,-10.6742477
n,121,18.3344498,-15.3913383,-7.20795727
n,122,12.5007114,-20.4687481,-7.05425882
n,123,12.3199396,-18.9683666,-10.6498899
n,124,11.8574104,-17.0441341,-13.9247742
n,125,11.499608,-14.9961386,-16.3668823
n,126,9.1445694,-12.9544353,-19.3276863
n,127,8.54981518,-9.471632,-21.4985771
n,128,5.72328663,-6.76756001,-23.3761444
n,129,2.95758176,-3.39453864,-24.5912552
n,130,9.0237112,-22.3101292,-6.76984406
n,131,8.99163151,-20.8759327,-10.4089394
n,132,8.63184357,-18.8951168,-13.9091997
n,133,8.42624187,-16.3364487,-16.944582
n,134,1.83731687,-24.8325272,-2.22932172
n,135,1.81036806,-24.388155,-5.19041729
n,136,1.86771166,-23.2833614,-8.91048431
n,137,1.7727114,-21.5546017,-12.5402021
n,138,1.29519069,-19.3337231,-15.7965078
n,139,4.76887989,-10.8048124,-22.0343781
n,140,4.49149609,-14.7006083,-19.7159481
n,141,4.61484051,-17.9508286,-16.7770977
n,142,5.22087955,-20.4509048,-13.3978691
n,143,5.47128916,-22.3230572,-9.83595848
n,144,5.36323929,-23.6163254,-6.20522642
n,145,2.14134097,-24.8187351,2.10833311
n,146,2.79841328,-24.1516666,5.81944323
n,147,1.7290839,-22.7830238,10.1461363
n,148,0.878240824,-20.9726925,13.5784693
n,149,-0.0505031459,-18.8570652,16.4136696
n,150,-1.10205626,-12.2788639,21.7489071
n,151,-2.23220038,-16.6646061,18.5015717
n,152,-3.29104233,-19.0784645,15.8171177
n,153,-2.82657886,-20.9033318,13.4186878
n,154,-2.45058823,-22.737442,10.0996685
n,155,-2.00277472,-24.1612206,6.10117102
n,156,-1.55973208,-24.9054737,1.51149833
n,157,-1.64714813,-24.7237797,-3.31987643
n,158,-1.81106174,-23.6487904,-7.90283012
n,159,-1.62974572,-22.0217896,-11.7211218
n,160,-1.37576497,-20.0572033,-14.8598738
n,161,-1.1473515,-18.4587135,-16.8213997
n,162,-0.552700937,-16.0481033,-19.1612339
n,163,0.962242007,-12.0582399,-21.8785954
n,164,0.389027625,-7.19719696,-23.9384422
n,165,7.51333141,-22.8660069,6.75984955
n,166,5.74444294,-22.0470619,10.2921553
n,167,4.28304863,-20.4907455,13.6669235
n,168,2.80075955,-18.8996582,16.1232319
n,169,2.42161775,-15.8920679,19.146225
n,170,1.42368567,-7.84873676,23.6932583
n,171,14.5920563,-19.0267982,7.07480192
n,172,12.8601885,-18.6338444,10.6016684
n,173,11.0762405,-17.6163368,13.8557405
n,174,9.3008194,-15.9193811,16.8839588
n,175,4.02446222,-11.259531,21.9551048
n,176,5.68782187,-17.6286392,16.7892742
n,177,7.70295095,-19.3309822,13.8556004
n,178,9.49142265,-20.5855179,10.542738
n,179,11.3280277,-21.1320057,7.07913065
n,180,17.4821339,-16.3991985,7.10220337
n,181,15.7535267,-16.2380714,10.6372662
n,182,13.8576355,-15.5576591,13.8175678
n,183,12.0098772,-14.7030439,16.2660179
n,184,11.0028868,-11.7745419,19.1127357
n,185,7.8780303,-10.0724516,21.4821396
n,186,5.84561682,-6.98209524,23.2825928
n,187,2.93431354,-3.65360188,24.5568924
n,188,19.8841553,-13.3825607,7.10826731
n,189,18.1642818,-13.5105858,10.6076822
n,190,16.2163029,-13.1859035,13.7172699
n,191,14.1039457,-12.4757671,16.4448757
n,192,23.1058693,-6.42497492,7.05964184
n,193,21.5276642,-7.02916622,10.5901117
n,194,19.5470028,-7.35291481,13.7422447
n,195,17.2289963,-7.59271812,16.4472599
n,196,10.7651243,-6.50630426,21.6050949
n,197,14.3541479,-8.8984499,18.4330139
n,198,16.1394711,-10.6067896,15.8749332
n,199,18.0939617,-10.5776281,13.6279964
n,200,20.0859299,-10.4714508,10.578474
n,201,21.771944,-9.99586201,7.14599323
n,202,23.8244762,-2.60297966,7.1146903
n,203,22.3555527,-3.44373679,10.6475334
n,204,20.4112415,-4.13909245,13.8292837
n,205,18.3970737,-4.95923853,16.1849823
n,206,15.4751768,-4.32729673,19.1518517
n,207,7.31288767,-2.63467336,23.7608967
n,208,23.4319305,5.0849123,7.07730913
n,209,22.2801018,3.96218538,10.6253538
n,210,20.5808182,2.94092631,13.8845549
n,211,18.2805119,2.02463627,16.9329185
n,212,4.22243834,-0.0271772798,24.6408253
n,213,11.678401,-1.24823761,22.0693645
n,214,18.3693676,-1.90590751,16.8503361
n,215,20.7197647,-0.735721052,13.9696112
n,216,22.5986366,0.21277909,10.6890745
n,217,23.912159,1.28933132,7.17957497
n,218,22.2938499,8.80065536,7.10863972
n,219,21.3187542,7.54940605,10.6544447
n,220,19.8349152,6.2602973,13.8702869
n,221,18.2477036,4.9495759,16.3561306
n,222,15.0231724,5.04092264,19.3363228
n,223,12.1548519,2.69264388,21.679697
n,224,7.89988708,2.26255393,23.6108589
n,225,20.5912704,12.2460556,7.14378738
n,226,19.8337803,10.8652315,10.6568251
n,227,18.5889606,9.37543774,13.8402205
n,228,16.8813076,7.76207972,16.7263718
n,229,15.6501369,18.1509323,7.1145525
n,230,15.3039217,16.65242,10.6530228
n,231,14.5520573,14.8752909,13.8550844
n,232,13.4605923,12.8131113,16.7223396
n,233,10.452755,6.11905622,21.8700047
n,234,12.8927889,9.48180103,19.2060261
n,235,15.8920527,10.456666,16.2203827
n,236,16.9043198,12.1916599,13.8060637
n,237,17.8452721,13.879324,10.6728935
n,238,18.3274155,15.3979988,7.21161842
n,239,12.5200739,20.4287682,7.13534594
n,240,12.3819456,18.9131737,10.6761084
n,241,11.9559031,17.0268536,13.8615522
n,242,11.5749264,15.0354795,16.2774525
n,243,9.21882343,13.1137276,19.1844578
n,244,8.63056087,9.46881676,21.4675312
n,245,6.07504702,6.78495741,23.2821426
n,246,3.16469264,3.60871339,24.5349121
n,247,9.13754177,22.1483498,7.13834095
n,248,9.25519085,20.6425514,10.6407938
n,249,9.13833332,18.7418461,13.7925367
n,250,8.86126614,16.4572964,16.6022682
n,251,4.49374962,11.1318693,21.9291515
n,252,4.86548328,15.6137562,18.9086666
n,253,6.49739552,18.0308132,16.0522175
n,254,6.2328434,19.9696579,13.6881123
n,255,5.98659897,21.8402672,10.5907221
n,256,5.54756308,23.3067398,7.14285946
n,257,-11.5004835,-3.80534673,-21.8691158
n,258,-15.289896,-3.37500191,-19.4891872
n,259,-18.3240547,-3.58968282,-16.6235733
n,260,-20.7090511,-3.92045856,-13.4448938
n,261,-22.5806904,-4.27092743,-9.84233856
n,262,-23.848711,-4.4912281,-6.00565434
n,263,-24.5423317,-4.30727005,-2.03012323
n,264,-24.5875797,-3.96157575,2.18101501
n,265,-23.9188194,-3.43031859,6.41272402
n,266,-22.4484234,-2.59970021,10.6915789
n,267,-20.2568607,-3.37772346,14.2565985
n,268,-18.5003567,-2.54444695,16.6211491
n,269,-16.3065815,-1.26371157,18.907629
n,270,-12.5404243,-1.26337707,21.590313
n,271,-8.23872757,1.85445225,23.5304985
n,272,-12.292757,3.58854342,21.4711552
n,273,-15.9685507,3.06330729,18.9900379
n,274,-18.6501541,4.58222961,16.0054665
n,275,-20.6593475,4.29196882,13.4078455
n,276,-22.5406265,4.42410707,9.86647987
n,277,-23.8245602,4.56784725,6.04360294
n,278,-24.5285435,4.36531782,2.07233906
n,279,-24.5790424,4.03392076,-2.14432621
n,280,-23.8988361,3.54927754,-6.4224844
n,281,-22.3930302,2.79871273,-10.7572956
n,282,-20.1344509,3.59177923,-14.3771696
n,283,-18.6126556,2.40935254,-16.5155716
n,284,-16.8460693,0.176882491,-18.4710217
n,285,-13.1163921,0.583171666,-21.2748718
n,286,-8.02219105,-0.166774094,-23.6773434
n,287,-17.3303833,7.3573122,16.4477272
n,288,-19.6021423,7.78518438,13.4218836
n,289,-21.4277763,8.09806538,10.0135756
n,290,-22.750391,8.3384428,6.15549517
n,291,-23.4710503,8.35816193,2.06178665
n,292,-23.5535793,8.09786129,-2.1572082
n,293,-22.9460163,7.57941151,-6.40569115
n,294,-21.6195221,6.89117289,-10.4932346
n,295,-19.7445488,6.20706081,-14.0223103
n,296,-18.1696777,5.14037561,-16.384119
n,297,-3.91258454,2.30679035,24.5839462
n,298,-9.85540581,6.99661922,21.884201
n,299,-14.0633783,8.02097034,19.049551
n,300,-16.1156845,10.4680386,15.9907761
n,301,-18.0165844,10.9587059,13.4279356
n,302,-19.7585983,11.5528898,10.0562668
n,303,-21.0489922,11.9674006,6.22264099
n,304,-21.7757454,12.1002026,2.09808803
n,305,-21.8878365,11.8870401,-2.14963245
n,306,-21.3608627,11.3132839,-6.38147163
n,307,-20.1873531,10.4597406,-10.3954144
n,308,-18.5486164,9.34613228,-13.9139729
n,309,-16.6196308,7.83250713,-16.9540462
n,310,-15.3193626,4.49635553,-19.2379818
n,311,-10.371192,4.56258821,-22.2849979
n,312,-3.72626042,1.07538676,-24.6973381
n,313,-5.20178747,6.56045341,23.5563545
n,314,-13.9925966,12.5790501,16.4613094
n,315,-15.9638615,13.7764788,13.4299583
n,316,-17.5670586,14.6634092,10.0689077
n,317,-18.7750549,15.2783489,6.25055075
n,318,-19.481966,15.5219994,2.12616515
n,319,-19.6292515,15.334259,-2.13377166
n,320,-19.1967964,14.6954432,-6.36607981
n,321,-18.1860065,13.6744337,-10.3575592
n,322,-16.7602673,12.3117151,-13.8749819
n,323,-15.4188461,10.6163807,-16.5696011
n,324,-5.8218317,4.26916742,-23.9349213
n,325,-7.34408569,10.237689,21.5929184
n,326,-10.6944084,12.0104895,19.1409969
n,327,-11.8456497,15.0557661,16.0625172
n,328,-13.4694853,16.2012863,13.457016
n,329,-14.9069862,17.3542404,10.0802813
n,330,-15.9948416,18.1643791,6.26261759
n,331,-16.6554565,18.5205956,2.14087296
n,332,-16.8350029,18.3597908,-2.12149525
n,333,-16.5123901,17.6618843,-6.35600996
n,334,-15.6870413,16.4957256,-10.3347864
n,335,-14.4988394,14.9630699,-13.8163023
n,336,-12.9789963,13.0233746,-16.9392262
n,337,-11.8027582,9.29468822,-19.982584
n,338,-7.66317558,7.39036894,-22.6198635
n,339,-9.10138416,16.2098942,16.7153854
n,340,-10.5950584,18.1454487,13.5457535
n,341,-11.8367252,19.5552673,10.1234131
n,342,-12.7798939,20.5449409,6.29124022
n,343,-13.373251,21.0114899,2.16182256
n,344,-13.5829916,20.8819027,-2.10915041
n,345,-13.3903837,20.1362476,-6.34264803
n,346,-12.7901583,18.8568153,-10.287487
n,347,-11.8981276,17.2092705,-13.684866
n,348,-11.1278648,15.4017839,-16.2467136
n,349,-5.67955256,17.7040443,16.7125549
n,350,-7.3122592,19.5911217,13.7010508
n,351,-8.43693352,21.193924,10.2291622
n,352,-9.23339558,22.3355579,6.39275074
n,353,-9.7243433,22.921627,2.24413252
n,354,-9.9531374,22.8401947,-2.06410742
n,355,-9.92767811,22.0610905,-6.30472088
n,356,-9.63194084,20.7033978,-10.1781654
n,357,-9.10595322,19.0050659,-13.449502
n,358,-8.31254196,17.0361786,-16.2993946
n,359,-8.1843729,13.7802458,-19.1864758
n,360,-6.72118902,10.2921677,-21.7691727
n,361,-1.02289844,4.75502682,24.5223045
n,362,-1.58650434,8.16238785,23.5766506
n,363,-3.35400224,11.4480944,21.9702473
n,364,-2.54580808,16.0896587,18.964222
n,365,-2.6655674,18.975914,16.0564461
n,366,-3.85286617,20.5951138,13.6380615
n,367,-4.84766197,22.230278,10.359293
n,368,-5.56152868,23.4595222,6.61212397
n,369,-5.86815786,24.1745434,2.48116946
n,370,-5.99392509,24.1953888,-1.9120667
n,371,-6.1722784,23.4148483,-6.21673822
n,372,-6.27740049,22.0067329,-10.0646858
n,373,-6.31135321,20.2878227,-13.1746368
n,374,-6.24948597,18.6360588,-15.4480181
n,375,-3.8211484,7.80843401,-23.4398632
n,376,-1.59479487,4.10463619,-24.6091156
n,377,-1.43925023,-4.63590956,24.52421
n,378,-2.53321218,-8.32727146,23.4358578
n,379,-6.01031446,-17.9653664,16.3132381
n,380,-6.25321341,-20.1841259,13.3603287
n,381,-6.32999229,-21.9940033,10.0595741
n,382,-6.27826309,-23.3881493,6.21110678
n,383,-6.08512306,-24.1725197,1.91325486
n,384,-5.85212994,-24.1632538,-2.62483811
n,385,-5.59618855,-23.3116646,-7.0886488
n,386,-5.12190771,-21.8070374,-11.1004124
n,387,-4.38570023,-19.9721642,-14.3832636
n,388,-3.43527555,-17.9524593,-17.0560284
n,389,0.0281520039,-3.50474238,-24.7531013
n,390,-5.81052542,-10.274931,22.0377769
n,391,-6.65258646,-14.594636,19.1765404
n,392,-9.08939171,-16.9033127,16.0206413
n,393,-9.47085094,-18.8622246,13.3984871
n,394,-9.909235,-20.6345978,10.0508928
n,395,-10.1618004,-21.9721069,6.24214268
n,396,-10.1627655,-22.7472935,2.0685401
n,397,-9.90745258,-22.8365765,-2.30936503
n,398,-9.41795349,-22.1768894,-6.66991377
n,399,-8.62901878,-20.8813744,-10.7008533
n,400,-7.53531837,-19.2241821,-14.0943184
n,401,-6.2650094,-17.6795826,-16.5282192
n,402,-6.15592766,-14.5061779,-19.4081268
n,403,-3.56356764,-10.5153952,-22.3992729
n,404,-11.3502998,-14.7751379,16.6693134
n,405,-12.4174643,-16.9973316,13.4869318
n,406,-13.1761341,-18.7037067,10.0777397
n,407,-13.676424,-19.9701691,6.25681734
n,408,-13.8357029,-20.7139473,2.1226573
n,409,-13.6125355,-20.8552208,-2.1814239
n,410,-13.0058765,-20.3449516,-6.47534561
n,411,-11.9830189,-19.2728252,-10.4864407
n,412,-10.607338,-17.8586559,-13.9123259
n,413,-8.9887495,-16.1488914,-16.8349552
n,414,-3.47485542,-6.73391867,-23.8239307
n,415,-5.89638138,-6.13309383,23.5078259
n,416,-8.18381405,-8.4247818,22.06917
n,417,-11.0527697,-10.6649523,19.7254925
n,418,-14.1283703,-12.6808748,16.2660561
n,419,-15.0745354,-14.6269903,13.5576372
n,420,-16.0826206,-16.2479134,10.1170454
n,421,-16.7890739,-17.4286785,6.2744031
n,422,-17.0792103,-18.1302299,2.14367604
n,423,-16.8930664,-18.304987,-2.13349414
n,424,-16.2153969,-17.9217148,-6.39320564
n,425,-15.0257883,-17.0703583,-10.3840532
n,426,-13.4147444,-15.9438515,-13.8144207
n,427,-11.6696568,-14.925684,-16.3108273
n,428,-10.6105642,-12.0639191,-19.1540546
n,429,-7.71447182,-10.2545385,-21.4553337
n,430,-15.8773155,-9.845397,16.6126156
n,431,-17.351366,-11.8379793,13.557003
n,432,-18.5620098,-13.3245478,10.1443682
n,433,-19.4380875,-14.4061146,6.29480934
n,434,-19.8361053,-15.061903,2.16055298
n,435,-19.6841145,-15.2674189,-2.10750556
n,436,-18.9599552,-15.0050879,-6.35353661
n,437,-17.6509151,-14.372117,-10.3386383
n,438,-15.8736429,-13.540288,-13.7727299
n,439,-13.7415886,-12.5539627,-16.6903191
n,440,-10.3585329,-5.98718262,21.9511833
n,441,-15.4044352,-5.6902132,18.8500614
n,442,-17.8758297,-7.2611599,15.8974924
n,443,-19.118618,-8.76012802,13.5180855
n,444,-20.5229607,-10.0185537,10.1703806
n,445,-21.5508633,-10.9826784,6.31989193
n,446,-22.0376816,-11.6002827,2.18496227
n,447,-21.918045,-11.8460255,-2.06662393
n,448,-21.1756496,-11.704031,-6.29344845
n,449,-19.8002758,-11.2659922,-10.2969179
n,450,-17.8883972,-10.7356205,-13.7750387
n,451,-15.8449192,-10.4384012,-16.2781544
n,452,-13.7440968,-8.27363777,-19.1741161
n,453,-10.2961359,-8.15074158,-21.2733402
n,454,-4.72501326,-1.57538283,24.4988251
n,455,-8.47931385,-2.66092753,23.3670864
n,456,-18.5633678,-5.01381111,15.9769535
n,457,-20.2131023,-5.67483282,13.5730171
n,458,-21.8704014,-6.4168582,10.2717791
n,459,-23.0654278,-7.24522066,6.36339903
n,460,-23.6343555,-7.84551573,2.2057085
n,461,-23.54175,-8.16934586,-2.01191235
n,462,-22.8098679,-8.16756916,-6.16447401
n,463,-21.4470787,-7.88734961,-10.1396513
n,464,-19.4901867,-7.51701307,-13.7341604
n,465,-17.0063839,-7.42760038,-16.7515259
n,466,-6.98562813,-6.22803116,-23.1821613
n,467,-3.14891601,-3.33510518,-24.5756264
n,468,0.216117799,-0.222051188,-24.9980793
n,469,-0.113213859,0.113236718,24.9994869
n,470,7.72542477,23.776413,0.
n,471,17.6776695,17.6776695,0.
n,472,23.776413,7.72542477,0.
n,473,23.776413,-7.72542477,0.
n,474,17.6776695,-17.6776695,0.
n,475,7.72542477,-23.776413,0.
n,476,6.83423471,-13.9931536,19.5572205
n,477,1.90919638,7.56782627,23.7504311
n,478,15.381259,19.3759365,3.60415554
n,479,15.3815718,-19.3809528,-3.57574272
n,480,16.2961578,-18.6180801,3.57803464
n,481,16.2995071,18.6146908,-3.58041167
n,482,20.6747608,-13.5825167,-3.61517358
n,483,21.308218,-12.5730925,3.5884788
n,484,8.58576202,23.2016792,3.60094261
n,485,9.55888557,22.8419132,-3.44597363
n,486,12.0855579,-21.6053009,-3.48571801
n,487,13.1361732,-20.9688683,3.57036877
n,488,22.5687294,10.1351614,3.59595728
n,489,12.1091108,21.5684853,3.62902904
n,490,13.1444111,20.9622574,-3.57885861
n,491,24.7021179,1.3732512,-3.59438348
n,492,24.6077423,2.5626545,3.59052014
n,493,20.6624527,13.5966816,3.63226008
n,494,24.6030407,-2.58288455,-3.60820079
n,495,21.3079433,12.573513,-3.58864021
n,496,24.7005596,-1.35478079,3.61205888
n,497,5.66923761,-24.1565685,3.05285406
n,498,4.92559147,-24.3449078,-2.83971429
n,499,18.2400894,-16.7058735,-3.63495278
n,500,19.0635567,-15.7653313,3.61041713
n,501,5.67624426,24.1532726,-3.06588411
n,502,4.83035755,24.2665958,3.57770348
n,503,8.51806831,-23.2773056,-3.2572279
n,504,9.58045578,-22.8313427,3.45610857
n,505,22.5587597,-10.1517448,-3.61171365
n,506,19.0640812,15.7645664,-3.61098623
n,507,18.2352085,16.7093887,3.64327645
n,508,23.0354671,9.024683,-3.59476376
n,509,23.0361748,-9.022645,3.59535241
n,510,24.1757927,-5.24297523,3.61140251
n,511,24.17523,5.24826479,-3.60749269
n,512,23.8767891,-6.46626377,-3.6175127
n,513,23.8806248,6.45613623,3.61026907
n,514,15.425087,0.38600421,19.6702232
n,515,15.4061632,-0.392810702,-19.6849136
n,516,-6.56322241,14.1878004,19.5097523
n,517,6.62032366,14.0436859,-19.5945454
n,518,1.24351358,16.6926613,18.5690269
n,519,0.407005548,10.504446,22.682394
n,520,0.865221977,13.7963829,20.8305359
n,521,-0.121533684,-5.59193134,7.26461267
n,522,-4.30623102,-5.74109697,11.9115152
n,523,-0.777980149,-1.35663509,7.73589182
n,524,-4.79525614,-2.84196925,7.45762825
n,525,0.447374552,-9.71789265,6.71852398
n,526,4.17045546,-6.69666958,8.52815437
n,527,1.2834456,-9.51416016,11.895052
n,528,-3.41297293,-8.46565533,7.21248055
n,529,-0.199187085,-9.65295315,2.74470854
n,530,-1.6572423,-4.2915554,3.43563938
n,531,3.68653297,-5.41980696,4.46210337
n,532,4.76404572,-1.34842253,8.33836269
n,533,0.480839163,-5.34652758,12.1276197
n,534,2.99434137,-0.728959501,3.84035683
n,535,5.89107466,1.83405554,4.83251381
n,536,6.87977934,-2.53860235,3.86273003
n,537,6.01407003,-0.0108223213,-0.664465129
n,538,4.06013584,3.48602247,0.71355176
n,539,0.687942326,-1.44627321,0.863322258
n,540,3.78845978,-3.76248431,0.945555449
n,541,0.434997112,-5.5669837,-0.0425981395
n,542,-3.01857114,-3.04981041,-0.328384072
n,543,2.48886275,-1.95865643,-3.27812052
n,544,-2.65334868,-1.53381777,-4.3168478
n,545,-2.53411937,0.236957207,-8.49370003
n,546,-6.45280027,0.691000581,-4.50172377
n,547,-4.83363008,4.40704441,-5.09882307
n,548,-3.00799274,0.931568384,-0.506589711
n,549,1.12901294,-4.75363398,-8.32829285
n,550,-4.05121756,-4.49601412,-8.67272282
n,551,6.72003222,10.4486036,16.1893749
n,552,9.87924385,9.27416229,12.938777
n,553,9.77806473,15.1812935,13.3993578
n,554,-9.39353275,-3.66037679,-6.24562836
n,555,-4.98416662,-4.93802834,-3.62594867
n,556,2.1169827,2.33848906,6.76856613
n,557,5.08301449,6.04239607,6.08821344
n,558,-0.241690904,3.89187384,0.877948403
n,559,-9.54263783,-15.3001804,-8.9052496
n,560,-10.1681185,-18.3077507,-7.05253267
n,561,3.55380177,10.1565123,-1.02928221
n,562,6.38639307,6.56782198,-1.39903688
n,563,1.69794333,7.8297987,1.88347089
n,564,1.27664244,6.59871483,-3.78291821
n,565,2.94801164,1.28946829,-6.04335165
n,566,13.0663652,2.51115227,-4.76718569
n,567,13.4593258,-0.662891686,-7.02018595
n,568,13.9921379,-1.76157427,0.0320179127
n,569,11.3341293,-2.16472077,-3.94603229
n,570,8.448493,4.82354975,2.98321772
n,571,-1.7506144,0.0087288022,3.77359867
n,572,-5.95448923,2.64587855,4.46409893
n,573,-1.08433068,4.34741831,5.14037848
n,574,-2.55047178,8.40629864,2.87385416
n,575,2.71643877,-12.186161,-13.2695675
n,576,3.39884973,-13.8310337,-16.2090683
n,577,-0.0592918769,-16.1536655,-15.4357643
n,578,-3.00436616,-11.7148914,-17.5942707
n,579,1.05897343,6.18567371,9.22524261
n,580,-0.986736596,2.95746136,10.1217499
n,581,6.29068661,2.78916264,11.3247786
n,582,9.77739334,0.251190603,-0.342712462
n,583,13.1145382,-1.14011264,4.64015055
n,584,10.058033,2.75800371,6.75430727
n,585,-2.42282724,-9.85846329,11.0850601
n,586,-3.6325202,-12.7177629,4.99628973
n,587,-1.13206983,-13.3413248,8.05925655
n,588,15.6787853,0.910538197,-12.7190962
n,589,17.4964542,-2.19436264,-13.6783743
n,590,17.8496094,2.50990438,-13.6875877
n,591,19.0578518,-1.55619085,-11.7619963
n,592,3.8916533,-11.5052576,6.68602228
n,593,4.74858379,6.09136724,9.86868382
n,594,6.65719509,6.68391228,14.2624512
n,595,1.60928071,5.32268143,14.3610086
n,596,-6.22324514,14.830102,-12.0937643
n,597,6.34889984,12.9208059,11.3385687
n,598,8.21313286,8.72807312,8.51606178
n,599,2.87002254,9.5107832,8.50891018
n,600,10.0990162,5.97429466,9.85594559
n,601,3.76625133,17.9939384,12.2913008
n,602,1.41562545,15.5927629,14.6889343
n,603,1.90089738,19.5073719,-9.13399696
n,604,-8.00078487,0.0890236422,2.37921357
n,605,4.15219975,-8.8946209,3.27401733
n,606,-3.39683938,-9.95478725,-13.093462
n,607,-6.31042862,-7.83797312,-8.03128624
n,608,-0.510294735,-8.67897224,-12.8557701
n,609,-6.21376562,-7.03320074,-12.3456068
n,610,6.09228086,-4.93895006,-2.42418647
n,611,4.9698,-8.23770523,-2.42730308
n,612,-2.94159555,-7.57033539,-0.70148015
n,613,-8.76228428,-3.74107718,3.59463286
n,614,2.2204361,-18.3061886,-0.169105589
n,615,1.95637417,-22.6138153,0.759640813
n,616,-0.887052178,-19.8779945,1.85512447
n,617,0.258818477,-21.6693211,-2.74476409
n,618,-5.44940329,-10.3703232,2.5170629
n,619,-4.49658298,1.16488969,7.76102686
n,620,-0.534048736,-13.9802408,1.36597586
n,621,-7.83345222,-7.95325947,0.1599316
n,622,-8.32452965,-2.31005096,-1.67792785
n,623,-1.09501362,3.51656699,-6.58037901
n,624,-0.325802207,-8.73173809,-2.69526076
n,625,2.51365566,-10.8728762,-0.903461993
n,626,8.7983675,2.28293014,-3.94073343
n,627,7.41810226,4.89044142,-7.1822958
n,628,6.64261341,1.14241517,-9.25378704
n,629,7.82001352,-1.29525793,-4.92942572
n,630,10.1618404,0.302594244,-8.25704384
n,631,9.77722836,5.86299324,-2.95152211
n,632,-4.8042984,-15.8600273,1.38421893
n,633,-1.23121274,-17.4292583,-2.13373542
n,634,-15.5848475,-14.7571354,-5.08384228
n,635,-13.939949,-12.0047216,-8.15962696
n,636,-17.6198139,-11.9505758,-4.96207619
n,637,-1.70812643,9.87250328,-2.12739134
n,638,-10.6746397,-10.506526,13.7137594
n,639,-15.9084435,-7.69649458,13.8724422
n,640,-7.42608738,4.14077759,1.13620818
n,641,-4.99261045,7.83698845,-0.298644066
n,642,-0.356182009,-22.5532475,2.09598994
n,643,-2.88798428,-20.7055283,4.20386267
n,644,-3.32729387,-21.8710709,1.53019512
n,645,8.12758636,-8.02042294,4.95853043
n,646,8.13799381,-6.9613843,1.30271423
n,647,9.88842297,-4.37701607,7.10316801
n,648,-4.37647629,14.3544836,16.189642
n,649,5.02651167,-9.41561604,12.51334
n,650,4.04941797,-5.21305513,12.4197245
n,651,1.23076868,-7.98015499,16.185524
n,652,-0.517778873,-12.1523104,13.9975662
n,653,-3.17593026,-9.22554207,14.5578241
n,654,0.727925062,-13.6325264,10.9449368
n,655,2.37942338,-14.4172821,13.9465361
n,656,2.90644526,0.18865107,-10.4037113
n,657,-4.16036892,-18.847187,11.3027735
n,658,-5.3065052,-14.1092186,9.96578407
n,659,-5.24868822,-13.5110645,13.5502815
n,660,-1.98153186,-16.705698,11.2107468
n,661,-18.7402306,-8.33902454,-6.13289499
n,662,-16.7158222,-11.1068592,-10.1424494
n,663,0.531957746,-17.5372467,13.4419441
n,664,-2.18316841,-19.2458687,7.33533621
n,665,2.07713318,-16.3763409,8.79494667
n,666,0.342818946,-19.4331894,10.6413164
n,667,14.3533316,2.49384022,1.49430442
n,668,-14.7361422,-7.24408531,-5.94422483
n,669,-16.0270615,-8.34508324,-10.5919161
n,670,6.25940132,9.25679302,2.49397397
n,671,9.23024654,10.4713192,5.17034626
n,672,7.72383165,8.7850132,-5.07664967
n,673,1.69933689,11.5203781,-5.00284147
n,674,0.85865438,7.95304728,-8.59016037
n,675,-2.16049433,11.1601467,-8.06053829
n,676,-3.51771235,7.7661953,-6.68617916
n,677,0.580922663,-12.516922,-4.57958937
n,678,3.1302712,-15.0929852,-2.91113091
n,679,-4.01748705,-14.4506779,-2.4902606
n,680,-1.96526504,-16.3109474,-6.47452497
n,681,-5.37428999,-9.55181122,-2.87330818
n,682,3.10787296,-9.23106003,-5.98439741
n,683,-2.08388925,-9.919837,-6.62372208
n,684,5.95039034,8.16116428,-9.59428024
n,685,1.57167339,9.81900311,-12.9715881
n,686,4.92257071,11.2441092,-11.947278
n,687,7.68952465,5.49248791,-13.2781734
n,688,-10.9349108,-13.2868519,-13.195405
n,689,12.1485109,5.69968605,-8.83303738
n,690,9.57810688,10.267396,-8.28161144
n,691,7.96776342,13.0360222,-9.91584873
n,692,5.14243746,13.1717625,-6.63396168
n,693,8.63336277,9.04823303,-13.1771049
n,694,-4.9152422,5.56863356,7.4104557
n,695,0.489599645,9.05339527,5.62466192
n,696,-3.61014056,9.93978691,11.0057974
n,697,-6.91619349,2.76357794,10.2149096
n,698,-9.57485199,7.42525244,5.9390192
n,699,-5.3362422,9.99696732,7.05792141
n,700,-8.17977905,7.82903242,9.7344389
n,701,4.78876257,-17.7771206,11.9354906
n,702,6.01085186,-13.6752081,12.7502089
n,703,7.79164791,-10.4646711,7.82525778
n,704,6.34756947,-15.9861326,5.80386209
n,705,4.92960167,-13.8534231,3.67482638
n,706,-11.1716175,-7.7094388,-11.4075518
n,707,-17.5934887,-5.28163147,-12.0147266
n,708,-14.7914667,-4.68804455,-9.10442162
n,709,-11.7877455,-4.68753767,-13.9563026
n,710,-5.68868208,-12.6881723,-10.7700682
n,711,-8.49678802,-11.5419941,-7.18102551
n,712,0.808080554,14.5958939,2.20629096
n,713,-3.83093882,12.6945477,0.781329811
n,714,3.98276114,13.0621138,2.56365228
n,715,11.6907873,-10.9750881,7.94203854
n,716,13.2243261,-8.62849712,6.40268469
n,717,11.3907652,-5.50140667,10.3488569
n,718,12.0170536,-0.452944368,9.20557404
n,719,8.39437199,-3.37262106,12.3594398
n,720,14.3263092,-3.92442942,7.60782957
n,721,11.3372269,-6.07205057,3.69955587
n,722,-2.14370823,15.71947,-1.27170277
n,723,-4.78479147,13.087204,-2.94712281
n,724,-0.687496424,15.7424326,-5.06157398
n,725,-11.7915621,-15.4499826,-5.66040564
n,726,-10.3992672,-10.2305584,-3.00458527
n,727,-13.0723391,-16.2916946,-0.752535403
n,728,-8.70461273,-15.8457279,-1.45066535
n,729,-9.72245598,2.95242548,16.7073517
n,730,-5.24293661,7.20943308,17.6310024
n,731,-9.86213875,7.79381943,17.8986187
n,732,-6.93804693,4.50774193,19.9782715
n,733,1.26176286,13.4856892,-10.8660212
n,734,4.40815401,20.3969421,5.72888851
n,735,2.11380935,16.0827293,-8.09675503
n,736,2.72937989,16.0999203,-4.13118696
n,737,18.2887917,4.05112696,-3.72259903
n,738,17.7484932,-1.14365673,-1.37205553
n,739,18.4368019,4.6307497,0.752628684
n,740,18.3827515,7.91920233,-1.23812091
n,741,15.2467289,5.51980829,-1.36833715
n,742,15.429141,5.00511932,-6.87858963
n,743,-19.7873344,1.67191398,7.8466363
n,744,19.569088,1.76639783,-6.15834951
n,745,19.1486492,7.60656834,-6.00802183
n,746,-6.43984985,1.95153332,-9.19608688
n,747,-4.05701685,-1.60134244,15.0969582
n,748,-4.76064157,0.0542699657,18.5644341
n,749,-2.95946813,2.9092629,16.358263
n,750,-6.19344473,1.83618391,14.4329414
n,751,-7.00413704,-3.44187188,-12.0927505
n,752,9.48031616,-12.7234955,16.3640347
n,753,6.62744856,-10.4574089,16.7378578
n,754,4.03000927,-12.7257347,16.7725449
n,755,1.27685142,-10.8311768,-9.74374294
n,756,2.31722593,8.04578876,20.5366039
n,757,8.95403576,12.5299101,-14.8160639
n,758,-0.627414644,-3.59093928,-11.6569376
n,759,-10.1780767,-14.307374,13.2673111
n,760,-8.89409351,-11.4574776,16.1258488
n,761,8.26765919,12.6290817,-2.9756403
n,762,-7.85933781,-1.48924887,16.4921608
n,763,-6.6178751,-4.26736736,18.3899593
n,764,3.46157932,14.7209911,-0.87399435
n,765,-13.6196823,1.36427116,9.15857315
n,766,-10.5352859,4.63380957,11.8285666
n,767,-16.7910023,3.72010398,9.80089378
n,768,-13.3849993,2.05117989,13.8115368
n,769,1.86310005,2.98936772,-12.9671793
n,770,4.06301785,-6.30927992,17.8619804
n,771,-2.5847249,1.47085381,-13.5103855
n,772,-2.30927038,6.52320862,-10.8573427
n,773,-13.7249441,5.29106665,16.5791569
n,774,-6.77579451,9.76109409,3.08141351
n,775,1.55949867,14.4106884,5.78720284
n,776,6.13332129,11.9264259,6.35899019
n,777,-2.5692153,12.1411934,4.58060122
n,778,20.0032101,-8.82763481,5.04272079
n,779,-1.12897241,12.3498993,8.38634586
n,780,-14.6633034,1.59694004,4.64880991
n,781,-12.9956961,-1.92124546,3.49067259
n,782,-16.8425293,-1.84164739,6.43231678
n,783,-15.0172024,-2.31378174,12.1746464
n,784,-18.390625,-2.3261528,12.1871758
n,785,-10.3936138,1.52842081,-1.01829195
n,786,0.519840062,2.20195127,-21.0336418
n,787,-12.5869789,-1.1346302,-2.68434358
n,788,-8.85491276,6.41736698,-2.60980344
n,789,-9.52532291,3.44524169,-6.70560074
n,790,-14.8113127,6.84413481,8.28758621
n,791,-16.1194801,7.4945569,3.82859397
n,792,-13.3106651,10.3341103,6.31905174
n,793,-12.1436377,4.43834877,5.18926096
n,794,-14.6954279,5.83905554,0.686111152
n,795,-15.3069353,8.30584145,13.9723997
n,796,-6.31173658,3.73760581,-13.8566875
n,797,-3.52103472,2.85587025,-17.8677406
n,798,-5.34349203,-0.700727046,-15.6478815
n,799,-7.69963837,6.6368289,-8.88237286
n,800,-9.9605751,5.15307808,-14.0241308
n,801,-10.3730116,1.32078552,-18.3178082
n,802,-7.55916643,0.21167028,-12.5952139
n,803,-1.56644499,-16.6581783,4.63384151
n,804,7.2496829,-10.7216415,1.36746442
n,805,-3.4370532,-15.6452532,-14.5011368
n,806,-9.80437183,15.0088835,2.82017016
n,807,-9.03462887,10.6479664,-0.483982235
n,808,-6.4479928,17.4527969,0.47089994
n,809,-2.63184023,16.8031845,2.99479055
n,810,12.123579,8.24755192,4.26654148
n,811,15.9073439,-6.91505432,-13.7243586
n,812,14.8050947,3.68727279,6.11102343
n,813,13.8243017,5.73185825,9.19561672
n,814,-11.0377588,8.92915249,14.6382456
n,815,12.3965664,2.68378353,12.2885828
n,816,6.4693799,16.8808308,0.691767752
n,817,4.56176949,16.2462959,4.21556234
n,818,7.64272642,14.0581541,2.18295503
n,819,9.78501415,18.1709976,3.04351473
n,820,9.64892578,16.4979935,-1.61657596
n,821,5.02622652,19.4784489,2.56996155
n,822,4.86780977,19.6483822,-0.990202069
n,823,21.1516361,-4.20315886,5.29262543
n,824,19.9633789,-5.18176031,8.31163216
n,825,16.282423,-7.11556673,6.03574562
n,826,10.501688,-10.4769821,11.4223795
n,827,12.9607334,-15.2834892,9.9314642
n,828,14.2892208,-13.0072708,11.2738247
n,829,13.6592016,-8.07299519,11.4032431
n,830,15.0349131,-11.3170757,8.76394558
n,831,14.354991,-11.6389484,4.88565302
n,832,9.73531437,-12.6255245,4.63588762
n,833,9.21704578,-14.9856844,8.33764744
n,834,14.7211761,-4.46500397,-5.5716958
n,835,18.4804974,3.43218017,11.1826286
n,836,17.0479145,0.474693537,14.5156116
n,837,15.2739601,3.40942073,15.6027975
n,838,8.99536133,-3.72869658,-0.61258322
n,839,22.1076813,0.749562144,2.08838248
n,840,21.8682022,-1.063061,5.35458851
n,841,12.2018337,8.59394264,-6.06514215
n,842,17.0724792,-0.725238025,-6.73108387
n,843,13.567708,-6.0179863,-1.30765688
n,844,4.11403513,-4.32836771,-11.1703577
n,845,5.05932379,-4.22111988,-16.5802898
n,846,6.77201223,-1.59754181,-13.2206125
n,847,6.25239515,-8.03845024,-14.5256662
n,848,0.358781636,-9.4780407,-18.2320938
n,849,-20.2009735,0.66319257,-8.41730404
n,850,-5.97309303,13.7092047,-7.22088814
n,851,-6.11414433,9.54661083,-3.43255329
n,852,-8.3760376,11.5728397,-11.3391371
n,853,-7.97555828,-5.72545767,-15.661972
n,854,3.85730839,4.53969288,-9.00851917
n,855,11.8372068,11.6113024,-3.5587945
n,856,11.3436184,8.22190475,0.197773308
n,857,1.58245456,-11.1323957,18.7589493
n,858,-14.8659973,-9.22349358,-14.1391258
n,859,-10.8495541,13.0650787,-8.23027134
n,860,-12.7349854,12.1000834,-13.6103964
n,861,-10.8715286,8.61775398,-12.1826258
n,862,-11.4980698,8.42758846,-7.85818577
n,863,-9.47741318,11.4338694,-4.97865629
n,864,-18.6881199,-3.34464502,2.56932807
n,865,-22.2782478,-0.449916542,-0.262864202
n,866,-20.8240356,-4.94770098,-0.698626518
n,867,-21.1478615,-4.97038126,3.94921994
n,868,-8.38900471,17.2876072,-6.06334019
n,869,-11.8770256,17.0928497,-7.13553524
n,870,-12.3393612,14.8956251,-4.17623711
n,871,-12.2399836,14.3940859,-11.5659914
n,872,-9.33769798,16.4957886,-9.82760429
n,873,-11.5846329,-4.16572571,14.9000025
n,874,-9.71336937,-7.66127539,17.5512962
n,875,3.22618032,-18.9653721,6.79416323
n,876,-2.03763866,-11.0415258,18.5012608
n,877,-4.2490406,-7.01108074,20.0420151
n,878,0.758963645,-14.6394491,16.3101921
n,879,-9.96619987,0.408784121,6.76855326
n,880,-7.7337141,-1.17342532,11.1144323
n,881,-3.0523715,-0.302188843,11.0269861
n,882,16.9508152,-1.41902256,3.90589261
n,883,14.6124153,-5.77538824,2.28758025
n,884,11.156538,-6.30167246,-17.7477055
n,885,-14.8182077,14.5192852,5.7888689
n,886,14.0388412,-2.01425028,12.669692
n,887,18.3517303,-8.31410503,10.6619921
n,888,-13.0549231,2.55243349,-7.02635574
n,889,-13.821414,-2.79038191,-5.77025986
n,890,-18.1643448,0.202656433,-4.23935938
n,891,-6.72138548,8.06315136,13.7929459
n,892,-15.3528051,-0.294796616,-8.45415783
n,893,-11.1839476,-2.52979112,-9.82804108
n,894,-14.6438942,-2.27342844,-12.0926456
n,895,-12.2810144,1.37071967,-11.7394781
n,896,-4.1427846,16.8921127,13.3438435
n,897,-3.64763069,19.4317703,9.97154236
n,898,-8.10845375,16.2828522,12.6093826
n,899,-8.15027714,12.059473,12.0783882
n,900,-17.8525143,-5.25163174,10.1520729
n,901,-0.970343173,17.9730663,13.6473818
n,902,-0.737040937,19.7626801,11.0885181
n,903,-8.07466984,-13.8178587,5.93036652
n,904,-8.42754936,-12.0878544,1.39145911
n,905,-9.70524216,-10.5380993,7.06982374
n,906,-9.65044308,-7.60505104,4.76835918
n,907,-9.99091434,-6.03026247,-2.96299052
n,908,2.64816022,-0.158157274,12.8143196
n,909,-7.15362549,-6.78136063,8.77713394
n,910,13.0412302,-17.5096035,-4.14309835
n,911,12.0553255,-16.7354755,-7.7412529
n,912,7.73653889,-6.38229656,14.5292501
n,913,7.18455935,-5.34951401,19.493145
n,914,10.8753796,-8.74143314,16.8648815
n,915,11.3920383,-4.46196985,18.4004288
n,916,-6.77013826,-14.7529516,-5.64091492
n,917,6.17694616,-14.1449156,-7.30324173
n,918,7.52153015,-12.6433249,-3.41563082
n,919,15.1354399,4.16598225,-15.4614983
n,920,-11.3524742,-4.05431318,0.277257353
n,921,0.171429113,18.127739,0.29040122
n,922,1.5566355,19.2996597,4.9486742
n,923,4.95023298,15.6149721,7.79434586
n,924,11.9007092,-5.78217888,-7.65965939
n,925,15.8888912,-2.49514508,-10.227169
n,926,10.7812052,-2.91576195,-11.6466312
n,927,15.1329317,-5.92257452,-9.50799847
n,928,14.1600752,-9.33008194,-8.33257484
n,929,9.60505295,-6.49633169,-11.9285345
n,930,8.06429958,-3.62854648,-9.59309483
n,931,11.9489651,-9.05968285,-11.8112783
n,932,-11.0626974,-2.94341803,9.63068199
n,933,-12.6566191,-9.22396564,10.7686758
n,934,-14.3669643,-4.53558159,8.49362564
n,935,-7.09175444,-7.1628561,14.0888948
n,936,-10.0882454,-13.0787382,9.80509949
n,937,-13.9232769,-14.1059437,10.078784
n,938,-7.42227077,-10.1824322,10.2269897
n,939,-20.1061382,7.69620609,3.09664774
n,940,10.6022654,-15.5593872,-4.73436737
n,941,14.5394487,-14.5699768,-6.38612509
n,942,17.1866016,-3.61185861,10.7175827
n,943,12.9487419,-11.2471657,13.9784927
n,944,-2.48959494,-7.47083807,-16.3823776
n,945,-7.48813581,-11.1916952,-16.9260139
n,946,-2.68452024,-3.76794767,-14.8916807
n,947,14.1410789,-7.43105793,15.2842531
n,948,15.7605753,-10.7055244,12.5330334
n,949,16.6793613,-12.699748,-7.7447114
n,950,16.8655663,-14.0538778,-2.13969588
n,951,11.4687481,-3.6633985,14.9672108
n,952,-3.8736136,5.3788867,-21.3469048
n,953,-7.40803099,2.33727932,-20.5296631
n,954,-7.09799385,5.87046766,-18.1059189
n,955,-4.15651751,0.0712588206,-20.5290642
n,956,-0.331503183,0.185395196,-17.2987366
n,957,2.25153184,3.84587979,-16.718689
n,958,-1.1247251,7.40605259,-16.2345963
n,959,-6.71868706,8.23002529,-13.9025354
n,960,21.6081314,4.07182121,3.31832647
n,961,21.6625824,3.13001037,-1.54770839
n,962,19.5362072,1.4239223,4.47437954
n,963,21.6229286,-2.3104372,-2.77463388
n,964,21.7796803,-3.54065681,2.12680054
n,965,10.3246984,-14.7447834,12.6174841
n,966,-16.9824276,8.77954102,10.9791737
n,967,-14.8704281,12.7438421,10.2320251
n,968,2.59158134,-7.2353282,-13.3897314
n,969,5.40916634,-8.12444305,-9.24967861
n,970,-10.9433794,-8.76202869,-7.34904861
n,971,5.13789558,-4.71260309,-6.66515541
n,972,6.25470114,16.2295475,-3.01689625
n,973,5.0964942,-15.4890594,-11.4753647
n,974,8.893713,-15.8341389,-10.5997229
n,975,5.33214664,-18.994278,-9.51446629
n,976,-7.6549964,18.2560368,8.08090115
n,977,-2.26286149,16.1478157,8.46772385
n,978,-5.48507833,14.1347618,9.96013355
n,979,-5.96239758,15.3602085,4.19892836
n,980,-8.94365692,13.5558863,7.66183043
n,981,-11.0313005,17.4782543,7.27599573
n,982,-6.32596064,19.5737114,4.65177441
n,983,-11.2614422,14.9697628,11.58848
n,984,13.437891,-8.19507504,-15.6953287
n,985,13.4795017,-12.0706091,-13.4467316
n,986,16.5630302,-9.27127075,-11.8744383
n,987,19.1777935,-5.25517607,-11.1941652
n,988,15.2945919,-4.07718658,-15.8104763
n,989,11.6694021,-5.3885498,-14.5038099
n,990,13.6994629,-2.21691298,-13.7194557
n,991,20.0899162,-6.20384073,-7.84411716
n,992,18.9670677,-4.36230421,-5.65064764
n,993,20.9782009,-2.0435214,-8.32355499
n,994,18.7094593,-7.13159895,-3.70227194
n,995,17.7442188,-8.41234493,-8.13293076
n,996,5.12111616,-1.85522521,14.8935852
n,997,21.5090809,4.33504105,-5.55559349
n,998,19.6522846,1.28963935,-9.48250294
n,999,18.8885078,5.09007597,-9.72433758
n,1000,15.7304745,2.9433229,-9.8016777
n,1001,-16.9526844,-9.79687691,9.91297436
n,1002,-12.6167631,12.045886,13.8698139
n,1003,-12.0468512,9.73961353,10.5673618
n,1004,-19.2616234,8.43722343,6.8266902
n,1005,-13.7467537,-6.56753349,4.2442317
n,1006,-11.4985743,-13.6917152,2.62550139
n,1007,-13.5142078,-10.2382736,4.32960701
n,1008,-14.4905958,-12.6024294,7.48982573
n,1009,9.92549133,-13.9003191,-7.89421272
n,1010,8.41739178,-18.8145561,-7.60084772
n,1011,-17.6084309,11.6851549,5.01494455
n,1012,-18.1377201,12.548419,0.835824668
n,1013,10.0624542,12.589365,7.89408731
n,1014,12.3163538,9.4785223,9.58553696
n,1015,11.7797537,12.7641563,4.82708502
n,1016,14.9465485,12.8926239,7.15529346
n,1017,10.4260168,14.9452038,10.2505341
n,1018,13.0322294,16.1649685,8.47362137
n,1019,11.1089411,16.6823883,5.88195896
n,1020,13.66679,13.9812727,10.5806837
n,1021,12.7036448,11.4659786,13.061202
n,1022,8.28328609,15.1370287,5.70884609
n,1023,7.39463949,16.107605,9.91130829
n,1024,-18.7928028,4.5577774,5.72790623
n,1025,-1.05776417,0.722083509,13.8498545
n,1026,-0.14510715,-1.8040179,18.8339043
n,1027,-1.84239674,-4.7558794,15.7751884
n,1028,-15.8519783,-3.52090931,0.331492484
n,1029,7.91272354,-1.44674826,18.1989899
n,1030,11.5291462,-3.23914576,-18.4179497
n,1031,12.0003815,0.387392849,-18.8902855
n,1032,16.819149,-5.9282341,13.1162987
n,1033,9.98988056,-0.195523903,-15.2308559
n,1034,8.10865307,-2.84109211,-19.4844551
n,1035,12.0655241,10.3807878,-11.3345671
n,1036,9.11083698,0.636455059,13.5336666
n,1037,2.08773065,8.85939217,12.2262144
n,1038,-3.13104153,5.25192022,12.8950129
n,1039,-10.9682674,7.41233635,1.59672534
n,1040,12.2334929,-14.3678141,5.84512472
n,1041,18.1379585,-10.4861956,7.67226315
n,1042,-7.59408522,-12.6754427,-2.59059119
n,1043,-5.82179594,-19.0926113,-0.902410507
n,1044,-6.47477436,-19.7327309,-5.88030434
n,1045,12.1749821,2.95299554,-11.9946365
n,1046,8.65880203,-5.41980076,-5.98508787
n,1047,17.9931087,8.99709511,-8.54913902
n,1048,14.0603027,10.9826193,-8.56373596
n,1049,-7.50222969,11.2306871,16.678606
n,1050,15.9512787,8.90285873,-4.29432297
n,1051,1.00404787,1.81894171,16.7096386
n,1052,15.5593948,5.77882147,12.6186247
n,1053,15.0608273,6.77221394,2.79289436
n,1054,-3.35795236,-16.1652412,14.9271584
n,1055,-19.3404903,-8.29093075,6.828825
n,1056,15.6576347,1.12925863,9.67211533
n,1057,19.4597759,-1.1808238,7.69953871
n,1058,2.73148274,-18.6411381,3.36913466
n,1059,5.97645617,-19.2658253,1.81197453
n,1060,7.33794641,-16.023819,1.25348961
n,1061,0.691964686,-21.4888039,4.31254196
n,1062,-0.00664668484,13.0015888,16.8195782
n,1063,3.58660769,12.268445,18.3983135
n,1064,0.101532184,11.8174295,12.5833292
n,1065,-2.97748613,10.4424973,15.5664759
n,1066,-2.57906199,13.9593248,12.2910595
n,1067,-1.2733016,10.7476578,19.0896187
n,1068,1.81918371,-4.02988148,16.0032845
n,1069,3.97696519,0.686686873,17.6432209
n,1070,17.4223614,-9.85563183,2.91062546
n,1071,17.8228588,-4.92207193,0.742385924
n,1072,11.1317072,-9.03054714,1.30221379
n,1073,-0.309456289,-5.03332615,-21.8395481
n,1074,3.89231229,-6.51613283,-20.433197
n,1075,2.92792535,-15.9896669,-8.16418457
n,1076,12.7268543,-14.1202211,-9.86076164
n,1077,-0.362845778,-17.5438786,-11.9705505
n,1078,7.91546631,-8.76930714,-5.20202637
n,1079,-12.3198757,-8.43348885,1.02502048
n,1080,-3.47134137,11.2606363,-13.601037
n,1081,9.86397171,-7.5508256,-2.46910048
n,1082,-6.54998922,13.9571009,-15.5856962
n,1083,-6.68124437,-18.431385,7.04183197
n,1084,-5.82544804,-18.969059,3.74954057
n,1085,4.90366888,-3.31667876,19.7371712
n,1086,5.95525503,-0.43791917,21.8075199
n,1087,0.507215619,-2.01259065,22.2041721
n,1088,4.10400152,-21.7005711,-2.58866549
n,1089,1.0187943,-4.98176432,-15.7233238
n,1090,7.25917816,-15.1931992,-14.4889078
n,1091,8.48659515,-12.3360872,-15.7893505
n,1092,7.43968344,-11.8372593,-12.4810114
n,1093,6.60204124,19.7675953,-4.00309563
n,1094,-10.2503176,-11.0222025,-15.5697565
n,1095,-7.89022779,-16.6792831,-12.5983877
n,1096,4.48279238,-10.1064796,-18.1744423
n,1097,-3.17300367,-20.1877117,-9.0101757
n,1098,0.784630597,-20.675045,-7.84167528
n,1099,-2.45863867,-21.1051674,-4.86182785
n,1100,-5.13748455,-16.7532883,-9.90623951
n,1101,20.8204746,2.69351315,7.61524057
n,1102,18.8309155,-0.64496851,11.5921288
n,1103,17.5119095,4.21183062,3.78868723
n,1104,19.3779106,7.32900763,8.07558727
n,1105,20.9260368,6.23102188,5.34079218
n,1106,-10.7435198,10.1050262,-15.9491997
n,1107,-13.9635353,6.50157642,-15.7356443
n,1108,-17.5252075,0.419096529,-13.7989655
n,1109,-18.6297989,4.04261351,-11.1448584
n,1110,-17.2872524,6.59415388,-11.9672375
n,1111,9.90316963,-12.4754314,-0.397479683
n,1112,11.5512657,-15.0579185,1.97898102
n,1113,9.81371498,-17.8237553,-0.869629979
n,1114,13.2990408,-10.4143734,-2.33469105
n,1115,14.4275141,-11.4380178,0.786169291
n,1116,8.85714436,-3.74582481,-15.661624
n,1117,12.3436422,-8.62874699,-5.38169193
n,1118,15.7718573,-11.7057705,-10.5856199
n,1119,-15.1191864,8.99280071,-12.3476629
n,1120,-10.2734785,-1.68901682,-13.9337263
n,1121,2.10077929,19.6297646,-3.84850788
n,1122,-2.57069421,19.5189514,-3.37932515
n,1123,-4.42964077,21.1285782,1.57392156
n,1124,-5.3261137,17.2113094,-3.52249861
n,1125,-7.39932775,-4.01853657,-20.1412888
n,1126,-12.948185,5.26196623,-10.3382616
n,1127,-15.3271799,9.52915955,-7.58891344
n,1128,-16.5297585,5.13746357,-7.33083439
n,1129,14.0379162,0.582390964,-15.9648609
n,1130,4.3657198,2.69898605,-21.1421242
n,1131,-13.9239264,3.62672234,-13.490344
n,1132,-16.0856705,1.8304323,-10.8247271
n,1133,2.32543516,-1.63204205,-14.6405916
n,1134,-19.0982571,7.48185015,-7.88866043
n,1135,6.05174685,14.7995319,15.8745813
n,1136,7.98332071,-19.5680809,6.93751049
n,1137,8.62162495,-17.0988846,11.1726646
n,1138,9.60541439,-17.3999615,4.76470423
n,1139,11.2726412,-18.0320072,7.75462914
n,1140,-3.69726086,-6.99872875,-20.0838127
n,1141,16.3826523,11.1847878,10.1641645
n,1142,15.2110033,9.37957287,6.41542959
n,1143,-6.87791157,-17.6581345,12.1372099
n,1144,5.40363646,2.04257774,-12.6230412
n,1145,6.7992754,-0.048049584,-17.037693
n,1146,12.0346756,3.68579054,-16.6914806
n,1147,12.4250011,6.68188524,-14.071804
n,1148,11.3588457,13.4255562,-8.20868397
n,1149,11.1905279,16.7505398,-5.30143833
n,1150,6.889256,16.1954174,-6.66164303
n,1151,11.748785,12.1954346,0.841050565
n,1152,4.39032269,7.60981798,-17.4651566
n,1153,13.4790392,-17.2423954,-0.799010932
n,1154,8.14412594,1.1253314,-20.5253086
n,1155,8.81122017,5.88990164,-16.9436436
n,1156,3.73631501,-0.387658894,-19.2149487
n,1157,6.36816931,4.49499083,-20.0498581
n,1158,-19.933548,-3.62968993,-4.0727458
n,1159,-17.6429691,2.40436053,13.5905495
n,1160,-2.92743182,-3.40285516,20.5573311
n,1161,2.31719422,6.76788759,-20.3590584
n,1162,1.35362434,9.95457172,-19.413929
n,1163,3.96874309,-21.5955124,4.54000378
n,1164,0.127230838,-21.3608704,7.31457853
n,1165,-16.0294971,-12.6928406,-1.24485755
n,1166,-13.374424,-12.4052906,-4.75931215
n,1167,-14.9310236,-9.71934414,-2.72483611
n,1168,-16.8767757,9.06018639,-4.46013546
n,1169,-13.3684978,4.5488019,-2.72878885
n,1170,-12.7066517,9.3437767,-2.6576345
n,1171,-18.8579159,4.25245953,-1.04788625
n,1172,-16.8039818,1.23663306,1.05722463
n,1173,-14.5605335,10.9613419,2.200495
n,1174,-17.8911095,9.32922077,-0.475275606
n,1175,16.2609043,-14.0576849,2.03322887
n,1176,12.5032568,-14.2092199,-1.97337687
n,1177,14.1784515,0.428433418,16.4197445
n,1178,-0.97814399,-1.46765172,-21.3365993
n,1179,-21.5651417,2.04442739,-3.23334908
n,1180,-20.2793846,7.27010393,-3.98447251
n,1181,11.8321142,5.69813395,15.7702599
n,1182,13.6395845,8.64120388,15.160264
n,1183,5.87803221,3.35845399,16.1524391
n,1184,5.12656975,-19.0311069,-6.482934
n,1185,2.83619046,-20.4038067,-4.58850813
n,1186,-13.9847403,12.72684,-10.1214504
n,1187,-14.8883038,13.2977219,-6.06845808
n,1188,1.82613885,10.0022058,15.7967443
n,1189,18.8774681,-9.78588963,-1.74742568
n,1190,18.4825497,-12.2115564,1.36519039
n,1191,3.81498814,13.3641129,13.683095
n,1192,-21.5277557,1.74037611,2.31343722
n,1193,-11.0537949,-3.67358422,18.0314445
n,1194,8.63724613,15.5509882,-13.6050787
n,1195,11.2856836,15.6233587,-11.1748047
n,1196,4.51243067,16.5318642,-12.3687401
n,1197,6.67974567,17.9442825,-10.0970097
n,1198,9.98452187,17.6332321,-8.21034336
n,1199,-6.05712557,18.2157116,-11.9991884
n,1200,-8.90883732,-17.0903549,3.22586322
n,1201,15.3137217,9.25141525,0.0783477128
n,1202,8.46461487,19.6556339,0.212640136
n,1203,-3.0466516,8.85610485,-19.7858791
n,1204,-18.4173527,-2.01975489,-11.8895779
n,1205,-20.1369228,4.1633091,-7.01761389
n,1206,-17.2243519,3.18805885,-14.3613558
n,1207,17.5006542,12.954195,-5.63406706
n,1208,18.8078461,11.3407469,1.63758218
n,1209,-0.70281297,19.6798515,-6.62018776
n,1210,-2.6462636,15.7867165,-9.52822495
n,1211,0.787417769,17.7308064,-13.1013546
n,1212,-1.93655121,19.3871765,-10.8932209
n,1213,18.4745045,8.31679344,3.40513301
n,1214,13.9849606,13.3322248,-11.1436386
n,1215,14.363821,14.9229326,-7.85630751
n,1216,16.1751232,10.9477425,-11.5238008
n,1217,-5.53300762,11.1901846,-17.8686867
n,1218,-3.68631172,16.657177,-14.349431
n,1219,-1.10872447,12.9708538,-16.923912
n,1220,7.95912933,-6.34534502,-18.6550579
n,1221,15.2191114,15.0750341,-4.24091434
n,1222,15.5743952,11.9185896,-2.36136198
n,1223,5.33455992,11.0121183,-18.1383018
n,1224,3.60447717,14.5735264,-16.2105598
n,1225,-10.0078773,-16.5076447,7.83522177
n,1226,5.7745471,20.0232067,-7.35439205
n,1227,2.89079928,-17.0621071,-12.6227369
n,1228,-11.0184011,-6.47379398,-17.730299
n,1229,-11.0760851,-2.76008129,-17.8102779
n,1230,15.9796505,-3.38655353,14.9615536
n,1231,11.4168377,2.95176029,18.2916813
n,1232,-2.79523921,20.9963474,5.24757528
n,1233,0.316683233,20.1925564,8.37409496
n,1234,-14.4097528,-5.53146982,-2.70665956
n,1235,-12.8072824,-14.4821625,-11.1156731
n,1236,-13.5562019,-11.1945648,-11.2635937
n,1237,13.039856,11.2584,-14.2247982
n,1238,16.9261436,7.41967821,-12.725503
n,1239,16.3420734,-9.68115997,-4.98900366
n,1240,7.57375097,-18.2582207,-3.41243196
n,1241,11.5596466,-11.6703129,-5.32976913
n,1242,-16.646204,-7.83963919,1.31109464
n,1243,-15.2759886,-13.4219999,2.50507808
n,1244,16.912569,14.7121677,-0.579676032
n,1245,20.8281517,8.59873104,0.61246109
n,1246,6.73202324,-21.3312473,-4.9039011
n,1247,9.66826439,-10.0960627,-8.14100075
n,1248,-13.936944,0.379588872,-16.8887577
n,1249,17.4244709,13.4382248,4.18955326
n,1250,14.9926939,15.607605,4.16872597
n,1251,-12.8047619,0.547779858,17.5244827
n,1252,1.45717907,5.61041546,21.488905
n,1253,-4.32382488,7.96902275,20.1468811
n,1254,-4.23469019,2.79760003,21.2159233
n,1255,-2.11612821,0.429472268,21.6742249
n,1256,15.2121048,11.3314037,3.33580923
n,1257,8.70790577,-20.7657127,-1.9917593
n,1258,-6.51219177,-1.38687241,20.9278736
n,1259,-9.70949268,0.937617779,19.9311123
n,1260,-8.68299007,14.792716,-2.52401662
n,1261,-22.1000023,-1.27034473,4.02691746
n,1262,13.8073635,17.0089188,2.07786727
n,1263,-1.15027499,-8.13435364,20.7732067
n,1264,-7.8184433,20.2181473,-0.76083982
n,1265,0.204361647,21.8976955,5.40391445
n,1266,-12.2352648,17.8242836,-3.38042426
n,1267,-12.1474981,17.9785767,0.612625778
n,1268,11.5526533,9.29443264,-16.7739182
n,1269,-4.92112064,19.8344231,-7.6225462
n,1270,11.7808247,18.7028522,-0.497084945
n,1271,16.1505146,-8.24153137,-0.82908982
n,1272,-15.0344381,-4.34531879,-15.3651295
n,1273,6.79040766,16.5827484,12.9809837
n,1274,11.9276114,-18.3245525,2.2526207
n,1275,5.19966888,-22.5729408,0.780620396
n,1276,-0.16052191,22.0994587,-2.80408573
n,1277,-10.6107063,-18.8921013,-3.29173636
n,1278,15.2363214,8.5379591,-14.477766
n,1279,3.21914935,12.5743837,10.0830851
n,1280,1.39220715,16.4488583,11.1817417
n,1281,-10.2938471,-19.2171078,1.83574128
n,1282,-19.226038,-8.93230724,-2.2373693
n,1283,-19.946394,-3.84360576,-7.54005337
n,1284,-0.772659242,21.6511021,2.06948686
n,1285,14.9775486,13.4011307,1.05489349
n,1286,-2.40131879,-21.7111301,-1.26601768
n,1287,16.0394917,-14.1817312,7.76330709
n,1288,2.33721709,1.31970239,20.6488361
n,1289,18.7188854,-11.6365099,-5.07649469
n,1290,1.99669254,-6.02167606,20.6010189
n,1291,-10.6300964,-0.373371661,13.438302
n,1292,-16.8629646,-6.78917122,5.6925416
n,1293,21.0038738,-6.95308304,-1.07471251
n,1294,14.6987085,-16.3077011,2.71309996
n,1295,-20.198101,-7.75913858,1.76421952
n,1296,-18.2834282,-10.6382723,5.26256895
n,1297,3.47569871,19.1932163,9.05667782
n,1298,-13.3163023,16.7503681,3.26124072
n,1299,-0.455543369,6.80322695,17.3944702
n,1300,8.25837898,7.24977684,19.1103897
n,1301,-4.7289319,20.9747028,-4.20389938
n,1302,-16.4076385,-2.46873069,15.0891285
n,1303,9.62963104,-8.57536411,-15.2919168
n,1304,6.48711634,19.0985298,9.60424805
n,1305,21.3418083,6.52825069,-2.42896581
n,1306,5.18706322,6.05680037,18.7226601
n,1307,3.19372296,21.8922405,1.96581817
n,1308,-13.9721537,6.70268726,-5.56803417
n,1309,10.7226629,-13.3988667,-13.5608139
n,1310,-17.4893513,12.5887632,-3.05873179
n,1311,-16.2078133,14.5774479,1.44205201
n,1312,8.35334492,2.01283145,19.930212
n,1313,19.1285248,11.7699785,-1.10409772
n,1314,9.33919239,18.9159794,7.53775835
n,1315,-13.7545443,-16.4671993,7.88020229
n,1316,-12.0009012,-17.7732944,4.55341387
n,1317,10.1297636,19.8099728,-2.73922777
n,1318,-12.8062887,13.865531,-0.58920294
n,1319,12.5689249,15.1713295,-2.34029365
n,1320,11.7526426,-0.941703439,18.1564465
n,1321,-19.1227074,-12.128211,0.382059991
n,1322,-10.1798754,18.9945755,3.32219028
n,1323,20.3187008,-8.64033604,1.25442708
n,1324,-1.12263167,3.36654949,19.3997574
n,1325,-19.6558475,-0.52254045,-1.04113698
